waveform/tb_core_pipe.vcd
$date
	Tue Jun 23 14:22:00 2026
$end
$version
	Icarus Verilog
$end
$timescale
	1ps
$end
$scope module tb_core_pipe $end
$var wire 32 ! imem_rdata [31:0] $end
$var wire 32 " imem_addr [31:0] $end
$var wire 4 # dmem_wstrb [3:0] $end
$var wire 1 $ dmem_we $end
$var wire 32 % dmem_wdata [31:0] $end
$var wire 32 & dmem_rdata [31:0] $end
$var wire 32 ' dmem_addr [31:0] $end
$var reg 1 ( clk $end
$var reg 1 ) rst_n $end
$var integer 32 * c [31:0] $end
$var integer 32 + errors [31:0] $end
$scope module dut $end
$var wire 1 , bus_stall $end
$var wire 1 ( clk $end
$var wire 1 - csr_illegal $end
$var wire 1 . csr_wr $end
$var wire 32 / dmem_addr [31:0] $end
$var wire 1 0 dmem_ready $end
$var wire 1 1 dmem_valid $end
$var wire 32 2 dmem_wdata [31:0] $end
$var wire 1 $ dmem_we $end
$var wire 1 3 ex_branch_taken $end
$var wire 32 4 ex_jalr_target [31:0] $end
$var wire 1 5 ex_mret $end
$var wire 1 6 ex_redirect $end
$var wire 1 7 ex_trap $end
$var wire 32 8 if_instr [31:0] $end
$var wire 1 9 if_stall $end
$var wire 32 : imem_addr [31:0] $end
$var wire 1 ; imem_ready $end
$var wire 1 < imem_valid $end
$var wire 1 = ls_stall $end
$var wire 1 > mul_stall $end
$var wire 1 ) rst_n $end
$var wire 1 ? stall_front $end
$var wire 1 @ wb2id_rs1 $end
$var wire 1 A wb2id_rs2 $end
$var wire 32 B wb_data [31:0] $end
$var wire 32 C pc_plus4 [31:0] $end
$var wire 32 D next_pc [31:0] $end
$var wire 32 E mul_result [31:0] $end
$var wire 1 F mul_done $end
$var wire 1 G mul_busy $end
$var wire 1 H memwb_reg_write $end
$var wire 5 I memwb_rd [4:0] $end
$var wire 2 J mem_off [1:0] $end
$var wire 16 K mem_ld_half [15:0] $end
$var wire 8 L mem_ld_byte [7:0] $end
$var wire 1 M load_use_stall $end
$var wire 32 N imem_rdata [31:0] $end
$var wire 2 O id_wb_sel [1:0] $end
$var wire 1 P id_sys_mret $end
$var wire 1 Q id_sys_ecall $end
$var wire 1 R id_sys_ebreak $end
$var wire 32 S id_rs2_fwd [31:0] $end
$var wire 32 T id_rs2_data [31:0] $end
$var wire 5 U id_rs2 [4:0] $end
$var wire 32 V id_rs1_fwd [31:0] $end
$var wire 32 W id_rs1_data [31:0] $end
$var wire 5 X id_rs1 [4:0] $end
$var wire 1 Y id_reg_write $end
$var wire 5 Z id_rd [4:0] $end
$var wire 7 [ id_opcode [6:0] $end
$var wire 1 \ id_mem_write $end
$var wire 1 ] id_mem_read $end
$var wire 1 ^ id_jump $end
$var wire 1 _ id_jalr $end
$var wire 1 ` id_is_muldiv $end
$var wire 1 a id_is_csr $end
$var wire 3 b id_imm_sel [2:0] $end
$var wire 32 c id_imm [31:0] $end
$var wire 1 d id_funct7b5 $end
$var wire 1 e id_funct7b0 $end
$var wire 3 f id_funct3 [2:0] $end
$var wire 1 g id_branch $end
$var wire 4 h id_alu_op [3:0] $end
$var wire 1 i id_alu_b_src $end
$var wire 1 j id_alu_a_src $end
$var wire 2 k forward_b [1:0] $end
$var wire 2 l forward_a [1:0] $end
$var wire 32 m exmem_fwd_val [31:0] $end
$var wire 32 n ex_trap_cause [31:0] $end
$var wire 32 o ex_result [31:0] $end
$var wire 32 p ex_redirect_pc [31:0] $end
$var wire 32 q ex_pc_target [31:0] $end
$var wire 1 r ex_alu_zero $end
$var wire 32 s ex_alu_result [31:0] $end
$var wire 32 t ex_alu_b [31:0] $end
$var wire 32 u ex_alu_a [31:0] $end
$var wire 4 v dmem_wstrb [3:0] $end
$var wire 32 w dmem_rdata [31:0] $end
$var wire 32 x csr_wval [31:0] $end
$var wire 32 y csr_src [31:0] $end
$var wire 32 z csr_rdata [31:0] $end
$var wire 2 { csr_op [1:0] $end
$var wire 32 | csr_mtvec [31:0] $end
$var wire 32 } csr_mepc [31:0] $end
$var wire 1 ~ csr_addr_valid $end
$var parameter 32 !" RESET_PC $end
$var reg 1 "" ex_branch_cond $end
$var reg 32 #" ex_rs1_fwd [31:0] $end
$var reg 32 $" ex_rs2_fwd [31:0] $end
$var reg 32 %" exmem_alu_result [31:0] $end
$var reg 3 &" exmem_funct3 [2:0] $end
$var reg 1 '" exmem_mem_read $end
$var reg 1 (" exmem_mem_write $end
$var reg 32 )" exmem_pc4 [31:0] $end
$var reg 5 *" exmem_rd [4:0] $end
$var reg 1 +" exmem_reg_write $end
$var reg 32 ," exmem_rs2_data [31:0] $end
$var reg 2 -" exmem_wb_sel [1:0] $end
$var reg 1 ." idex_alu_a_src $end
$var reg 1 /" idex_alu_b_src $end
$var reg 4 0" idex_alu_op [3:0] $end
$var reg 1 1" idex_branch $end
$var reg 12 2" idex_csr_addr [11:0] $end
$var reg 3 3" idex_funct3 [2:0] $end
$var reg 32 4" idex_imm [31:0] $end
$var reg 1 5" idex_is_csr $end
$var reg 1 6" idex_is_muldiv $end
$var reg 1 7" idex_jalr $end
$var reg 1 8" idex_jump $end
$var reg 1 9" idex_mem_read $end
$var reg 1 :" idex_mem_write $end
$var reg 32 ;" idex_pc [31:0] $end
$var reg 32 <" idex_pc4 [31:0] $end
$var reg 5 =" idex_rd [4:0] $end
$var reg 1 >" idex_reg_write $end
$var reg 5 ?" idex_rs1 [4:0] $end
$var reg 32 @" idex_rs1_data [31:0] $end
$var reg 5 A" idex_rs2 [4:0] $end
$var reg 32 B" idex_rs2_data [31:0] $end
$var reg 1 C" idex_sys_ebreak $end
$var reg 1 D" idex_sys_ecall $end
$var reg 1 E" idex_sys_mret $end
$var reg 2 F" idex_wb_sel [1:0] $end
$var reg 32 G" ifid_instr [31:0] $end
$var reg 32 H" ifid_pc [31:0] $end
$var reg 32 I" ifid_pc4 [31:0] $end
$var reg 32 J" mem_load_data [31:0] $end
$var reg 32 K" mem_store_data [31:0] $end
$var reg 4 L" mem_store_strb [3:0] $end
$var reg 32 M" memwb_alu_result [31:0] $end
$var reg 32 N" memwb_load_data [31:0] $end
$var reg 32 O" memwb_pc4 [31:0] $end
$var reg 5 P" memwb_rd_r [4:0] $end
$var reg 1 H memwb_reg_write_r $end
$var reg 2 Q" memwb_wb_sel [1:0] $end
$var reg 32 R" pc [31:0] $end
$var reg 32 S" wb_mux [31:0] $end
$scope module u_alu $end
$var wire 32 T" a [31:0] $end
$var wire 4 U" alu_op [3:0] $end
$var wire 32 V" b [31:0] $end
$var wire 1 r zero $end
$var wire 5 W" shamt [4:0] $end
$var reg 32 X" result [31:0] $end
$upscope $end
$scope module u_csr $end
$var wire 12 Y" addr [11:0] $end
$var wire 1 ( clk $end
$var wire 32 Z" mepc_o [31:0] $end
$var wire 1 5 mret_en $end
$var wire 1 5" rd_en $end
$var wire 1 ) rst_n $end
$var wire 32 [" trap_cause [31:0] $end
$var wire 1 7 trap_en $end
$var wire 32 \" trap_epc [31:0] $end
$var wire 32 ]" trap_val [31:0] $end
$var wire 32 ^" wdata [31:0] $end
$var wire 1 _" wr_en $end
$var wire 32 `" mtvec_o [31:0] $end
$var wire 32 a" mstatus [31:0] $end
$var reg 1 ~ addr_valid $end
$var reg 32 b" mcause [31:0] $end
$var reg 32 c" mepc [31:0] $end
$var reg 32 d" mie [31:0] $end
$var reg 32 e" mip [31:0] $end
$var reg 32 f" mscratch [31:0] $end
$var reg 1 g" mstatus_mie $end
$var reg 1 h" mstatus_mpie $end
$var reg 32 i" mtval [31:0] $end
$var reg 32 j" mtvec [31:0] $end
$var reg 32 k" rdata [31:0] $end
$upscope $end
$scope module u_ctrl $end
$var wire 12 l" funct12 [11:0] $end
$var wire 3 m" funct3 [2:0] $end
$var wire 1 e funct7b0 $end
$var wire 1 d funct7b5 $end
$var wire 7 n" opcode [6:0] $end
$var reg 1 j alu_a_src $end
$var reg 4 o" alu_arith [3:0] $end
$var reg 1 i alu_b_src $end
$var reg 4 p" alu_op [3:0] $end
$var reg 1 g branch $end
$var reg 3 q" imm_sel [2:0] $end
$var reg 1 a is_csr $end
$var reg 1 ` is_muldiv $end
$var reg 1 _ jalr $end
$var reg 1 ^ jump $end
$var reg 1 ] mem_read $end
$var reg 1 \ mem_write $end
$var reg 1 Y reg_write $end
$var reg 1 R sys_ebreak $end
$var reg 1 Q sys_ecall $end
$var reg 1 P sys_mret $end
$var reg 2 r" wb_sel [1:0] $end
$upscope $end
$scope module u_fwd $end
$var wire 5 s" exmem_rd [4:0] $end
$var wire 1 +" exmem_reg_write $end
$var wire 5 t" idex_rs1 [4:0] $end
$var wire 5 u" idex_rs2 [4:0] $end
$var wire 5 v" memwb_rd [4:0] $end
$var wire 1 H memwb_reg_write $end
$var reg 2 w" forward_a [1:0] $end
$var reg 2 x" forward_b [1:0] $end
$upscope $end
$scope module u_hazard $end
$var wire 1 9" idex_mem_read $end
$var wire 5 y" idex_rd [4:0] $end
$var wire 5 z" ifid_rs1 [4:0] $end
$var wire 5 {" ifid_rs2 [4:0] $end
$var wire 1 M stall $end
$upscope $end
$scope module u_imm $end
$var wire 3 |" imm_sel [2:0] $end
$var wire 32 }" instr [31:0] $end
$var reg 32 ~" imm [31:0] $end
$upscope $end
$scope module u_muldiv $end
$var wire 32 !# a [31:0] $end
$var wire 32 "# b [31:0] $end
$var wire 1 ## b_s $end
$var wire 1 G busy $end
$var wire 1 ( clk $end
$var wire 1 $# ge $end
$var wire 1 %# is_mul $end
$var wire 1 &# na $end
$var wire 1 '# nb $end
$var wire 3 (# op [2:0] $end
$var wire 1 )# overflow $end
$var wire 1 ) rst_n $end
$var wire 1 *# signed_div $end
$var wire 1 , stall $end
$var wire 1 6" start $end
$var wire 1 +# take_high $end
$var wire 32 ,# rem_hi [31:0] $end
$var wire 1 F done $end
$var wire 1 -# div_zero $end
$var wire 33 .# diff [32:0] $end
$var wire 33 /# b_ext [32:0] $end
$var wire 64 0# acc_sh [63:0] $end
$var wire 64 1# acc_nx [63:0] $end
$var wire 32 2# abs_b [31:0] $end
$var wire 32 3# abs_a [31:0] $end
$var wire 1 4# a_s $end
$var wire 33 5# a_ext [32:0] $end
$var parameter 3 6# CALC $end
$var parameter 3 7# FIN $end
$var parameter 3 8# IDLE $end
$var parameter 3 9# MUL1 $end
$var parameter 3 :# MUL2 $end
$var reg 64 ;# acc [63:0] $end
$var reg 33 <# areg [32:0] $end
$var reg 33 =# breg [32:0] $end
$var reg 6 ># cnt [5:0] $end
$var reg 32 ?# divisor_q [31:0] $end
$var reg 1 @# neg_q $end
$var reg 1 A# neg_r $end
$var reg 3 B# op_q [2:0] $end
$var reg 66 C# preg [65:0] $end
$var reg 32 D# result [31:0] $end
$var reg 3 E# state [2:0] $end
$var reg 1 F# take_high_q $end
$upscope $end
$scope module u_rf $end
$var wire 1 ( clk $end
$var wire 5 G# rd_addr [4:0] $end
$var wire 32 H# rd_data [31:0] $end
$var wire 5 I# rs1_addr [4:0] $end
$var wire 5 J# rs2_addr [4:0] $end
$var wire 1 H we $end
$var wire 32 K# rs2_data [31:0] $end
$var wire 32 L# rs1_data [31:0] $end
$var integer 32 M# i [31:0] $end
$upscope $end
$upscope $end
$scope module u_dmem $end
$var wire 32 N# addr [31:0] $end
$var wire 1 ( clk $end
$var wire 32 O# rdata [31:0] $end
$var wire 32 P# wdata [31:0] $end
$var wire 1 $ we $end
$var wire 4 Q# wstrb [3:0] $end
$var wire 8 R# widx [7:0] $end
$var parameter 32 S# WORDS $end
$var integer 32 T# k [31:0] $end
$upscope $end
$scope module u_imem $end
$var wire 32 U# addr [31:0] $end
$var wire 32 V# rdata [31:0] $end
$var parameter 32 W# WORDS $end
$var integer 32 X# k [31:0] $end
$upscope $end
$scope task chk $end
$var reg 32 Y# exp [31:0] $end
$var reg 32 Z# got [31:0] $end
$var integer 32 [# id [31:0] $end
$upscope $end
$upscope $end
$enddefinitions $end
$comment Show the parameter values. $end
$dumpall
b100000000 W#
b100000000 S#
b10 :#
b1 9#
b0 8#
b100 7#
b11 6#
b0 !"
$end
#0
$dumpvars
bx [#
bx Z#
bx Y#
b100000000 X#
b10100000000000010010011 V#
b0 U#
b100000000 T#
b0 R#
b0 Q#
b0 P#
b0 O#
b0 N#
b100000 M#
b0 L#
b0 K#
b0 J#
b0 I#
b0 H#
b0 G#
0F#
b0 E#
b0 D#
b0 C#
b0 B#
0A#
0@#
b0 ?#
b0 >#
b0 =#
b0 <#
b0 ;#
b0 5#
14#
b0 3#
b0 2#
b1 1#
b0 0#
b0 /#
b0 .#
1-#
b0 ,#
0+#
0*#
0)#
b0 (#
0'#
0&#
1%#
1$#
1##
b0 "#
b0 !#
b0 ~"
b10011 }"
b0 |"
b0 {"
b0 z"
b0 y"
b0 x"
b0 w"
b0 v"
b0 u"
b0 t"
b0 s"
b0 r"
b0 q"
b0 p"
b0 o"
b10011 n"
b0 m"
b0 l"
b0 k"
b0 j"
b0 i"
0h"
0g"
b0 f"
b0 e"
b0 d"
b0 c"
b0 b"
b11000000000000 a"
b0 `"
0_"
b0 ^"
b0 ]"
b0 \"
b10 ["
b0 Z"
b0 Y"
b0 X"
b0 W"
b0 V"
b0 U"
b0 T"
b0 S"
b0 R"
b0 Q"
b0 P"
b0 O"
b0 N"
b0 M"
b1 L"
b0 K"
b0 J"
b0 I"
b0 H"
b10011 G"
b0 F"
0E"
0D"
0C"
b0 B"
b0 A"
b0 @"
b0 ?"
0>"
b0 ="
b0 <"
b0 ;"
0:"
09"
08"
07"
06"
05"
b0 4"
b0 3"
b0 2"
01"
b0 0"
0/"
0."
b0 -"
b0 ,"
0+"
b0 *"
b0 )"
0("
0'"
b0 &"
b0 %"
b0 $"
b0 #"
1""
0~
b0 }
b0 |
b0 {
b0 z
b0 y
b0 x
b0 w
b0 v
b0 u
b0 t
b0 s
1r
b0 q
b0 p
b0 o
b10 n
b0 m
b0 l
b0 k
0j
1i
b0 h
0g
b0 f
0e
0d
b0 c
b0 b
0a
0`
0_
0^
0]
0\
b10011 [
b0 Z
1Y
b0 X
b0 W
b0 V
b0 U
b0 T
b0 S
0R
0Q
0P
b0 O
b10100000000000010010011 N
0M
b0 L
b0 K
b0 J
b0 I
0H
0G
0F
b0 E
b100 D
b100 C
b0 B
0A
0@
0?
0>
0=
1<
z;
b0 :
x9
b10100000000000010010011 8
07
06
05
b0 4
03
b0 2
01
z0
b0 /
0.
0-
x,
b0 +
bx *
0)
0(
b0 '
b0 &
b0 %
0$
b0 #
b0 "
b10100000000000010010011 !
$end
#5000
1(
#10000
0(
#15000
1(
#20000
b0 *
1)
0(
#25000
1i
1Y
b1 Z
b101 U
b101 {"
b101 J#
b101 l"
b101 c
b101 ~"
b1000 D
b11100000000000100010011 8
b11100000000000100010011 !
b11100000000000100010011 N
b11100000000000100010011 V#
1/"
1>"
b10100000000000010010011 G"
b10100000000000010010011 }"
b100 I"
b1000 C
b100 "
b100 :
b100 U#
b100 R"
1(
#30000
b1 *
0(
#35000
b101 o
b101 p
1i
1Y
0r
b101 s
b101 X"
b101 W"
b1100 D
b10011 8
b10011 !
b10011 N
b10011 V#
b10 Z
b111 U
b111 {"
b111 J#
b111 l"
b111 c
b111 ~"
0~
b101 t
b101 V"
b100 4
b1100 C
b1000 "
b1000 :
b1000 U#
b1000 R"
b11100000000000100010011 G"
b11100000000000100010011 }"
b1000 I"
b100 H"
b101 2"
b101 Y"
b101 A"
b101 u"
b1 ="
b1 y"
b100 <"
b101 q
b101 4"
1+"
1(
#40000
b10 *
0(
#45000
b111 o
b1011 p
b10 L"
b111 s
b111 X"
b111 W"
1i
1Y
b101 m
b1 J
b1 R#
0~
b111 t
b111 V"
b110 4
b0 Z
b0 U
b0 {"
b0 J#
b0 l"
b0 c
b0 ~"
b10000 D
1H
b1 *"
b1 s"
b100 )"
b101 '
b101 /
b101 N#
b101 %"
b111 2"
b111 Y"
b111 A"
b111 u"
b10 ="
b10 y"
b1000 <"
b100 ;"
b100 \"
b1011 q
b111 4"
b10011 G"
b10011 }"
b1100 I"
b1000 H"
b10000 C
b1100 "
b1100 :
b1100 U#
b1100 R"
1(
#50000
b11 *
0(
#55000
b0 o
b1000 p
1r
b0 s
b0 X"
b0 W"
b1000 L"
b10100 D
0~
b0 t
b0 V"
b0 4
b111 m
bx00000000 K
b11 J
b101 B
b101 S"
b101 H#
b10100 C
b10000 "
b10000 :
b10000 U#
b10000 R"
b10000 I"
b1100 H"
b0 2"
b0 Y"
b0 A"
b0 u"
b0 ="
b0 y"
b1100 <"
b1000 ;"
b1000 \"
b1000 q
b0 4"
b10 *"
b10 s"
b1000 )"
b111 '
b111 /
b111 N#
b111 %"
b1 I
b1 P"
b1 v"
b1 G#
b100 O"
b101 M"
1(
#60000
b100 *
0(
#65000
b1100 p
b1 L"
b111 B
b111 S"
b111 H#
b0 m
b0 K
b0 J
b0 R#
b11000 D
b1000001000000110110011 8
b1000001000000110110011 !
b1000001000000110110011 N
b1000001000000110110011 V#
b10 I
b10 P"
b10 v"
b10 G#
b1000 O"
b111 M"
b0 *"
b0 s"
b1100 )"
b0 '
b0 /
b0 N#
b0 %"
b10000 <"
b1100 q
b1100 ;"
b1100 \"
b10100 I"
b10000 H"
b11000 C
b10100 "
b10100 :
b10100 U#
b10100 R"
1(
#70000
b101 *
0(
#75000
b10000 p
b101 V
b111 S
b101 W
b101 L#
b111 T
b111 K#
0i
1Y
b11100 D
b10011 8
b10011 !
b10011 N
b10011 V#
b110011 [
b110011 n"
b11 Z
b1 X
b1 z"
b1 I#
b10 U
b10 {"
b10 J#
b10 l"
b10 c
b10 ~"
0@
0A
b0 B
b0 S"
b0 H#
b11100 C
b11000 "
b11000 :
b11000 U#
b11000 R"
b1000001000000110110011 G"
b1000001000000110110011 }"
b11000 I"
b10100 H"
b10100 <"
b10000 q
b10000 ;"
b10000 \"
b10000 )"
b0 I
b0 P"
b0 v"
b0 G#
b1100 O"
b0 M"
1(
#80000
b110 *
0(
#85000
b1100 o
b10110 p
b111 W"
0r
b1100 s
b1100 X"
b0 V
b0 S
b111 t
b111 V"
b111 2#
b101 u
b101 T"
b101 y
b101 3#
0""
b0 W
b0 L#
b0 T
b0 K#
1i
1Y
0~
b110 4
b111 /#
0-#
b111 $"
b111 "#
b101 5#
b101 #"
b101 !#
b10011 [
b10011 n"
b0 Z
b0 X
b0 z"
b0 I#
b0 U
b0 {"
b0 J#
b0 l"
b0 c
b0 ~"
b100000 D
b10000 O"
b10100 )"
b10 2"
b10 Y"
b10 A"
b10 u"
b1 ?"
b1 t"
b11 ="
b11 y"
b11000 <"
b10100 ;"
b10100 \"
b10110 q
b10 4"
b111 B"
b101 @"
0/"
b10011 G"
b10011 }"
b11100 I"
b11000 H"
b100000 C
b11100 "
b11100 :
b11100 U#
b11100 R"
1(
#90000
b111 *
0(
#95000
b0 o
b11000 p
1r
b0 2#
b0 u
b0 T"
b0 y
b0 3#
1""
b0 s
b0 X"
b0 W"
b100100 D
0~
b0 4
b0 /#
1-#
b0 $"
b0 "#
b0 5#
b0 #"
b0 !#
b0 t
b0 V"
b111 %
b111 2
b111 P#
b111 K"
b1100 m
b11 R#
b100100 C
b100000 "
b100000 :
b100000 U#
b100000 R"
b100000 I"
b11100 H"
b0 2"
b0 Y"
b0 A"
b0 u"
b0 ?"
b0 t"
b0 ="
b0 y"
b11100 <"
b11000 ;"
b11000 \"
b11000 q
b0 4"
b0 B"
b0 @"
1/"
b11 *"
b11 s"
b11000 )"
b111 ,"
b1100 '
b1100 /
b1100 N#
b1100 %"
b10100 O"
1(
#100000
b1000 *
0(
#105000
b11100 p
b1100 B
b1100 S"
b1100 H#
b0 %
b0 2
b0 P#
b0 K"
b0 m
b0 R#
b101000 D
b1100000010000000100011 8
b1100000010000000100011 !
b1100000010000000100011 N
b1100000010000000100011 V#
b11 I
b11 P"
b11 v"
b11 G#
b11000 O"
b1100 M"
b0 *"
b0 s"
b11100 )"
b0 ,"
b0 '
b0 /
b0 N#
b0 %"
b100000 <"
b11100 q
b11100 ;"
b11100 \"
b100100 I"
b100000 H"
b101000 C
b100100 "
b100100 :
b100100 U#
b100100 R"
1(
#110000
b1001 *
0(
#115000
b100000 p
b1100 S
b1100 T
b1100 K#
b11 o"
1\
b1 b
b1 q"
b1 |"
1i
0Y
b101100 D
b10011 8
b10011 !
b10011 N
b10011 V#
b100011 [
b100011 n"
b11 U
b11 {"
b11 J#
b10 f
b10 m"
b11 l"
b0 c
b0 ~"
0@
0A
b0 B
b0 S"
b0 H#
b101100 C
b101000 "
b101000 :
b101000 U#
b101000 R"
b1100000010000000100011 G"
b1100000010000000100011 }"
b101000 I"
b100100 H"
b100100 <"
b100000 q
b100000 ;"
b100000 \"
b100000 )"
b0 I
b0 P"
b0 v"
b0 G#
b11100 O"
b0 M"
1(
#120000
b1010 *
0(
#125000
b100100 p
b0 S
b1100 2#
b0 T
b0 K#
b0 o"
1Y
0\
b0 b
b0 q"
b0 |"
1i
0~
b10 {
0##
0""
b1100 /#
0-#
b1100 $"
b1100 "#
b10011 [
b10011 n"
b0 U
b0 {"
b0 J#
b0 f
b0 m"
b0 l"
b110000 D
b100000 O"
b100100 )"
b11 2"
b11 Y"
1+#
b10 3"
b10 (#
b11 A"
b11 u"
b101000 <"
b100100 q
b100100 ;"
b100100 \"
b1100 B"
1:"
0>"
b10011 G"
b10011 }"
b101100 I"
b101000 H"
b110000 C
b101100 "
b101100 :
b101100 U#
b101100 R"
1(
#130000
b1011 *
0(
#135000
b101000 p
1%#
b0 2#
x=
b110100 D
0~
b0 {
1##
1""
b0 /#
1-#
b0 $"
b0 "#
b1111 L"
b1100 %
b1100 2
b1100 P#
b1100 K"
b1111 #
b1111 v
b1111 Q#
11
b110100 C
b110000 "
b110000 :
b110000 U#
b110000 R"
b110000 I"
b101100 H"
b0 2"
b0 Y"
0+#
b0 3"
b0 (#
b0 A"
b0 u"
b101100 <"
b101000 q
b101000 ;"
b101000 \"
b0 B"
0:"
1>"
b10 &"
b101000 )"
b1100 ,"
1$
1("
0+"
b100100 O"
1(
#140000
b1100 *
0(
#145000
b101100 p
0=
b1 L"
b0 %
b0 2
b0 P#
b0 K"
b0 #
b0 v
b0 Q#
01
b111000 D
b10001000000011 8
b10001000000011 !
b10001000000011 N
b10001000000011 V#
b1100 J"
b101000 O"
0H
b0 &"
b101100 )"
b0 ,"
0$
0("
1+"
b110000 <"
b101100 q
b101100 ;"
b101100 \"
b110100 I"
b110000 H"
b111000 C
b110100 "
b110100 :
b110100 U#
b110100 R"
b1100 K
b1100 L
b1100 &
b1100 w
b1100 O#
1(
#150000
b1101 *
0(
#155000
b110000 p
b1 O
b1 r"
1]
1i
1Y
b11 o"
b111100 D
b10011 8
b10011 !
b10011 N
b10011 V#
b11 [
b11 n"
b100 Z
b10 f
b10 m"
b111100 C
b111000 "
b111000 :
b111000 U#
b111000 R"
b10001000000011 G"
b10001000000011 }"
b111000 I"
b110100 H"
b110100 <"
b110000 q
b110000 ;"
b110000 \"
b110000 )"
b101100 O"
b1100 N"
1H
1(
#160000
b1110 *
0(
#165000
b110100 p
b0 O
b0 r"
0]
1i
1Y
b0 o"
b10 {
0##
0""
b10011 [
b10011 n"
b0 Z
b0 f
b0 m"
b1000000 D
b110000 O"
b110100 )"
1+#
b10 3"
b10 (#
b100 ="
b100 y"
b111000 <"
b110100 q
b110100 ;"
b110100 \"
b1 F"
19"
b10011 G"
b10011 }"
b111100 I"
b111000 H"
b1000000 C
b111100 "
b111100 :
b111100 U#
b111100 R"
1(
#170000
b1111 *
0(
#175000
b111000 p
1%#
x=
b1000100 D
b0 {
1##
1""
b1111 L"
11
b1000100 C
b1000000 "
b1000000 :
b1000000 U#
b1000000 R"
b1000000 I"
b111100 H"
0+#
b0 3"
b0 (#
b0 ="
b0 y"
b111100 <"
b111000 q
b111000 ;"
b111000 \"
b0 F"
09"
b10 &"
b100 *"
b100 s"
b111000 )"
b1 -"
1'"
b110100 O"
1(
#180000
b10000 *
0(
#185000
b111100 p
0=
b1100 B
b1100 S"
b1100 H#
b1 L"
01
b1001000 D
b100100000001010110011 8
b100100000001010110011 !
b100100000001010110011 N
b100100000001010110011 V#
b100 I
b100 P"
b100 v"
b100 G#
b111000 O"
b1 Q"
b0 &"
b0 *"
b0 s"
b111100 )"
b0 -"
0'"
b1000000 <"
b111100 q
b111100 ;"
b111100 \"
b1000100 I"
b1000000 H"
b1001000 C
b1000100 "
b1000100 :
b1000100 U#
b1000100 R"
1(
#190000
b10001 *
0(
#195000
b1000000 p
b1100 V
b101 S
b1100 W
b1100 L#
b101 T
b101 K#
0i
1Y
b1001100 D
b10011 8
b10011 !
b10011 N
b10011 V#
b110011 [
b110011 n"
b101 Z
b100 X
b100 z"
b100 I#
b1 U
b1 {"
b1 J#
b1 l"
b1 c
b1 ~"
0@
0A
b0 B
b0 S"
b0 H#
b1001100 C
b1001000 "
b1001000 :
b1001000 U#
b1001000 R"
b100100000001010110011 G"
b100100000001010110011 }"
b1001000 I"
b1000100 H"
b1000100 <"
b1000000 q
b1000000 ;"
b1000000 \"
b1000000 )"
b0 I
b0 P"
b0 v"
b0 G#
b111100 O"
b0 Q"
1(
#200000
b10010 *
0(
#205000
b10001 o
b1000101 p
b101 W"
0r
b10001 s
b10001 X"
b0 V
b0 S
b101 t
b101 V"
b101 2#
b1100 u
b1100 T"
b1100 y
b1100 3#
0""
b0 W
b0 L#
b0 T
b0 K#
1i
1Y
0~
b1100 4
b101 /#
0-#
b101 $"
b101 "#
b1100 5#
b1100 #"
b1100 !#
b10011 [
b10011 n"
b0 Z
b0 X
b0 z"
b0 I#
b0 U
b0 {"
b0 J#
b0 l"
b0 c
b0 ~"
b1010000 D
b1000000 O"
b1000100 )"
b1 2"
b1 Y"
b1 A"
b1 u"
b100 ?"
b100 t"
b101 ="
b101 y"
b1001000 <"
b1000100 ;"
b1000100 \"
b1000101 q
b1 4"
b101 B"
b1100 @"
0/"
b10011 G"
b10011 }"
b1001100 I"
b1001000 H"
b1010000 C
b1001100 "
b1001100 :
b1001100 U#
b1001100 R"
1(
#210000
b10011 *
0(
#215000
b0 o
b1001000 p
1r
b0 2#
b0 u
b0 T"
b0 y
b0 3#
1""
b0 s
b0 X"
b0 W"
b0 J"
b1010100 D
0~
b0 4
b0 /#
1-#
b0 $"
b0 "#
b0 5#
b0 #"
b0 !#
b0 t
b0 V"
b10 L"
b10100000000 %
b10100000000 2
b10100000000 P#
b10100000000 K"
b10001 m
b1 J
b0 K
b0 L
b0 &
b0 w
b0 O#
b100 R#
b1010100 C
b1010000 "
b1010000 :
b1010000 U#
b1010000 R"
b1010000 I"
b1001100 H"
b0 2"
b0 Y"
b0 A"
b0 u"
b0 ?"
b0 t"
b0 ="
b0 y"
b1001100 <"
b1001000 ;"
b1001000 \"
b1001000 q
b0 4"
b0 B"
b0 @"
1/"
b101 *"
b101 s"
b1001000 )"
b101 ,"
b10001 '
b10001 /
b10001 N#
b10001 %"
b1000100 O"
1(
#220000
b10100 *
0(
#225000
b1001100 p
b1100 J"
b10001 B
b10001 S"
b10001 H#
b1 L"
b0 %
b0 2
b0 P#
b0 K"
b0 m
b1100 L
b1100 K
b0 J
b1100 &
b1100 w
b1100 O#
b0 R#
b1011000 D
b101 I
b101 P"
b101 v"
b101 G#
b1001000 O"
b0 N"
b10001 M"
b0 *"
b0 s"
b1001100 )"
b0 ,"
b0 '
b0 /
b0 N#
b0 %"
b1010000 <"
b1001100 q
b1001100 ;"
b1001100 \"
b1010100 I"
b1010000 H"
b1011000 C
b1010100 "
b1010100 :
b1010100 U#
b1010100 R"
1(
#230000
b10101 *
0(
#235000
b1010000 p
b1011100 D
0@
0A
b0 B
b0 S"
b0 H#
b1011100 C
b1011000 "
b1011000 :
b1011000 U#
b1011000 R"
b1011000 I"
b1010100 H"
b1010100 <"
b1010000 q
b1010000 ;"
b1010000 \"
b1010000 )"
b0 I
b0 P"
b0 v"
b0 G#
b1001100 O"
b1100 N"
b0 M"
1(
#240000
b10110 *
0(
#245000
b1010100 p
b1100000 D
b1010000 O"
b1010100 )"
b1011000 <"
b1010100 q
b1010100 ;"
b1010100 \"
b1011100 I"
b1011000 H"
b1100000 C
b1011100 "
b1011100 :
b1011100 U#
b1011100 R"
1(
#250000
b10111 *
0(
#255000
b1011000 p
b1100100 D
b1100100 C
b1100000 "
b1100000 :
b1100000 U#
b1100000 R"
b1100000 I"
b1011100 H"
b1011100 <"
b1011000 q
b1011000 ;"
b1011000 \"
b1011000 )"
b1010100 O"
1(
#260000
b11000 *
0(
#265000
b1011100 p
b1101000 D
b1011000 O"
b1011100 )"
b1100000 <"
b1011100 q
b1011100 ;"
b1011100 \"
b1100100 I"
b1100000 H"
b1101000 C
b1100100 "
b1100100 :
b1100100 U#
b1100100 R"
1(
#270000
b11001 *
0(
#275000
b1100000 p
b1101100 D
b1101100 C
b1101000 "
b1101000 :
b1101000 U#
b1101000 R"
b1101000 I"
b1100100 H"
b1100100 <"
b1100000 q
b1100000 ;"
b1100000 \"
b1100000 )"
b1011100 O"
1(
#280000
b11010 *
0(
#285000
b1100100 p
b1110000 D
b1100000 O"
b1100100 )"
b1101000 <"
b1100100 q
b1100100 ;"
b1100100 \"
b1101100 I"
b1101000 H"
b1110000 C
b1101100 "
b1101100 :
b1101100 U#
b1101100 R"
1(
#290000
b11011 *
0(
#295000
b1101000 p
b1110100 D
b1110100 C
b1110000 "
b1110000 :
b1110000 U#
b1110000 R"
b1110000 I"
b1101100 H"
b1101100 <"
b1101000 q
b1101000 ;"
b1101000 \"
b1101000 )"
b1100100 O"
1(
#300000
b11100 *
0(
