waveform/tb_core_pipe_m.vcd
$date
	Thu Jun 11 04:51:18 2026
$end
$version
	Icarus Verilog
$end
$timescale
	1ps
$end
$scope module tb_core_pipe_m $end
$var wire 32 ! imem_rdata [31:0] $end
$var wire 32 " imem_addr [31:0] $end
$var wire 4 # dmem_wstrb [3:0] $end
$var wire 1 $ dmem_we $end
$var wire 32 % dmem_wdata [31:0] $end
$var wire 32 & dmem_rdata [31:0] $end
$var wire 32 ' dmem_addr [31:0] $end
$var reg 1 ( clk $end
$var reg 1 ) rst_n $end
$var integer 32 * c [31:0] $end
$var integer 32 + errors [31:0] $end
$scope module dut $end
$var wire 1 ( clk $end
$var wire 1 , csr_illegal $end
$var wire 1 - csr_wr $end
$var wire 32 . dmem_addr [31:0] $end
$var wire 32 / dmem_wdata [31:0] $end
$var wire 1 $ dmem_we $end
$var wire 1 0 ex_branch_taken $end
$var wire 32 1 ex_jalr_target [31:0] $end
$var wire 1 2 ex_mret $end
$var wire 1 3 ex_redirect $end
$var wire 1 4 ex_trap $end
$var wire 32 5 if_instr [31:0] $end
$var wire 32 6 imem_addr [31:0] $end
$var wire 1 7 mul_stall $end
$var wire 1 ) rst_n $end
$var wire 1 8 stall_front $end
$var wire 1 9 wb2id_rs1 $end
$var wire 1 : wb2id_rs2 $end
$var wire 32 ; wb_data [31:0] $end
$var wire 32 < pc_plus4 [31:0] $end
$var wire 32 = next_pc [31:0] $end
$var wire 32 > mul_result [31:0] $end
$var wire 1 ? mul_done $end
$var wire 1 @ mul_busy $end
$var wire 1 A memwb_reg_write $end
$var wire 5 B memwb_rd [4:0] $end
$var wire 2 C mem_off [1:0] $end
$var wire 16 D mem_ld_half [15:0] $end
$var wire 8 E mem_ld_byte [7:0] $end
$var wire 1 F load_use_stall $end
$var wire 32 G imem_rdata [31:0] $end
$var wire 2 H id_wb_sel [1:0] $end
$var wire 1 I id_sys_mret $end
$var wire 1 J id_sys_ecall $end
$var wire 1 K id_sys_ebreak $end
$var wire 32 L id_rs2_fwd [31:0] $end
$var wire 32 M id_rs2_data [31:0] $end
$var wire 5 N id_rs2 [4:0] $end
$var wire 32 O id_rs1_fwd [31:0] $end
$var wire 32 P id_rs1_data [31:0] $end
$var wire 5 Q id_rs1 [4:0] $end
$var wire 1 R id_reg_write $end
$var wire 5 S id_rd [4:0] $end
$var wire 7 T id_opcode [6:0] $end
$var wire 1 U id_mem_write $end
$var wire 1 V id_mem_read $end
$var wire 1 W id_jump $end
$var wire 1 X id_jalr $end
$var wire 1 Y id_is_muldiv $end
$var wire 1 Z id_is_csr $end
$var wire 3 [ id_imm_sel [2:0] $end
$var wire 32 \ id_imm [31:0] $end
$var wire 1 ] id_funct7b5 $end
$var wire 1 ^ id_funct7b0 $end
$var wire 3 _ id_funct3 [2:0] $end
$var wire 1 ` id_branch $end
$var wire 4 a id_alu_op [3:0] $end
$var wire 1 b id_alu_b_src $end
$var wire 1 c id_alu_a_src $end
$var wire 2 d forward_b [1:0] $end
$var wire 2 e forward_a [1:0] $end
$var wire 32 f exmem_fwd_val [31:0] $end
$var wire 32 g ex_trap_cause [31:0] $end
$var wire 32 h ex_result [31:0] $end
$var wire 32 i ex_redirect_pc [31:0] $end
$var wire 32 j ex_pc_target [31:0] $end
$var wire 1 k ex_alu_zero $end
$var wire 32 l ex_alu_result [31:0] $end
$var wire 32 m ex_alu_b [31:0] $end
$var wire 32 n ex_alu_a [31:0] $end
$var wire 4 o dmem_wstrb [3:0] $end
$var wire 32 p dmem_rdata [31:0] $end
$var wire 32 q csr_wval [31:0] $end
$var wire 32 r csr_src [31:0] $end
$var wire 32 s csr_rdata [31:0] $end
$var wire 2 t csr_op [1:0] $end
$var wire 32 u csr_mtvec [31:0] $end
$var wire 32 v csr_mepc [31:0] $end
$var wire 1 w csr_addr_valid $end
$var parameter 32 x RESET_PC $end
$var reg 1 y ex_branch_cond $end
$var reg 32 z ex_rs1_fwd [31:0] $end
$var reg 32 { ex_rs2_fwd [31:0] $end
$var reg 32 | exmem_alu_result [31:0] $end
$var reg 3 } exmem_funct3 [2:0] $end
$var reg 1 ~ exmem_mem_read $end
$var reg 1 !" exmem_mem_write $end
$var reg 32 "" exmem_pc4 [31:0] $end
$var reg 5 #" exmem_rd [4:0] $end
$var reg 1 $" exmem_reg_write $end
$var reg 32 %" exmem_rs2_data [31:0] $end
$var reg 2 &" exmem_wb_sel [1:0] $end
$var reg 1 '" idex_alu_a_src $end
$var reg 1 (" idex_alu_b_src $end
$var reg 4 )" idex_alu_op [3:0] $end
$var reg 1 *" idex_branch $end
$var reg 12 +" idex_csr_addr [11:0] $end
$var reg 3 ," idex_funct3 [2:0] $end
$var reg 32 -" idex_imm [31:0] $end
$var reg 1 ." idex_is_csr $end
$var reg 1 /" idex_is_muldiv $end
$var reg 1 0" idex_jalr $end
$var reg 1 1" idex_jump $end
$var reg 1 2" idex_mem_read $end
$var reg 1 3" idex_mem_write $end
$var reg 32 4" idex_pc [31:0] $end
$var reg 32 5" idex_pc4 [31:0] $end
$var reg 5 6" idex_rd [4:0] $end
$var reg 1 7" idex_reg_write $end
$var reg 5 8" idex_rs1 [4:0] $end
$var reg 32 9" idex_rs1_data [31:0] $end
$var reg 5 :" idex_rs2 [4:0] $end
$var reg 32 ;" idex_rs2_data [31:0] $end
$var reg 1 <" idex_sys_ebreak $end
$var reg 1 =" idex_sys_ecall $end
$var reg 1 >" idex_sys_mret $end
$var reg 2 ?" idex_wb_sel [1:0] $end
$var reg 32 @" ifid_instr [31:0] $end
$var reg 32 A" ifid_pc [31:0] $end
$var reg 32 B" ifid_pc4 [31:0] $end
$var reg 32 C" mem_load_data [31:0] $end
$var reg 32 D" mem_store_data [31:0] $end
$var reg 4 E" mem_store_strb [3:0] $end
$var reg 32 F" memwb_alu_result [31:0] $end
$var reg 32 G" memwb_load_data [31:0] $end
$var reg 32 H" memwb_pc4 [31:0] $end
$var reg 5 I" memwb_rd_r [4:0] $end
$var reg 1 A memwb_reg_write_r $end
$var reg 2 J" memwb_wb_sel [1:0] $end
$var reg 32 K" pc [31:0] $end
$var reg 32 L" wb_mux [31:0] $end
$scope module u_alu $end
$var wire 32 M" a [31:0] $end
$var wire 4 N" alu_op [3:0] $end
$var wire 32 O" b [31:0] $end
$var wire 1 k zero $end
$var wire 5 P" shamt [4:0] $end
$var reg 32 Q" result [31:0] $end
$upscope $end
$scope module u_csr $end
$var wire 12 R" addr [11:0] $end
$var wire 1 ( clk $end
$var wire 32 S" mepc_o [31:0] $end
$var wire 1 2 mret_en $end
$var wire 1 ." rd_en $end
$var wire 1 ) rst_n $end
$var wire 32 T" trap_cause [31:0] $end
$var wire 1 4 trap_en $end
$var wire 32 U" trap_epc [31:0] $end
$var wire 32 V" trap_val [31:0] $end
$var wire 32 W" wdata [31:0] $end
$var wire 1 X" wr_en $end
$var wire 32 Y" mtvec_o [31:0] $end
$var wire 32 Z" mstatus [31:0] $end
$var reg 1 w addr_valid $end
$var reg 32 [" mcause [31:0] $end
$var reg 32 \" mepc [31:0] $end
$var reg 32 ]" mie [31:0] $end
$var reg 32 ^" mip [31:0] $end
$var reg 32 _" mscratch [31:0] $end
$var reg 1 `" mstatus_mie $end
$var reg 1 a" mstatus_mpie $end
$var reg 32 b" mtval [31:0] $end
$var reg 32 c" mtvec [31:0] $end
$var reg 32 d" rdata [31:0] $end
$upscope $end
$scope module u_ctrl $end
$var wire 12 e" funct12 [11:0] $end
$var wire 3 f" funct3 [2:0] $end
$var wire 1 ^ funct7b0 $end
$var wire 1 ] funct7b5 $end
$var wire 7 g" opcode [6:0] $end
$var reg 1 c alu_a_src $end
$var reg 4 h" alu_arith [3:0] $end
$var reg 1 b alu_b_src $end
$var reg 4 i" alu_op [3:0] $end
$var reg 1 ` branch $end
$var reg 3 j" imm_sel [2:0] $end
$var reg 1 Z is_csr $end
$var reg 1 Y is_muldiv $end
$var reg 1 X jalr $end
$var reg 1 W jump $end
$var reg 1 V mem_read $end
$var reg 1 U mem_write $end
$var reg 1 R reg_write $end
$var reg 1 K sys_ebreak $end
$var reg 1 J sys_ecall $end
$var reg 1 I sys_mret $end
$var reg 2 k" wb_sel [1:0] $end
$upscope $end
$scope module u_fwd $end
$var wire 5 l" exmem_rd [4:0] $end
$var wire 1 $" exmem_reg_write $end
$var wire 5 m" idex_rs1 [4:0] $end
$var wire 5 n" idex_rs2 [4:0] $end
$var wire 5 o" memwb_rd [4:0] $end
$var wire 1 A memwb_reg_write $end
$var reg 2 p" forward_a [1:0] $end
$var reg 2 q" forward_b [1:0] $end
$upscope $end
$scope module u_hazard $end
$var wire 1 2" idex_mem_read $end
$var wire 5 r" idex_rd [4:0] $end
$var wire 5 s" ifid_rs1 [4:0] $end
$var wire 5 t" ifid_rs2 [4:0] $end
$var wire 1 F stall $end
$upscope $end
$scope module u_imm $end
$var wire 3 u" imm_sel [2:0] $end
$var wire 32 v" instr [31:0] $end
$var reg 32 w" imm [31:0] $end
$upscope $end
$scope module u_muldiv $end
$var wire 32 x" a [31:0] $end
$var wire 32 y" b [31:0] $end
$var wire 1 ( clk $end
$var wire 1 z" ge $end
$var wire 1 {" is_mul $end
$var wire 1 |" na $end
$var wire 1 }" nb $end
$var wire 3 ~" op [2:0] $end
$var wire 1 !# overflow $end
$var wire 1 ) rst_n $end
$var wire 1 "# signed_div $end
$var wire 1 /" start $end
$var wire 32 ## rem_hi [31:0] $end
$var wire 64 $# p_uu [63:0] $end
$var wire 64 %# p_su [63:0] $end
$var wire 64 &# p_ss [63:0] $end
$var wire 1 ? done $end
$var wire 1 '# div_zero $end
$var wire 33 (# diff [32:0] $end
$var wire 1 @ busy $end
$var wire 64 )# bu [63:0] $end
$var wire 64 *# bs [63:0] $end
$var wire 64 +# au [63:0] $end
$var wire 64 ,# as [63:0] $end
$var wire 64 -# acc_sh [63:0] $end
$var wire 64 .# acc_nx [63:0] $end
$var wire 32 /# abs_b [31:0] $end
$var wire 32 0# abs_a [31:0] $end
$var parameter 2 1# CALC $end
$var parameter 2 2# FIN $end
$var parameter 2 3# IDLE $end
$var reg 64 4# acc [63:0] $end
$var reg 6 5# cnt [5:0] $end
$var reg 32 6# divisor_q [31:0] $end
$var reg 32 7# mul_res [31:0] $end
$var reg 1 8# neg_q $end
$var reg 1 9# neg_r $end
$var reg 3 :# op_q [2:0] $end
$var reg 32 ;# result [31:0] $end
$var reg 2 <# state [1:0] $end
$upscope $end
$scope module u_rf $end
$var wire 1 ( clk $end
$var wire 5 =# rd_addr [4:0] $end
$var wire 32 ># rd_data [31:0] $end
$var wire 5 ?# rs1_addr [4:0] $end
$var wire 5 @# rs2_addr [4:0] $end
$var wire 1 A we $end
$var wire 32 A# rs2_data [31:0] $end
$var wire 32 B# rs1_data [31:0] $end
$var integer 32 C# i [31:0] $end
$upscope $end
$upscope $end
$scope module u_dmem $end
$var wire 32 D# addr [31:0] $end
$var wire 1 ( clk $end
$var wire 32 E# rdata [31:0] $end
$var wire 32 F# wdata [31:0] $end
$var wire 1 $ we $end
$var wire 4 G# wstrb [3:0] $end
$var wire 8 H# widx [7:0] $end
$var parameter 32 I# WORDS $end
$var integer 32 J# k [31:0] $end
$upscope $end
$scope module u_imem $end
$var wire 32 K# addr [31:0] $end
$var wire 32 L# rdata [31:0] $end
$var parameter 32 M# WORDS $end
$var integer 32 N# k [31:0] $end
$upscope $end
$scope task chk $end
$var reg 32 O# exp [31:0] $end
$var reg 32 P# got [31:0] $end
$var integer 32 Q# id [31:0] $end
$upscope $end
$upscope $end
$enddefinitions $end
$comment Show the parameter values. $end
$dumpall
b100000000 M#
b100000000 I#
b0 3#
b10 2#
b1 1#
b0 x
$end
#0
$dumpvars
bx Q#
bx P#
bx O#
b100000000 N#
b11000000000000010010011 L#
b0 K#
b100000000 J#
b0 H#
b0 G#
b0 F#
b0 E#
b0 D#
b100000 C#
b0 B#
b0 A#
b0 @#
b0 ?#
b0 >#
b0 =#
b0 <#
b0 ;#
b0 :#
09#
08#
b0 7#
b0 6#
b0 5#
b0 4#
b0 0#
b0 /#
b1 .#
b0 -#
b0 ,#
b0 +#
b0 *#
b0 )#
b0 (#
1'#
b0 &#
b0 %#
b0 $#
b0 ##
0"#
0!#
b0 ~"
0}"
0|"
1{"
1z"
b0 y"
b0 x"
b0 w"
b10011 v"
b0 u"
b0 t"
b0 s"
b0 r"
b0 q"
b0 p"
b0 o"
b0 n"
b0 m"
b0 l"
b0 k"
b0 j"
b0 i"
b0 h"
b10011 g"
b0 f"
b0 e"
b0 d"
b0 c"
b0 b"
0a"
0`"
b0 _"
b0 ^"
b0 ]"
b0 \"
b0 ["
b11000000000000 Z"
b0 Y"
0X"
b0 W"
b0 V"
b0 U"
b10 T"
b0 S"
b0 R"
b0 Q"
b0 P"
b0 O"
b0 N"
b0 M"
b0 L"
b0 K"
b0 J"
b0 I"
b0 H"
b0 G"
b0 F"
b1 E"
b0 D"
b0 C"
b0 B"
b0 A"
b10011 @"
b0 ?"
0>"
0="
0<"
b0 ;"
b0 :"
b0 9"
b0 8"
07"
b0 6"
b0 5"
b0 4"
03"
02"
01"
00"
0/"
0."
b0 -"
b0 ,"
b0 +"
0*"
b0 )"
0("
0'"
b0 &"
b0 %"
0$"
b0 #"
b0 ""
0!"
0~
b0 }
b0 |
b0 {
b0 z
1y
0w
b0 v
b0 u
b0 t
b0 s
b0 r
b0 q
b0 p
b0 o
b0 n
b0 m
b0 l
1k
b0 j
b0 i
b0 h
b10 g
b0 f
b0 e
b0 d
0c
1b
b0 a
0`
b0 _
0^
0]
b0 \
b0 [
0Z
0Y
0X
0W
0V
0U
b10011 T
b0 S
1R
b0 Q
b0 P
b0 O
b0 N
b0 M
b0 L
0K
0J
0I
b0 H
b11000000000000010010011 G
0F
b0 E
b0 D
b0 C
b0 B
0A
0@
0?
b0 >
b100 =
b100 <
b0 ;
0:
09
08
07
b0 6
b11000000000000010010011 5
04
03
02
b0 1
00
b0 /
b0 .
0-
0,
b0 +
bx *
0)
0(
b0 '
b0 &
b0 %
0$
b0 #
b0 "
b11000000000000010010011 !
$end
#5000
1(
#10000
0(
#15000
1(
#20000
b0 *
1)
0(
#25000
1b
1R
b1 S
b110 N
b110 t"
b110 @#
b110 e"
b110 \
b110 w"
b1000 =
b11100000000000100010011 5
b11100000000000100010011 !
b11100000000000100010011 G
b11100000000000100010011 L#
1("
17"
b11000000000000010010011 @"
b11000000000000010010011 v"
b100 B"
b1000 <
b100 "
b100 6
b100 K#
b100 K"
1(
#30000
b1 *
0(
#35000
b110 h
b110 i
1b
1R
0k
b110 l
b110 Q"
b110 P"
b1100 =
b10001000001000000110110011 5
b10001000001000000110110011 !
b10001000001000000110110011 G
b10001000001000000110110011 L#
b10 S
b111 N
b111 t"
b111 @#
b111 e"
b111 \
b111 w"
0w
b110 m
b110 O"
b110 1
b1100 <
b1000 "
b1000 6
b1000 K#
b1000 K"
b11100000000000100010011 @"
b11100000000000100010011 v"
b1000 B"
b100 A"
b110 +"
b110 R"
b110 :"
b110 n"
b1 6"
b1 r"
b100 5"
b110 j
b110 -"
1$"
1(
#40000
b10 *
0(
#45000
b111 h
b1011 i
b100 E"
b111 l
b111 Q"
b111 P"
1Y
0b
1R
b110 f
b10 C
b1 H#
0w
b111 m
b111 O"
b110011 T
b110011 g"
b11 S
b1 Q
b1 s"
b1 ?#
b10 N
b10 t"
b10 @#
1^
b100010 e"
b100010 \
b100010 w"
b10000 =
b100011000001000010011 5
b100011000001000010011 !
b100011000001000010011 G
b100011000001000010011 L#
1A
b1 #"
b1 l"
b100 ""
b110 '
b110 .
b110 D#
b110 |
b111 +"
b111 R"
b111 :"
b111 n"
b10 6"
b10 r"
b1000 5"
b100 4"
b100 U"
b1011 j
b111 -"
b10001000001000000110110011 @"
b10001000001000000110110011 v"
b1100 B"
b1000 A"
b10000 <
b1100 "
b1100 6
b1100 K#
b1100 K"
1(
#50000
b11 *
0(
#55000
b101010 i
b110 L
b101010 7#
b111 /#
b110 n
b110 M"
b110 r
b110 0#
0y
1b
0Y
1R
0k
b1101 l
b1101 Q"
b111 P"
b0 h
18
b1000 E"
1:
b101010 &#
b111 *#
b101010 $#
b101010 %#
b111 )#
0'#
b111 {
b111 y"
b110 ,#
b110 +#
b110 z
b110 x"
b10100 =
b110010000000000001010010011 5
b110010000000000001010010011 !
b110010000000000001010010011 G
b110010000000000001010010011 L#
b10011 T
b10011 g"
b100 S
b11 Q
b11 s"
b11 ?#
b1 N
b1 t"
b1 @#
0^
b1 e"
b1 \
b1 w"
0w
b101000 1
b111 m
b111 O"
17
b111 f
bx00000000 D
b11 C
b10 d
b10 q"
b1 e
b1 p"
b110 ;
b110 L"
b110 >#
b10100 <
b10000 "
b10000 6
b10000 K#
b10000 K"
b100011000001000010011 @"
b100011000001000010011 v"
b10000 B"
b1100 A"
b100010 +"
b100010 R"
b10 :"
b10 n"
b1 8"
b1 m"
b11 6"
b11 r"
b1100 5"
b1000 4"
b1000 U"
b101010 j
b100010 -"
0("
1/"
b10 #"
b10 l"
b1000 ""
b111 '
b111 .
b111 D#
b111 |
b1 B
b1 I"
b1 o"
b1 =#
b100 H"
b110 F"
1(
#60000
b100 *
0(
#65000
b111 l
b111 Q"
b0 n
b0 M"
b0 r
b100010 1
b0 7#
b0 0#
08
b1 E"
b0 &#
b0 %#
b0 ,#
b0 $#
b0 +#
b0 z
b0 x"
07
b101010 h
0:
b111 ;
b111 L"
b111 >#
b0 f
b0 D
b0 C
b0 H#
b1 d
b1 q"
b0 e
b0 p"
b110 M
b110 A#
b10 B
b10 I"
b10 o"
b10 =#
b1000 H"
b111 F"
b0 #"
b0 l"
b0 ""
b0 '
b0 .
b0 D#
b0 |
0$"
1?
b10 <#
b101010 >
b101010 ;#
1(
#70000
b101 *
0(
#75000
b0 L
b1101 i
b0 M
b0 A#
1b
1R
b110 /#
b101010 n
b101010 M"
b101010 r
b11111100 7#
b101010 0#
b101011 l
b101011 Q"
b1 P"
b101011 h
b11000 =
b11100000000001100010011 5
b11100000000001100010011 !
b11100000000001100010011 G
b11100000000001100010011 L#
b101 S
b0 Q
b0 s"
b0 ?#
b100 N
b100 t"
b100 @#
1^
b1100100 e"
b1100100 \
b1100100 w"
0w
b101010 1
b110 *#
b110 )#
b110 {
b110 y"
b11111100 &#
b11111100 %#
b101010 ,#
b11111100 $#
b101010 +#
b101010 z
b101010 x"
b1 m
b1 O"
b100 E"
b1110000000000000000 %
b1110000000000000000 /
b1110000000000000000 F#
b1110000000000000000 D"
b101010 f
b10 C
b1010 H#
b0 ;
b0 L"
b0 >#
b0 d
b0 q"
b10 e
b10 p"
0?
b0 <#
b11000 <
b10100 "
b10100 6
b10100 K#
b10100 K"
b110010000000000001010010011 @"
b110010000000000001010010011 v"
b10100 B"
b10000 A"
b1 +"
b1 R"
b1 :"
b1 n"
b11 8"
b11 m"
b100 6"
b100 r"
b10000 5"
b1100 4"
b1100 U"
b1101 j
b1 -"
b110 ;"
1("
0/"
b11 #"
b11 l"
b1100 ""
b111 %"
b101010 '
b101010 .
b101010 D#
b101010 |
1$"
b0 B
b0 I"
b0 o"
b0 =#
b0 H"
b0 F"
0A
1(
#80000
b110 *
0(
#85000
b1100100 h
b0 n
b0 M"
b0 r
b0 0#
b1110100 i
b0 ,#
b0 +#
b0 z
b0 x"
b1100100 l
b1100100 Q"
b100 P"
b0 7#
b101011 /#
1b
1R
b101010 ;
b101010 L"
b101010 >#
b1000 E"
b110000000000000000000000000 %
b110000000000000000000000000 /
b110000000000000000000000000 F#
b110000000000000000000000000 D"
b101011 f
bx00000000 D
b11 C
0w
b10 d
b10 q"
b0 e
b0 p"
b1100100 m
b1100100 O"
b1100100 1
b0 &#
b101011 *#
b0 $#
b0 %#
b101011 )#
0'#
b101011 {
b101011 y"
b110 S
b111 N
b111 t"
b111 @#
0^
b111 e"
b111 \
b111 w"
b11100 =
b10011000101100001110110011 5
b10011000101100001110110011 !
b10011000101100001110110011 G
b10011000101100001110110011 L#
b11 B
b11 I"
b11 o"
b11 =#
b1100 H"
b101010 F"
1A
b100 #"
b100 l"
b10000 ""
b110 %"
b101011 '
b101011 .
b101011 D#
b101011 |
b1100100 +"
b1100100 R"
b100 :"
b100 n"
b0 8"
b0 m"
b101 6"
b101 r"
b10100 5"
b10000 4"
b10000 U"
b1110100 j
b1100100 -"
b0 ;"
b11100000000001100010011 @"
b11100000000001100010011 v"
b11000 B"
b10100 A"
b11100 <
b11000 "
b11000 6
b11000 K#
b11000 K"
1(
#90000
b111 *
0(
#95000
b111 h
b11011 i
b0 /#
1y
b101 h"
1Y
0b
1R
b111 l
b111 Q"
b111 P"
b0 *#
b0 )#
1'#
b0 {
b0 y"
b100000 =
b10011000101110010000110011 5
b10011000101110010000110011 !
b10011000101110010000110011 G
b10011000101110010000110011 L#
b110011 T
b110011 g"
b111 S
b101 Q
b101 s"
b101 ?#
b110 N
b110 t"
b110 @#
b100 _
b100 f"
1^
b100110 e"
b100110 \
b100110 w"
0w
b111 m
b111 O"
b110 1
b1 E"
b101011 %
b101011 /
b101011 F#
b101011 D"
b1100100 f
b0 D
b0 C
b11001 H#
b0 d
b0 q"
b101011 ;
b101011 L"
b101011 >#
b100000 <
b11100 "
b11100 6
b11100 K#
b11100 K"
b10011000101100001110110011 @"
b10011000101100001110110011 v"
b11100 B"
b11000 A"
b111 +"
b111 R"
b111 :"
b111 n"
b110 6"
b110 r"
b11000 5"
b10100 4"
b10100 U"
b11011 j
b111 -"
b101 #"
b101 l"
b10100 ""
b101011 %"
b1100100 '
b1100100 .
b1100100 D#
b1100100 |
b100 B
b100 I"
b100 o"
b100 =#
b10000 H"
b101011 F"
1(
#100000
b1000 *
0(
#105000
0{"
b1010111100 7#
b111 /#
b1100100 n
b1100100 M"
b1100100 0#
b111110 i
b1100100 O
b101 r
b1010111100 &#
b111 *#
b1010111100 $#
b1010111100 %#
b111 )#
0'#
b111 {
b111 y"
b1100100 ,#
b1100100 +#
b1100100 z
b1100100 x"
0k
b1101011 l
b1101011 Q"
b111 P"
b101010 h
18
1Y
1R
b1000 h"
19
b1100100 ;
b1100100 L"
b1100100 >#
b1000 E"
b0 %
b0 /
b0 F#
b0 D"
b111 f
bx00000000 D
b11 C
b1 H#
0w
1"#
0y
b10 d
b10 q"
b1 e
b1 p"
b10001010 1
b111 m
b111 O"
17
b1000 S
b110 _
b110 f"
b100100 =
b10100000111000010010110011 5
b10100000111000010010110011 !
b10100000111000010010110011 G
b10100000111000010010110011 L#
b101 B
b101 I"
b101 o"
b101 =#
b10100 H"
b1100100 F"
b110 #"
b110 l"
b11000 ""
b0 %"
b111 '
b111 .
b111 D#
b111 |
b100110 +"
b100110 R"
b100 ,"
b100 ~"
b110 :"
b110 n"
b101 8"
b101 m"
b111 6"
b111 r"
b11100 5"
b11000 4"
b11000 U"
b111110 j
b100110 -"
0("
1/"
b10011000101110010000110011 @"
b10011000101110010000110011 v"
b100000 B"
b11100 A"
b100100 <
b100000 "
b100000 6
b100000 K#
b100000 K"
1(
#110000
b1001 *
0(
#115000
b111 l
b111 Q"
b0 n
b0 M"
b100110 1
b0 7#
b0 0#
1y
0z"
b11001000 .#
b1 E"
b111 L
b0 &#
b0 %#
b0 ,#
b0 $#
b0 +#
b0 z
b0 x"
b11001000 -#
b0 f
b0 D
b0 C
b0 H#
09
1:
b1 d
b1 q"
b0 e
b0 p"
b111 ;
b111 L"
b111 >#
b1100100 P
b1100100 B#
1@
b1 <#
b100000 5#
b111111111111111111111111111111001 (#
b111 6#
b1100100 4#
b100 :#
b0 #"
b0 l"
b0 ""
b0 '
b0 .
b0 D#
b0 |
0$"
b110 B
b110 I"
b110 o"
b110 =#
b11000 H"
b111 F"
1(
#120000
b1010 *
0(
#125000
1k
b0 l
b0 Q"
b0 P"
b0 m
b0 O"
b0 /#
0y
b0 *#
b0 )#
1'#
b0 {
b0 y"
b110010000 .#
0:
b0 ;
b0 L"
b0 >#
b0 d
b0 q"
b110010000 -#
b111 M
b111 A#
b0 B
b0 I"
b0 o"
b0 =#
b0 H"
b0 F"
0A
b11111 5#
b11001000 4#
1(
#130000
b1011 *
0(
#135000
b1100100000 .#
b1100100000 -#
b11110 5#
b110010000 4#
1(
#140000
b1100 *
0(
#145000
b11001000000 .#
b11001000000 -#
b11101 5#
b1100100000 4#
1(
#150000
b1101 *
0(
#155000
b110010000000 .#
b110010000000 -#
b11100 5#
b11001000000 4#
1(
#160000
b1110 *
0(
#165000
b1100100000000 .#
b1100100000000 -#
b11011 5#
b110010000000 4#
1(
#170000
b1111 *
0(
#175000
b11001000000000 .#
b11001000000000 -#
b11010 5#
b1100100000000 4#
1(
#180000
b10000 *
0(
#185000
b110010000000000 .#
b110010000000000 -#
b11001 5#
b11001000000000 4#
1(
#190000
b10001 *
0(
#195000
b1100100000000000 .#
b1100100000000000 -#
b11000 5#
b110010000000000 4#
1(
#200000
b10010 *
0(
#205000
b11001000000000000 .#
b11001000000000000 -#
b10111 5#
b1100100000000000 4#
1(
#210000
b10011 *
0(
#215000
b110010000000000000 .#
b110010000000000000 -#
b10110 5#
b11001000000000000 4#
1(
#220000
b10100 *
0(
#225000
b1100100000000000000 .#
b1100100000000000000 -#
b10101 5#
b110010000000000000 4#
1(
#230000
b10101 *
0(
#235000
b11001000000000000000 .#
b11001000000000000000 -#
b10100 5#
b1100100000000000000 4#
1(
#240000
b10110 *
0(
#245000
b110010000000000000000 .#
b110010000000000000000 -#
b10011 5#
b11001000000000000000 4#
1(
#250000
b10111 *
0(
#255000
b1100100000000000000000 .#
b1100100000000000000000 -#
b10010 5#
b110010000000000000000 4#
1(
#260000
b11000 *
0(
#265000
b11001000000000000000000 .#
b11001000000000000000000 -#
b10001 5#
b1100100000000000000000 4#
1(
#270000
b11001 *
0(
#275000
b110010000000000000000000 .#
b110010000000000000000000 -#
b10000 5#
b11001000000000000000000 4#
1(
#280000
b11010 *
0(
#285000
b1100100000000000000000000 .#
b1100100000000000000000000 -#
b1111 5#
b110010000000000000000000 4#
1(
#290000
b11011 *
0(
#295000
b11001000000000000000000000 .#
b11001000000000000000000000 -#
b1110 5#
b1100100000000000000000000 4#
1(
#300000
b11100 *
0(
#305000
b110010000000000000000000000 .#
b110010000000000000000000000 -#
b1101 5#
b11001000000000000000000000 4#
1(
#310000
b11101 *
0(
#315000
b1100100000000000000000000000 .#
b1100100000000000000000000000 -#
b1100 5#
b110010000000000000000000000 4#
1(
#320000
b11110 *
0(
#325000
b11001000000000000000000000000 .#
b11001000000000000000000000000 -#
b1011 5#
b1100100000000000000000000000 4#
1(
#330000
b11111 *
0(
#335000
b110010000000000000000000000000 .#
b110010000000000000000000000000 -#
b1010 5#
b11001000000000000000000000000 4#
1(
#340000
b100000 *
0(
#345000
b1100100000000000000000000000000 .#
b1100100000000000000000000000000 -#
b1001 5#
b110010000000000000000000000000 4#
1(
#350000
b100001 *
0(
#355000
b11001000000000000000000000000000 .#
b11001000000000000000000000000000 -#
b1000 5#
b1100100000000000000000000000000 4#
1(
#360000
b100010 *
0(
#365000
b111111111111111111111111111111010 (#
b1 ##
b110010000000000000000000000000000 .#
b110010000000000000000000000000000 -#
b111 5#
b11001000000000000000000000000000 4#
1(
#370000
b100011 *
0(
#375000
b111111111111111111111111111111100 (#
b11 ##
b1100100000000000000000000000000000 .#
b1100100000000000000000000000000000 -#
b110 5#
b110010000000000000000000000000000 4#
1(
#380000
b100100 *
0(
#385000
b111111111111111111111111111111111 (#
b110 ##
b11001000000000000000000000000000000 .#
b11001000000000000000000000000000000 -#
b101 5#
b1100100000000000000000000000000000 4#
1(
#390000
b100101 *
0(
#395000
1z"
b101 (#
b1100 ##
b10110000000000000000000000000000001 .#
b110010000000000000000000000000000000 -#
b100 5#
b11001000000000000000000000000000000 4#
1(
#400000
b100110 *
0(
#405000
b10000000000000000000000000000000011 .#
b100 (#
b1011 ##
b101100000000000000000000000000000010 -#
b11 5#
b10110000000000000000000000000000001 4#
1(
#410000
b100111 *
0(
#415000
b100000000000000000000000000000111 .#
b1 (#
b1000 ##
b100000000000000000000000000000000110 -#
b10 5#
b10000000000000000000000000000000011 4#
1(
#420000
b101000 *
0(
#425000
0z"
b1000000000000000000000000000001110 .#
b111111111111111111111111111111011 (#
b10 ##
b1000000000000000000000000000001110 -#
b1 5#
b100000000000000000000000000000111 4#
1(
#430000
b101001 *
0(
#435000
08
07
b1110 h
b111111111111111111111111111111101 (#
b100 ##
b10000000000000000000000000000011100 .#
b10000000000000000000000000000011100 -#
0@
1?
b10 <#
b1110 >
b1110 ;#
b0 5#
b1000000000000000000000000000001110 4#
1(
#440000
b101010 *
0(
