waveform/tb_core_pipe_full.vcd
$date
	Tue Jun 23 14:22:00 2026
$end
$version
	Icarus Verilog
$end
$timescale
	1ps
$end
$scope module tb_core_pipe_full $end
$var wire 32 ! imem_rdata [31:0] $end
$var wire 32 " imem_addr [31:0] $end
$var wire 4 # dmem_wstrb [3:0] $end
$var wire 1 $ dmem_we $end
$var wire 32 % dmem_wdata [31:0] $end
$var wire 32 & dmem_rdata [31:0] $end
$var wire 32 ' dmem_addr [31:0] $end
$var reg 1 ( clk $end
$var reg 1 ) rst_n $end
$var integer 32 * c [31:0] $end
$var integer 32 + errors [31:0] $end
$scope module dut $end
$var wire 1 , bus_stall $end
$var wire 1 ( clk $end
$var wire 1 - csr_illegal $end
$var wire 1 . csr_wr $end
$var wire 32 / dmem_addr [31:0] $end
$var wire 1 0 dmem_ready $end
$var wire 1 1 dmem_valid $end
$var wire 32 2 dmem_wdata [31:0] $end
$var wire 1 $ dmem_we $end
$var wire 1 3 ex_branch_taken $end
$var wire 32 4 ex_jalr_target [31:0] $end
$var wire 1 5 ex_mret $end
$var wire 1 6 ex_redirect $end
$var wire 1 7 ex_trap $end
$var wire 32 8 if_instr [31:0] $end
$var wire 1 9 if_stall $end
$var wire 32 : imem_addr [31:0] $end
$var wire 1 ; imem_ready $end
$var wire 1 < imem_valid $end
$var wire 1 = ls_stall $end
$var wire 1 > mul_stall $end
$var wire 1 ) rst_n $end
$var wire 1 ? stall_front $end
$var wire 1 @ wb2id_rs1 $end
$var wire 1 A wb2id_rs2 $end
$var wire 32 B wb_data [31:0] $end
$var wire 32 C pc_plus4 [31:0] $end
$var wire 32 D next_pc [31:0] $end
$var wire 32 E mul_result [31:0] $end
$var wire 1 F mul_done $end
$var wire 1 G mul_busy $end
$var wire 1 H memwb_reg_write $end
$var wire 5 I memwb_rd [4:0] $end
$var wire 2 J mem_off [1:0] $end
$var wire 16 K mem_ld_half [15:0] $end
$var wire 8 L mem_ld_byte [7:0] $end
$var wire 1 M load_use_stall $end
$var wire 32 N imem_rdata [31:0] $end
$var wire 2 O id_wb_sel [1:0] $end
$var wire 1 P id_sys_mret $end
$var wire 1 Q id_sys_ecall $end
$var wire 1 R id_sys_ebreak $end
$var wire 32 S id_rs2_fwd [31:0] $end
$var wire 32 T id_rs2_data [31:0] $end
$var wire 5 U id_rs2 [4:0] $end
$var wire 32 V id_rs1_fwd [31:0] $end
$var wire 32 W id_rs1_data [31:0] $end
$var wire 5 X id_rs1 [4:0] $end
$var wire 1 Y id_reg_write $end
$var wire 5 Z id_rd [4:0] $end
$var wire 7 [ id_opcode [6:0] $end
$var wire 1 \ id_mem_write $end
$var wire 1 ] id_mem_read $end
$var wire 1 ^ id_jump $end
$var wire 1 _ id_jalr $end
$var wire 1 ` id_is_muldiv $end
$var wire 1 a id_is_csr $end
$var wire 3 b id_imm_sel [2:0] $end
$var wire 32 c id_imm [31:0] $end
$var wire 1 d id_funct7b5 $end
$var wire 1 e id_funct7b0 $end
$var wire 3 f id_funct3 [2:0] $end
$var wire 1 g id_branch $end
$var wire 4 h id_alu_op [3:0] $end
$var wire 1 i id_alu_b_src $end
$var wire 1 j id_alu_a_src $end
$var wire 2 k forward_b [1:0] $end
$var wire 2 l forward_a [1:0] $end
$var wire 32 m exmem_fwd_val [31:0] $end
$var wire 32 n ex_trap_cause [31:0] $end
$var wire 32 o ex_result [31:0] $end
$var wire 32 p ex_redirect_pc [31:0] $end
$var wire 32 q ex_pc_target [31:0] $end
$var wire 1 r ex_alu_zero $end
$var wire 32 s ex_alu_result [31:0] $end
$var wire 32 t ex_alu_b [31:0] $end
$var wire 32 u ex_alu_a [31:0] $end
$var wire 4 v dmem_wstrb [3:0] $end
$var wire 32 w dmem_rdata [31:0] $end
$var wire 32 x csr_wval [31:0] $end
$var wire 32 y csr_src [31:0] $end
$var wire 32 z csr_rdata [31:0] $end
$var wire 2 { csr_op [1:0] $end
$var wire 32 | csr_mtvec [31:0] $end
$var wire 32 } csr_mepc [31:0] $end
$var wire 1 ~ csr_addr_valid $end
$var parameter 32 !" RESET_PC $end
$var reg 1 "" ex_branch_cond $end
$var reg 32 #" ex_rs1_fwd [31:0] $end
$var reg 32 $" ex_rs2_fwd [31:0] $end
$var reg 32 %" exmem_alu_result [31:0] $end
$var reg 3 &" exmem_funct3 [2:0] $end
$var reg 1 '" exmem_mem_read $end
$var reg 1 (" exmem_mem_write $end
$var reg 32 )" exmem_pc4 [31:0] $end
$var reg 5 *" exmem_rd [4:0] $end
$var reg 1 +" exmem_reg_write $end
$var reg 32 ," exmem_rs2_data [31:0] $end
$var reg 2 -" exmem_wb_sel [1:0] $end
$var reg 1 ." idex_alu_a_src $end
$var reg 1 /" idex_alu_b_src $end
$var reg 4 0" idex_alu_op [3:0] $end
$var reg 1 1" idex_branch $end
$var reg 12 2" idex_csr_addr [11:0] $end
$var reg 3 3" idex_funct3 [2:0] $end
$var reg 32 4" idex_imm [31:0] $end
$var reg 1 5" idex_is_csr $end
$var reg 1 6" idex_is_muldiv $end
$var reg 1 7" idex_jalr $end
$var reg 1 8" idex_jump $end
$var reg 1 9" idex_mem_read $end
$var reg 1 :" idex_mem_write $end
$var reg 32 ;" idex_pc [31:0] $end
$var reg 32 <" idex_pc4 [31:0] $end
$var reg 5 =" idex_rd [4:0] $end
$var reg 1 >" idex_reg_write $end
$var reg 5 ?" idex_rs1 [4:0] $end
$var reg 32 @" idex_rs1_data [31:0] $end
$var reg 5 A" idex_rs2 [4:0] $end
$var reg 32 B" idex_rs2_data [31:0] $end
$var reg 1 C" idex_sys_ebreak $end
$var reg 1 D" idex_sys_ecall $end
$var reg 1 E" idex_sys_mret $end
$var reg 2 F" idex_wb_sel [1:0] $end
$var reg 32 G" ifid_instr [31:0] $end
$var reg 32 H" ifid_pc [31:0] $end
$var reg 32 I" ifid_pc4 [31:0] $end
$var reg 32 J" mem_load_data [31:0] $end
$var reg 32 K" mem_store_data [31:0] $end
$var reg 4 L" mem_store_strb [3:0] $end
$var reg 32 M" memwb_alu_result [31:0] $end
$var reg 32 N" memwb_load_data [31:0] $end
$var reg 32 O" memwb_pc4 [31:0] $end
$var reg 5 P" memwb_rd_r [4:0] $end
$var reg 1 H memwb_reg_write_r $end
$var reg 2 Q" memwb_wb_sel [1:0] $end
$var reg 32 R" pc [31:0] $end
$var reg 32 S" wb_mux [31:0] $end
$scope module u_alu $end
$var wire 32 T" a [31:0] $end
$var wire 4 U" alu_op [3:0] $end
$var wire 32 V" b [31:0] $end
$var wire 1 r zero $end
$var wire 5 W" shamt [4:0] $end
$var reg 32 X" result [31:0] $end
$upscope $end
$scope module u_csr $end
$var wire 12 Y" addr [11:0] $end
$var wire 1 ( clk $end
$var wire 32 Z" mepc_o [31:0] $end
$var wire 1 5 mret_en $end
$var wire 1 5" rd_en $end
$var wire 1 ) rst_n $end
$var wire 32 [" trap_cause [31:0] $end
$var wire 1 7 trap_en $end
$var wire 32 \" trap_epc [31:0] $end
$var wire 32 ]" trap_val [31:0] $end
$var wire 32 ^" wdata [31:0] $end
$var wire 1 _" wr_en $end
$var wire 32 `" mtvec_o [31:0] $end
$var wire 32 a" mstatus [31:0] $end
$var reg 1 ~ addr_valid $end
$var reg 32 b" mcause [31:0] $end
$var reg 32 c" mepc [31:0] $end
$var reg 32 d" mie [31:0] $end
$var reg 32 e" mip [31:0] $end
$var reg 32 f" mscratch [31:0] $end
$var reg 1 g" mstatus_mie $end
$var reg 1 h" mstatus_mpie $end
$var reg 32 i" mtval [31:0] $end
$var reg 32 j" mtvec [31:0] $end
$var reg 32 k" rdata [31:0] $end
$upscope $end
$scope module u_ctrl $end
$var wire 12 l" funct12 [11:0] $end
$var wire 3 m" funct3 [2:0] $end
$var wire 1 e funct7b0 $end
$var wire 1 d funct7b5 $end
$var wire 7 n" opcode [6:0] $end
$var reg 1 j alu_a_src $end
$var reg 4 o" alu_arith [3:0] $end
$var reg 1 i alu_b_src $end
$var reg 4 p" alu_op [3:0] $end
$var reg 1 g branch $end
$var reg 3 q" imm_sel [2:0] $end
$var reg 1 a is_csr $end
$var reg 1 ` is_muldiv $end
$var reg 1 _ jalr $end
$var reg 1 ^ jump $end
$var reg 1 ] mem_read $end
$var reg 1 \ mem_write $end
$var reg 1 Y reg_write $end
$var reg 1 R sys_ebreak $end
$var reg 1 Q sys_ecall $end
$var reg 1 P sys_mret $end
$var reg 2 r" wb_sel [1:0] $end
$upscope $end
$scope module u_fwd $end
$var wire 5 s" exmem_rd [4:0] $end
$var wire 1 +" exmem_reg_write $end
$var wire 5 t" idex_rs1 [4:0] $end
$var wire 5 u" idex_rs2 [4:0] $end
$var wire 5 v" memwb_rd [4:0] $end
$var wire 1 H memwb_reg_write $end
$var reg 2 w" forward_a [1:0] $end
$var reg 2 x" forward_b [1:0] $end
$upscope $end
$scope module u_hazard $end
$var wire 1 9" idex_mem_read $end
$var wire 5 y" idex_rd [4:0] $end
$var wire 5 z" ifid_rs1 [4:0] $end
$var wire 5 {" ifid_rs2 [4:0] $end
$var wire 1 M stall $end
$upscope $end
$scope module u_imm $end
$var wire 3 |" imm_sel [2:0] $end
$var wire 32 }" instr [31:0] $end
$var reg 32 ~" imm [31:0] $end
$upscope $end
$scope module u_muldiv $end
$var wire 32 !# a [31:0] $end
$var wire 32 "# b [31:0] $end
$var wire 1 ## b_s $end
$var wire 1 G busy $end
$var wire 1 ( clk $end
$var wire 1 $# ge $end
$var wire 1 %# is_mul $end
$var wire 1 &# na $end
$var wire 1 '# nb $end
$var wire 3 (# op [2:0] $end
$var wire 1 )# overflow $end
$var wire 1 ) rst_n $end
$var wire 1 *# signed_div $end
$var wire 1 , stall $end
$var wire 1 6" start $end
$var wire 1 +# take_high $end
$var wire 32 ,# rem_hi [31:0] $end
$var wire 1 F done $end
$var wire 1 -# div_zero $end
$var wire 33 .# diff [32:0] $end
$var wire 33 /# b_ext [32:0] $end
$var wire 64 0# acc_sh [63:0] $end
$var wire 64 1# acc_nx [63:0] $end
$var wire 32 2# abs_b [31:0] $end
$var wire 32 3# abs_a [31:0] $end
$var wire 1 4# a_s $end
$var wire 33 5# a_ext [32:0] $end
$var parameter 3 6# CALC $end
$var parameter 3 7# FIN $end
$var parameter 3 8# IDLE $end
$var parameter 3 9# MUL1 $end
$var parameter 3 :# MUL2 $end
$var reg 64 ;# acc [63:0] $end
$var reg 33 <# areg [32:0] $end
$var reg 33 =# breg [32:0] $end
$var reg 6 ># cnt [5:0] $end
$var reg 32 ?# divisor_q [31:0] $end
$var reg 1 @# neg_q $end
$var reg 1 A# neg_r $end
$var reg 3 B# op_q [2:0] $end
$var reg 66 C# preg [65:0] $end
$var reg 32 D# result [31:0] $end
$var reg 3 E# state [2:0] $end
$var reg 1 F# take_high_q $end
$upscope $end
$scope module u_rf $end
$var wire 1 ( clk $end
$var wire 5 G# rd_addr [4:0] $end
$var wire 32 H# rd_data [31:0] $end
$var wire 5 I# rs1_addr [4:0] $end
$var wire 5 J# rs2_addr [4:0] $end
$var wire 1 H we $end
$var wire 32 K# rs2_data [31:0] $end
$var wire 32 L# rs1_data [31:0] $end
$var integer 32 M# i [31:0] $end
$upscope $end
$upscope $end
$scope module u_dmem $end
$var wire 32 N# addr [31:0] $end
$var wire 1 ( clk $end
$var wire 32 O# rdata [31:0] $end
$var wire 32 P# wdata [31:0] $end
$var wire 1 $ we $end
$var wire 4 Q# wstrb [3:0] $end
$var wire 8 R# widx [7:0] $end
$var parameter 32 S# WORDS $end
$var integer 32 T# k [31:0] $end
$upscope $end
$scope module u_imem $end
$var wire 32 U# addr [31:0] $end
$var wire 32 V# rdata [31:0] $end
$var parameter 32 W# WORDS $end
$var integer 32 X# k [31:0] $end
$upscope $end
$scope task chk $end
$var reg 32 Y# exp [31:0] $end
$var reg 32 Z# got [31:0] $end
$var integer 32 [# id [31:0] $end
$upscope $end
$upscope $end
$enddefinitions $end
$comment Show the parameter values. $end
$dumpall
b100000000 W#
b100000000 S#
b10 :#
b1 9#
b0 8#
b100 7#
b11 6#
b0 !"
$end
#0
$dumpvars
bx [#
bx Z#
bx Y#
b100000000 X#
b10010011 V#
b0 U#
b100000000 T#
b0 R#
b0 Q#
b0 P#
b0 O#
b0 N#
b100000 M#
b0 L#
b0 K#
b0 J#
b0 I#
b0 H#
b0 G#
0F#
b0 E#
b0 D#
b0 C#
b0 B#
0A#
0@#
b0 ?#
b0 >#
b0 =#
b0 <#
b0 ;#
b0 5#
14#
b0 3#
b0 2#
b1 1#
b0 0#
b0 /#
b0 .#
1-#
b0 ,#
0+#
0*#
0)#
b0 (#
0'#
0&#
1%#
1$#
1##
b0 "#
b0 !#
b0 ~"
b10011 }"
b0 |"
b0 {"
b0 z"
b0 y"
b0 x"
b0 w"
b0 v"
b0 u"
b0 t"
b0 s"
b0 r"
b0 q"
b0 p"
b0 o"
b10011 n"
b0 m"
b0 l"
b0 k"
b0 j"
b0 i"
0h"
0g"
b0 f"
b0 e"
b0 d"
b0 c"
b0 b"
b11000000000000 a"
b0 `"
0_"
b0 ^"
b0 ]"
b0 \"
b10 ["
b0 Z"
b0 Y"
b0 X"
b0 W"
b0 V"
b0 U"
b0 T"
b0 S"
b0 R"
b0 Q"
b0 P"
b0 O"
b0 N"
b0 M"
b1 L"
b0 K"
b0 J"
b0 I"
b0 H"
b10011 G"
b0 F"
0E"
0D"
0C"
b0 B"
b0 A"
b0 @"
b0 ?"
0>"
b0 ="
b0 <"
b0 ;"
0:"
09"
08"
07"
06"
05"
b0 4"
b0 3"
b0 2"
01"
b0 0"
0/"
0."
b0 -"
b0 ,"
0+"
b0 *"
b0 )"
0("
0'"
b0 &"
b0 %"
b0 $"
b0 #"
1""
0~
b0 }
b0 |
b0 {
b0 z
b0 y
b0 x
b0 w
b0 v
b0 u
b0 t
b0 s
1r
b0 q
b0 p
b0 o
b10 n
b0 m
b0 l
b0 k
0j
1i
b0 h
0g
b0 f
0e
0d
b0 c
b0 b
0a
0`
0_
0^
0]
0\
b10011 [
b0 Z
1Y
b0 X
b0 W
b0 V
b0 U
b0 T
b0 S
0R
0Q
0P
b0 O
b10010011 N
0M
b0 L
b0 K
b0 J
b0 I
0H
0G
0F
b0 E
b100 D
b100 C
b0 B
0A
0@
0?
0>
0=
1<
z;
b0 :
x9
b10010011 8
07
06
05
b0 4
03
b0 2
01
z0
b0 /
0.
0-
x,
b0 +
bx *
0)
0(
b0 '
b0 &
b0 %
0$
b0 #
b0 "
b10010011 !
$end
#5000
1(
#10000
0(
#15000
1(
#20000
b0 *
1)
0(
#25000
b1 Z
b1000 D
b100000000000100010011 8
b100000000000100010011 !
b100000000000100010011 N
b100000000000100010011 V#
1/"
1>"
b10010011 G"
b10010011 }"
b100 I"
b1000 C
b100 "
b100 :
b100 U#
b100 R"
1(
#30000
b1 *
0(
#35000
1i
1Y
b1100 D
b101100000000000110010011 8
b101100000000000110010011 !
b101100000000000110010011 N
b101100000000000110010011 V#
b10 Z
b1 U
b1 {"
b1 J#
b1 l"
b1 c
b1 ~"
b1100 C
b1000 "
b1000 :
b1000 U#
b1000 R"
b100000000000100010011 G"
b100000000000100010011 }"
b1000 I"
b100 H"
b1 ="
b1 y"
b100 <"
1+"
1(
#40000
b10 *
0(
#45000
b1 o
b101 p
0r
b1 s
b1 X"
b1 W"
1i
1Y
0~
b10 k
b10 x"
b1 t
b1 V"
b11 Z
b1011 U
b1011 {"
b1011 J#
b1011 l"
b1011 c
b1011 ~"
b10000 D
b1000001000000010110011 8
b1000001000000010110011 !
b1000001000000010110011 N
b1000001000000010110011 V#
1H
b1 *"
b1 s"
b100 )"
b1 2"
b1 Y"
b1 A"
b1 u"
b10 ="
b10 y"
b1000 <"
b100 ;"
b100 \"
b101 q
b1 4"
b101100000000000110010011 G"
b101100000000000110010011 }"
b1100 I"
b1000 H"
b10000 C
b1100 "
b1100 :
b1100 U#
b1100 R"
1(
#50000
b11 *
0(
#55000
b1011 o
b10011 p
0i
1Y
b1011 s
b1011 X"
b1011 W"
b10 L"
1@
b10100 D
b100010000000100010011 8
b100010000000100010011 !
b100010000000100010011 N
b100010000000100010011 V#
b110011 [
b110011 n"
b1 Z
b1 X
b1 z"
b1 I#
b10 U
b10 {"
b10 J#
b10 l"
b10 c
b10 ~"
0~
b1011 t
b1011 V"
b1010 4
b1 m
b1 J
b0 k
b0 x"
b10100 C
b10000 "
b10000 :
b10000 U#
b10000 R"
b1000001000000010110011 G"
b1000001000000010110011 }"
b10000 I"
b1100 H"
b1011 2"
b1011 Y"
b1011 A"
b1011 u"
b11 ="
b11 y"
b1100 <"
b1000 ;"
b1000 \"
b10011 q
b1011 4"
b10 *"
b10 s"
b1000 )"
b1 '
b1 /
b1 N#
b1 %"
b1 I
b1 P"
b1 v"
b1 G#
b100 O"
1(
#60000
b100 *
0(
#65000
b1 o
b1 2#
0""
b1110 p
b1 V
b1000 L"
b1 /#
0-#
b1 $"
b1 "#
0r
b1 s
b1 X"
b1 W"
1i
1Y
b1 B
b1 S"
b1 H#
b1011 m
bx00000000 K
b11 J
b10 R#
0~
b1 k
b1 x"
b10 4
b1 t
b1 V"
b10011 [
b10011 n"
b10 Z
b10 X
b10 z"
b10 I#
b1 U
b1 {"
b1 J#
b1 l"
b1 c
b1 ~"
b11000 D
b11111110001100010100110011100011 8
b11111110001100010100110011100011 !
b11111110001100010100110011100011 N
b11111110001100010100110011100011 V#
b10 I
b10 P"
b10 v"
b10 G#
b1000 O"
b1 M"
b11 *"
b11 s"
b1100 )"
b1011 '
b1011 /
b1011 N#
b1011 %"
b10 2"
b10 Y"
b10 A"
b10 u"
b1 ?"
b1 t"
b1 ="
b1 y"
b10000 <"
b1100 ;"
b1100 \"
b1110 q
b10 4"
0/"
b100010000000100010011 G"
b100010000000100010011 }"
b10100 I"
b10000 H"
b11000 C
b10100 "
b10100 :
b10100 U#
b10100 R"
1(
#70000
b101 *
0(
#75000
b10 o
b1011 S
b10001 p
b10 s
b10 X"
1A
b101 o"
b10 b
b10 q"
b10 |"
1g
0i
0Y
b1 u
b1 T"
b1 y
b1 3#
1""
b11100 D
b100000010000000100011 8
b100000010000000100011 !
b100000010000000100011 N
b100000010000000100011 V#
b1100011 [
b1100011 n"
b11001 Z
b11 U
b11 {"
b11 J#
b100 f
b100 m"
1d
1e
b111111100011 l"
b11111111111111111111111111111000 c
b11111111111111111111111111111000 ~"
0~
b1 5#
b1 #"
b1 !#
b10 L"
b100000000 %
b100000000 2
b100000000 P#
b100000000 K"
b1 m
b0 K
b1 J
b0 R#
0@
b10 k
b10 x"
b1011 B
b1011 S"
b1011 H#
b1 W
b1 L#
b11100 C
b11000 "
b11000 :
b11000 U#
b11000 R"
b11111110001100010100110011100011 G"
b11111110001100010100110011100011 }"
b11000 I"
b10100 H"
b1 2"
b1 Y"
b1 A"
b1 u"
b10 ?"
b10 t"
b10 ="
b10 y"
b10100 <"
b10000 ;"
b10000 \"
b10001 q
b1 4"
b1 @"
1/"
b1 *"
b1 s"
b10000 )"
b1 ,"
b1 '
b1 /
b1 N#
b1 %"
b11 I
b11 P"
b11 v"
b11 G#
b1100 O"
b1011 M"
1(
#80000
b110 *
0(
#85000
b1101 o
16
b1011 W"
b1101 s
b1101 X"
0%#
b1011 t
b1011 V"
b1011 2#
b10 u
b10 T"
b10 3#
b1100 p
b0 V
b1 S
b100 L"
b10000000000000000 %
b10000000000000000 2
b10000000000000000 P#
b10000000000000000 K"
b10 y
b1011 /#
b1011 $"
b1011 "#
b10 5#
b10 #"
b10 !#
b0 W
b0 L#
b11 o"
1\
1i
0g
b1 b
b1 q"
b1 |"
b1 B
b1 S"
b1 H#
b10 m
b10 J
0~
1*#
0##
1""
b0 k
b0 x"
b10 l
b10 w"
b11111111111111111111111111111010 4
13
b100011 [
b100011 n"
b0 Z
b0 X
b0 z"
b0 I#
b1 U
b1 {"
b1 J#
b10 f
b10 m"
0d
0e
b1 l"
b0 c
b0 ~"
b1100 D
b10001000000011 8
b10001000000011 !
b10001000000011 N
b10001000000011 V#
b0 T
b0 K#
b1 I
b1 P"
b1 v"
b1 G#
b10000 O"
b1 M"
b10 *"
b10 s"
b10100 )"
b10 '
b10 /
b10 N#
b10 %"
b111111100011 2"
b111111100011 Y"
1+#
b100 3"
b100 (#
b11 A"
b11 u"
b11001 ="
b11001 y"
b11000 <"
b10100 ;"
b10100 \"
b1100 q
b11111111111111111111111111111000 4"
b1011 B"
0/"
11"
0>"
b100000010000000100011 G"
b100000010000000100011 }"
b11100 I"
b11000 H"
b100000 C
b11100 "
b11100 :
b11100 U#
b11100 R"
1(
#90000
b111 *
0(
#95000
b0 o
06
b10000 D
b0 S
1%#
b0 p
b0 W"
1r
b0 s
b0 X"
b0 o"
1Y
0\
b0 b
b0 q"
b0 |"
1i
b0 t
b0 V"
b0 2#
b0 u
b0 T"
b0 3#
b1000001000000010110011 8
b1000001000000010110011 !
b1000001000000010110011 N
b1000001000000010110011 V#
b10011 [
b10011 n"
b0 U
b0 {"
b0 J#
b0 f
b0 m"
b0 l"
0~
0*#
1##
b0 y
b0 4
b0 /#
1-#
b0 $"
b0 "#
b0 5#
b0 #"
b0 !#
03
b0 L"
b1011 %
b1011 2
b1011 P#
b1011 K"
b1101 m
b1 J
b11 R#
0A
b0 l
b0 w"
b10 B
b10 S"
b10 H#
b0 T
b0 K#
b10000 C
b1100 "
b1100 :
b1100 U#
b1100 R"
b10011 G"
b10011 }"
b0 I"
b0 H"
b0 2"
b0 Y"
0+#
b0 3"
b0 (#
b0 A"
b0 u"
b0 ?"
b0 t"
b0 ="
b0 y"
b0 <"
b0 ;"
b0 \"
b0 q
b0 4"
b0 B"
b0 @"
01"
b100 &"
b11001 *"
b11001 s"
b11000 )"
b1011 ,"
b1101 '
b1101 /
b1101 N#
b1101 %"
0+"
b10 I
b10 P"
b10 v"
b10 G#
b10100 O"
b10 M"
1(
#100000
b1000 *
0(
#105000
b1 V
b10 S
b1 W
b1 L#
b10 T
b10 K#
0i
1Y
b1101 B
b1101 S"
b1101 H#
b1 L"
b0 %
b0 2
b0 P#
b0 K"
b0 m
b0 J
b0 R#
b110011 [
b110011 n"
b1 Z
b1 X
b1 z"
b1 I#
b10 U
b10 {"
b10 J#
b10 l"
b10 c
b10 ~"
b10100 D
b100010000000100010011 8
b100010000000100010011 !
b100010000000100010011 N
b100010000000100010011 V#
b11001 I
b11001 P"
b11001 v"
b11001 G#
b11000 O"
b1101 M"
0H
b0 &"
b0 *"
b0 s"
b0 )"
b0 ,"
b0 '
b0 /
b0 N#
b0 %"
1/"
1>"
b1000001000000010110011 G"
b1000001000000010110011 }"
b10000 I"
b1100 H"
b10100 C
b10000 "
b10000 :
b10000 U#
b10000 R"
1(
#110000
b1001 *
0(
#115000
b11 o
b10 V
b1 S
b1110 p
b10 W"
0r
b11 s
b11 X"
b10 W
b10 L#
b1 T
b1 K#
1i
1Y
b10 t
b10 V"
b10 2#
b1 u
b1 T"
b1 y
b1 3#
0""
b11000 D
b11111110001100010100110011100011 8
b11111110001100010100110011100011 !
b11111110001100010100110011100011 N
b11111110001100010100110011100011 V#
b10011 [
b10011 n"
b10 Z
b10 X
b10 z"
b10 I#
b1 U
b1 {"
b1 J#
b1 l"
b1 c
b1 ~"
0~
b10 4
b10 /#
0-#
b10 $"
b10 "#
b1 5#
b1 #"
b1 !#
b0 B
b0 S"
b0 H#
b11000 C
b10100 "
b10100 :
b10100 U#
b10100 R"
b100010000000100010011 G"
b100010000000100010011 }"
b10100 I"
b10000 H"
b10 2"
b10 Y"
b10 A"
b10 u"
b1 ?"
b1 t"
b1 ="
b1 y"
b10000 <"
b1100 ;"
b1100 \"
b1110 q
b10 4"
b10 B"
b1 @"
0/"
1+"
b0 I
b0 P"
b0 v"
b0 G#
b0 O"
b0 M"
1(
#120000
b1010 *
0(
#125000
b11 o
b10001 p
b1011 S
b11 2#
b10 u
b10 T"
b10 y
b10 3#
b11 s
b11 X"
b1 W"
b1011 T
b1011 K#
b101 o"
b10 b
b10 q"
b10 |"
1g
0i
0Y
b1000 L"
b10000000000000000000000000 %
b10000000000000000000000000 2
b10000000000000000000000000 P#
b10000000000000000000000000 K"
b11 m
bx00000000 K
b11 J
0~
b10 k
b10 x"
b11 /#
b11 $"
b11 "#
b10 5#
b10 #"
b10 !#
b1 t
b1 V"
b1100011 [
b1100011 n"
b11001 Z
b11 U
b11 {"
b11 J#
b100 f
b100 m"
1d
1e
b111111100011 l"
b11111111111111111111111111111000 c
b11111111111111111111111111111000 ~"
b11100 D
b100000010000000100011 8
b100000010000000100011 !
b100000010000000100011 N
b100000010000000100011 V#
1H
b1 *"
b1 s"
b10000 )"
b10 ,"
b11 '
b11 /
b11 N#
b11 %"
b1 2"
b1 Y"
b1 A"
b1 u"
b10 ?"
b10 t"
b10 ="
b10 y"
b10100 <"
b10000 ;"
b10000 \"
b10001 q
b1 4"
b1 B"
b10 @"
1/"
b11111110001100010100110011100011 G"
b11111110001100010100110011100011 }"
b11000 I"
b10100 H"
b11100 C
b11000 "
b11000 :
b11000 U#
b11000 R"
1(
#130000
b1011 *
0(
#135000
16
b1110 o
b0 V
0%#
b1100 p
b11 S
b0 W
b0 L#
b1 T
b1 K#
b11 o"
1\
1i
0g
b1 b
b1 q"
b1 |"
13
b1011 2#
b11 u
b11 T"
b11 3#
b1110 s
b1110 X"
b1011 W"
1A
b1100 D
b10001000000011 8
b10001000000011 !
b10001000000011 N
b10001000000011 V#
b100011 [
b100011 n"
b0 Z
b0 X
b0 z"
b0 I#
b1 U
b1 {"
b1 J#
b10 f
b10 m"
0d
0e
b1 l"
b0 c
b0 ~"
0~
1*#
0##
1""
b11111111111111111111111111111010 4
b1011 /#
b1011 $"
b1011 "#
b11 5#
b11 #"
b11 !#
b1011 t
b1011 V"
b11000000000000000000000000 %
b11000000000000000000000000 2
b11000000000000000000000000 P#
b11000000000000000000000000 K"
b0 k
b0 x"
b10 l
b10 w"
b11 B
b11 S"
b11 H#
b100000 C
b11100 "
b11100 :
b11100 U#
b11100 R"
b100000010000000100011 G"
b100000010000000100011 }"
b11100 I"
b11000 H"
b111111100011 2"
b111111100011 Y"
1+#
b100 3"
b100 (#
b11 A"
b11 u"
b11001 ="
b11001 y"
b11000 <"
b10100 ;"
b10100 \"
b1100 q
b11111111111111111111111111111000 4"
b1011 B"
0/"
11"
0>"
b10 *"
b10 s"
b10100 )"
b11 ,"
b1 I
b1 P"
b1 v"
b1 G#
b10000 O"
b11 M"
1(
#140000
b1100 *
0(
#145000
b0 o
06
1r
b10000 D
1%#
b0 u
b0 T"
b0 3#
b0 p
b0 s
b0 X"
b0 W"
b0 S
b0 5#
b0 #"
b0 !#
b0 t
b0 V"
b0 2#
b0 o"
1Y
0\
b0 b
b0 q"
b0 |"
1i
0A
b0 L"
b1011 %
b1011 2
b1011 P#
b1011 K"
b1110 m
b0 K
b10 J
b11 R#
0~
0*#
1##
1""
b0 y
b0 l
b0 w"
b0 4
b0 /#
1-#
b0 $"
b0 "#
03
b10011 [
b10011 n"
b0 U
b0 {"
b0 J#
b0 f
b0 m"
b0 l"
b1000001000000010110011 8
b1000001000000010110011 !
b1000001000000010110011 N
b1000001000000010110011 V#
b0 T
b0 K#
b10 I
b10 P"
b10 v"
b10 G#
b10100 O"
b100 &"
b11001 *"
b11001 s"
b11000 )"
b1011 ,"
b1110 '
b1110 /
b1110 N#
b1110 %"
0+"
b0 2"
b0 Y"
0+#
b0 3"
b0 (#
b0 A"
b0 u"
b0 ?"
b0 t"
b0 ="
b0 y"
b0 <"
b0 ;"
b0 \"
b0 q
b0 4"
b0 B"
b0 @"
01"
b10011 G"
b10011 }"
b0 I"
b0 H"
b10000 C
b1100 "
b1100 :
b1100 U#
b1100 R"
1(
#150000
b1101 *
0(
#155000
b11 V
b11 S
b11 W
b11 L#
b11 T
b11 K#
0i
1Y
b10100 D
b100010000000100010011 8
b100010000000100010011 !
b100010000000100010011 N
b100010000000100010011 V#
b110011 [
b110011 n"
b1 Z
b1 X
b1 z"
b1 I#
b10 U
b10 {"
b10 J#
b10 l"
b10 c
b10 ~"
b1 L"
b0 %
b0 2
b0 P#
b0 K"
b0 m
b0 J
b0 R#
b1110 B
b1110 S"
b1110 H#
b10100 C
b10000 "
b10000 :
b10000 U#
b10000 R"
b1000001000000010110011 G"
b1000001000000010110011 }"
b10000 I"
b1100 H"
1/"
1>"
b0 &"
b0 *"
b0 s"
b0 )"
b0 ,"
b0 '
b0 /
b0 N#
b0 %"
b11001 I
b11001 P"
b11001 v"
b11001 G#
b11000 O"
b1110 M"
0H
1(
#160000
b1110 *
0(
#165000
b110 o
b1110 p
b11 W"
0r
b110 s
b110 X"
b11 t
b11 V"
b11 2#
b11 u
b11 T"
b11 y
b11 3#
1i
1Y
b0 B
b0 S"
b0 H#
0~
b100 4
b11 /#
0-#
b11 $"
b11 "#
b11 5#
b11 #"
b11 !#
b10011 [
b10011 n"
b10 Z
b10 X
b10 z"
b10 I#
b1 U
b1 {"
b1 J#
b1 l"
b1 c
b1 ~"
b11000 D
b11111110001100010100110011100011 8
b11111110001100010100110011100011 !
b11111110001100010100110011100011 N
b11111110001100010100110011100011 V#
b0 I
b0 P"
b0 v"
b0 G#
b0 O"
b0 M"
1+"
b10 2"
b10 Y"
b10 A"
b10 u"
b1 ?"
b1 t"
b1 ="
b1 y"
b10000 <"
b1100 ;"
b1100 \"
b1110 q
b10 4"
b11 B"
b11 @"
0/"
b100010000000100010011 G"
b100010000000100010011 }"
b10100 I"
b10000 H"
b11000 C
b10100 "
b10100 :
b10100 U#
b10100 R"
1(
#170000
b1111 *
0(
