waveform/tb_core_pipe_trap.vcd
$date
	Tue Jun 23 14:22:00 2026
$end
$version
	Icarus Verilog
$end
$timescale
	1ps
$end
$scope module tb_core_pipe_trap $end
$var wire 32 ! imem_rdata [31:0] $end
$var wire 32 " imem_addr [31:0] $end
$var wire 4 # dmem_wstrb [3:0] $end
$var wire 1 $ dmem_we $end
$var wire 32 % dmem_wdata [31:0] $end
$var wire 32 & dmem_rdata [31:0] $end
$var wire 32 ' dmem_addr [31:0] $end
$var reg 1 ( clk $end
$var reg 1 ) rst_n $end
$var integer 32 * c [31:0] $end
$var integer 32 + errors [31:0] $end
$scope module dut $end
$var wire 1 , bus_stall $end
$var wire 1 ( clk $end
$var wire 1 - csr_illegal $end
$var wire 1 . csr_wr $end
$var wire 32 / dmem_addr [31:0] $end
$var wire 1 0 dmem_ready $end
$var wire 1 1 dmem_valid $end
$var wire 32 2 dmem_wdata [31:0] $end
$var wire 1 $ dmem_we $end
$var wire 1 3 ex_branch_taken $end
$var wire 32 4 ex_jalr_target [31:0] $end
$var wire 1 5 ex_mret $end
$var wire 1 6 ex_redirect $end
$var wire 1 7 ex_trap $end
$var wire 32 8 if_instr [31:0] $end
$var wire 1 9 if_stall $end
$var wire 32 : imem_addr [31:0] $end
$var wire 1 ; imem_ready $end
$var wire 1 < imem_valid $end
$var wire 1 = ls_stall $end
$var wire 1 > mul_stall $end
$var wire 1 ) rst_n $end
$var wire 1 ? stall_front $end
$var wire 1 @ wb2id_rs1 $end
$var wire 1 A wb2id_rs2 $end
$var wire 32 B wb_data [31:0] $end
$var wire 32 C pc_plus4 [31:0] $end
$var wire 32 D next_pc [31:0] $end
$var wire 32 E mul_result [31:0] $end
$var wire 1 F mul_done $end
$var wire 1 G mul_busy $end
$var wire 1 H memwb_reg_write $end
$var wire 5 I memwb_rd [4:0] $end
$var wire 2 J mem_off [1:0] $end
$var wire 16 K mem_ld_half [15:0] $end
$var wire 8 L mem_ld_byte [7:0] $end
$var wire 1 M load_use_stall $end
$var wire 32 N imem_rdata [31:0] $end
$var wire 2 O id_wb_sel [1:0] $end
$var wire 1 P id_sys_mret $end
$var wire 1 Q id_sys_ecall $end
$var wire 1 R id_sys_ebreak $end
$var wire 32 S id_rs2_fwd [31:0] $end
$var wire 32 T id_rs2_data [31:0] $end
$var wire 5 U id_rs2 [4:0] $end
$var wire 32 V id_rs1_fwd [31:0] $end
$var wire 32 W id_rs1_data [31:0] $end
$var wire 5 X id_rs1 [4:0] $end
$var wire 1 Y id_reg_write $end
$var wire 5 Z id_rd [4:0] $end
$var wire 7 [ id_opcode [6:0] $end
$var wire 1 \ id_mem_write $end
$var wire 1 ] id_mem_read $end
$var wire 1 ^ id_jump $end
$var wire 1 _ id_jalr $end
$var wire 1 ` id_is_muldiv $end
$var wire 1 a id_is_csr $end
$var wire 3 b id_imm_sel [2:0] $end
$var wire 32 c id_imm [31:0] $end
$var wire 1 d id_funct7b5 $end
$var wire 1 e id_funct7b0 $end
$var wire 3 f id_funct3 [2:0] $end
$var wire 1 g id_branch $end
$var wire 4 h id_alu_op [3:0] $end
$var wire 1 i id_alu_b_src $end
$var wire 1 j id_alu_a_src $end
$var wire 2 k forward_b [1:0] $end
$var wire 2 l forward_a [1:0] $end
$var wire 32 m exmem_fwd_val [31:0] $end
$var wire 32 n ex_trap_cause [31:0] $end
$var wire 32 o ex_result [31:0] $end
$var wire 32 p ex_redirect_pc [31:0] $end
$var wire 32 q ex_pc_target [31:0] $end
$var wire 1 r ex_alu_zero $end
$var wire 32 s ex_alu_result [31:0] $end
$var wire 32 t ex_alu_b [31:0] $end
$var wire 32 u ex_alu_a [31:0] $end
$var wire 4 v dmem_wstrb [3:0] $end
$var wire 32 w dmem_rdata [31:0] $end
$var wire 32 x csr_wval [31:0] $end
$var wire 32 y csr_src [31:0] $end
$var wire 32 z csr_rdata [31:0] $end
$var wire 2 { csr_op [1:0] $end
$var wire 32 | csr_mtvec [31:0] $end
$var wire 32 } csr_mepc [31:0] $end
$var wire 1 ~ csr_addr_valid $end
$var parameter 32 !" RESET_PC $end
$var reg 1 "" ex_branch_cond $end
$var reg 32 #" ex_rs1_fwd [31:0] $end
$var reg 32 $" ex_rs2_fwd [31:0] $end
$var reg 32 %" exmem_alu_result [31:0] $end
$var reg 3 &" exmem_funct3 [2:0] $end
$var reg 1 '" exmem_mem_read $end
$var reg 1 (" exmem_mem_write $end
$var reg 32 )" exmem_pc4 [31:0] $end
$var reg 5 *" exmem_rd [4:0] $end
$var reg 1 +" exmem_reg_write $end
$var reg 32 ," exmem_rs2_data [31:0] $end
$var reg 2 -" exmem_wb_sel [1:0] $end
$var reg 1 ." idex_alu_a_src $end
$var reg 1 /" idex_alu_b_src $end
$var reg 4 0" idex_alu_op [3:0] $end
$var reg 1 1" idex_branch $end
$var reg 12 2" idex_csr_addr [11:0] $end
$var reg 3 3" idex_funct3 [2:0] $end
$var reg 32 4" idex_imm [31:0] $end
$var reg 1 5" idex_is_csr $end
$var reg 1 6" idex_is_muldiv $end
$var reg 1 7" idex_jalr $end
$var reg 1 8" idex_jump $end
$var reg 1 9" idex_mem_read $end
$var reg 1 :" idex_mem_write $end
$var reg 32 ;" idex_pc [31:0] $end
$var reg 32 <" idex_pc4 [31:0] $end
$var reg 5 =" idex_rd [4:0] $end
$var reg 1 >" idex_reg_write $end
$var reg 5 ?" idex_rs1 [4:0] $end
$var reg 32 @" idex_rs1_data [31:0] $end
$var reg 5 A" idex_rs2 [4:0] $end
$var reg 32 B" idex_rs2_data [31:0] $end
$var reg 1 C" idex_sys_ebreak $end
$var reg 1 D" idex_sys_ecall $end
$var reg 1 E" idex_sys_mret $end
$var reg 2 F" idex_wb_sel [1:0] $end
$var reg 32 G" ifid_instr [31:0] $end
$var reg 32 H" ifid_pc [31:0] $end
$var reg 32 I" ifid_pc4 [31:0] $end
$var reg 32 J" mem_load_data [31:0] $end
$var reg 32 K" mem_store_data [31:0] $end
$var reg 4 L" mem_store_strb [3:0] $end
$var reg 32 M" memwb_alu_result [31:0] $end
$var reg 32 N" memwb_load_data [31:0] $end
$var reg 32 O" memwb_pc4 [31:0] $end
$var reg 5 P" memwb_rd_r [4:0] $end
$var reg 1 H memwb_reg_write_r $end
$var reg 2 Q" memwb_wb_sel [1:0] $end
$var reg 32 R" pc [31:0] $end
$var reg 32 S" wb_mux [31:0] $end
$scope module u_alu $end
$var wire 32 T" a [31:0] $end
$var wire 4 U" alu_op [3:0] $end
$var wire 32 V" b [31:0] $end
$var wire 1 r zero $end
$var wire 5 W" shamt [4:0] $end
$var reg 32 X" result [31:0] $end
$upscope $end
$scope module u_csr $end
$var wire 12 Y" addr [11:0] $end
$var wire 1 ( clk $end
$var wire 32 Z" mepc_o [31:0] $end
$var wire 1 5 mret_en $end
$var wire 1 5" rd_en $end
$var wire 1 ) rst_n $end
$var wire 32 [" trap_cause [31:0] $end
$var wire 1 7 trap_en $end
$var wire 32 \" trap_epc [31:0] $end
$var wire 32 ]" trap_val [31:0] $end
$var wire 32 ^" wdata [31:0] $end
$var wire 1 _" wr_en $end
$var wire 32 `" mtvec_o [31:0] $end
$var wire 32 a" mstatus [31:0] $end
$var reg 1 ~ addr_valid $end
$var reg 32 b" mcause [31:0] $end
$var reg 32 c" mepc [31:0] $end
$var reg 32 d" mie [31:0] $end
$var reg 32 e" mip [31:0] $end
$var reg 32 f" mscratch [31:0] $end
$var reg 1 g" mstatus_mie $end
$var reg 1 h" mstatus_mpie $end
$var reg 32 i" mtval [31:0] $end
$var reg 32 j" mtvec [31:0] $end
$var reg 32 k" rdata [31:0] $end
$upscope $end
$scope module u_ctrl $end
$var wire 12 l" funct12 [11:0] $end
$var wire 3 m" funct3 [2:0] $end
$var wire 1 e funct7b0 $end
$var wire 1 d funct7b5 $end
$var wire 7 n" opcode [6:0] $end
$var reg 1 j alu_a_src $end
$var reg 4 o" alu_arith [3:0] $end
$var reg 1 i alu_b_src $end
$var reg 4 p" alu_op [3:0] $end
$var reg 1 g branch $end
$var reg 3 q" imm_sel [2:0] $end
$var reg 1 a is_csr $end
$var reg 1 ` is_muldiv $end
$var reg 1 _ jalr $end
$var reg 1 ^ jump $end
$var reg 1 ] mem_read $end
$var reg 1 \ mem_write $end
$var reg 1 Y reg_write $end
$var reg 1 R sys_ebreak $end
$var reg 1 Q sys_ecall $end
$var reg 1 P sys_mret $end
$var reg 2 r" wb_sel [1:0] $end
$upscope $end
$scope module u_fwd $end
$var wire 5 s" exmem_rd [4:0] $end
$var wire 1 +" exmem_reg_write $end
$var wire 5 t" idex_rs1 [4:0] $end
$var wire 5 u" idex_rs2 [4:0] $end
$var wire 5 v" memwb_rd [4:0] $end
$var wire 1 H memwb_reg_write $end
$var reg 2 w" forward_a [1:0] $end
$var reg 2 x" forward_b [1:0] $end
$upscope $end
$scope module u_hazard $end
$var wire 1 9" idex_mem_read $end
$var wire 5 y" idex_rd [4:0] $end
$var wire 5 z" ifid_rs1 [4:0] $end
$var wire 5 {" ifid_rs2 [4:0] $end
$var wire 1 M stall $end
$upscope $end
$scope module u_imm $end
$var wire 3 |" imm_sel [2:0] $end
$var wire 32 }" instr [31:0] $end
$var reg 32 ~" imm [31:0] $end
$upscope $end
$scope module u_muldiv $end
$var wire 32 !# a [31:0] $end
$var wire 32 "# b [31:0] $end
$var wire 1 ## b_s $end
$var wire 1 G busy $end
$var wire 1 ( clk $end
$var wire 1 $# ge $end
$var wire 1 %# is_mul $end
$var wire 1 &# na $end
$var wire 1 '# nb $end
$var wire 3 (# op [2:0] $end
$var wire 1 )# overflow $end
$var wire 1 ) rst_n $end
$var wire 1 *# signed_div $end
$var wire 1 , stall $end
$var wire 1 6" start $end
$var wire 1 +# take_high $end
$var wire 32 ,# rem_hi [31:0] $end
$var wire 1 F done $end
$var wire 1 -# div_zero $end
$var wire 33 .# diff [32:0] $end
$var wire 33 /# b_ext [32:0] $end
$var wire 64 0# acc_sh [63:0] $end
$var wire 64 1# acc_nx [63:0] $end
$var wire 32 2# abs_b [31:0] $end
$var wire 32 3# abs_a [31:0] $end
$var wire 1 4# a_s $end
$var wire 33 5# a_ext [32:0] $end
$var parameter 3 6# CALC $end
$var parameter 3 7# FIN $end
$var parameter 3 8# IDLE $end
$var parameter 3 9# MUL1 $end
$var parameter 3 :# MUL2 $end
$var reg 64 ;# acc [63:0] $end
$var reg 33 <# areg [32:0] $end
$var reg 33 =# breg [32:0] $end
$var reg 6 ># cnt [5:0] $end
$var reg 32 ?# divisor_q [31:0] $end
$var reg 1 @# neg_q $end
$var reg 1 A# neg_r $end
$var reg 3 B# op_q [2:0] $end
$var reg 66 C# preg [65:0] $end
$var reg 32 D# result [31:0] $end
$var reg 3 E# state [2:0] $end
$var reg 1 F# take_high_q $end
$upscope $end
$scope module u_rf $end
$var wire 1 ( clk $end
$var wire 5 G# rd_addr [4:0] $end
$var wire 32 H# rd_data [31:0] $end
$var wire 5 I# rs1_addr [4:0] $end
$var wire 5 J# rs2_addr [4:0] $end
$var wire 1 H we $end
$var wire 32 K# rs2_data [31:0] $end
$var wire 32 L# rs1_data [31:0] $end
$var integer 32 M# i [31:0] $end
$upscope $end
$upscope $end
$scope module u_dmem $end
$var wire 32 N# addr [31:0] $end
$var wire 1 ( clk $end
$var wire 32 O# rdata [31:0] $end
$var wire 32 P# wdata [31:0] $end
$var wire 1 $ we $end
$var wire 4 Q# wstrb [3:0] $end
$var wire 8 R# idx [7:0] $end
$var parameter 32 S# WORDS $end
$var integer 32 T# k [31:0] $end
$upscope $end
$scope module u_imem $end
$var wire 32 U# addr [31:0] $end
$var wire 32 V# rdata [31:0] $end
$var parameter 32 W# WORDS $end
$var integer 32 X# k [31:0] $end
$upscope $end
$scope task chk $end
$var reg 32 Y# exp [31:0] $end
$var reg 32 Z# got [31:0] $end
$var integer 32 [# id [31:0] $end
$upscope $end
$upscope $end
$enddefinitions $end
$comment Show the parameter values. $end
$dumpall
b100000000 W#
b100000000 S#
b10 :#
b1 9#
b0 8#
b100 7#
b11 6#
b0 !"
$end
#0
$dumpvars
bx [#
bx Z#
bx Y#
b100000000 X#
b100000000000000001010010011 V#
b0 U#
b100000000 T#
b0 R#
b0 Q#
b0 P#
b0 O#
b0 N#
b100000 M#
b0 L#
b0 K#
b0 J#
b0 I#
b0 H#
b0 G#
0F#
b0 E#
b0 D#
b0 C#
b0 B#
0A#
0@#
b0 ?#
b0 >#
b0 =#
b0 <#
b0 ;#
b0 5#
14#
b0 3#
b0 2#
b1 1#
b0 0#
b0 /#
b0 .#
1-#
b0 ,#
0+#
0*#
0)#
b0 (#
0'#
0&#
1%#
1$#
1##
b0 "#
b0 !#
b0 ~"
b10011 }"
b0 |"
b0 {"
b0 z"
b0 y"
b0 x"
b0 w"
b0 v"
b0 u"
b0 t"
b0 s"
b0 r"
b0 q"
b0 p"
b0 o"
b10011 n"
b0 m"
b0 l"
b0 k"
b0 j"
b0 i"
0h"
0g"
b0 f"
b0 e"
b0 d"
b0 c"
b0 b"
b11000000000000 a"
b0 `"
0_"
b0 ^"
b0 ]"
b0 \"
b10 ["
b0 Z"
b0 Y"
b0 X"
b0 W"
b0 V"
b0 U"
b0 T"
b0 S"
b0 R"
b0 Q"
b0 P"
b0 O"
b0 N"
b0 M"
b1 L"
b0 K"
b0 J"
b0 I"
b0 H"
b10011 G"
b0 F"
0E"
0D"
0C"
b0 B"
b0 A"
b0 @"
b0 ?"
0>"
b0 ="
b0 <"
b0 ;"
0:"
09"
08"
07"
06"
05"
b0 4"
b0 3"
b0 2"
01"
b0 0"
0/"
0."
b0 -"
b0 ,"
0+"
b0 *"
b0 )"
0("
0'"
b0 &"
b0 %"
b0 $"
b0 #"
1""
0~
b0 }
b0 |
b0 {
b0 z
b0 y
b0 x
b0 w
b0 v
b0 u
b0 t
b0 s
1r
b0 q
b0 p
b0 o
b10 n
b0 m
b0 l
b0 k
0j
1i
b0 h
0g
b0 f
0e
0d
b0 c
b0 b
0a
0`
0_
0^
0]
0\
b10011 [
b0 Z
1Y
b0 X
b0 W
b0 V
b0 U
b0 T
b0 S
0R
0Q
0P
b0 O
b100000000000000001010010011 N
0M
b0 L
b0 K
b0 J
b0 I
0H
0G
0F
b0 E
b100 D
b100 C
b0 B
0A
0@
0?
0>
0=
1<
z;
b0 :
x9
b100000000000000001010010011 8
07
06
05
b0 4
03
b0 2
01
z0
b0 /
0.
0-
x,
b0 +
bx *
0)
0(
b0 '
b0 &
b0 %
0$
b0 #
b0 "
b100000000000000001010010011 !
$end
#5000
1(
#10000
0(
#15000
1(
#20000
b0 *
1)
0(
#25000
1i
1Y
b101 Z
b1000000 l"
b1000000 c
b1000000 ~"
b1000 D
b110000010100101001000001110011 8
b110000010100101001000001110011 !
b110000010100101001000001110011 N
b110000010100101001000001110011 V#
1/"
1>"
b100000000000000001010010011 G"
b100000000000000001010010011 }"
b100 I"
b1000 C
b100 "
b100 :
b100 U#
b100 R"
1(
#30000
b1 *
0(
#35000
b1000000 o
b1000000 p
b10 o"
1a
0i
1Y
0r
b1000000 s
b1000000 X"
b1100 D
b10010001100000000001100010011 8
b10010001100000000001100010011 !
b10010001100000000001100010011 N
b10010001100000000001100010011 V#
b1110011 [
b1110011 n"
b0 Z
b101 X
b101 z"
b101 I#
b101 U
b101 {"
b101 J#
b1 f
b1 m"
b1100000101 l"
b1100000101 c
b1100000101 ~"
0~
b1000000 t
b1000000 V"
b1000000 4
b1100 C
b1000 "
b1000 :
b1000 U#
b1000 R"
b110000010100101001000001110011 G"
b110000010100101001000001110011 }"
b1000 I"
b100 H"
b1000000 2"
b1000000 Y"
b101 ="
b101 y"
b100 <"
b1000000 q
b1000000 4"
1+"
1(
#40000
b10 *
0(
#45000
06
b1000000 x
b1000000 ^"
07
b1000000 2#
b1000000 u
b1000000 T"
b1000000 y
b1000000 3#
b1100001001 p
1_"
b1000000 /#
0-#
b1000000 $"
b1000000 "#
b1000000 5#
b1000000 #"
b1000000 !#
0r
b10000000 s
b10000000 X"
b0 o"
1i
0a
1Y
b1000000 m
b10000 R#
1~
b0 o
0-
1.
b1 {
0""
b10 k
b10 x"
b10 l
b10 w"
b1101000100 4
b1000000 t
b1000000 V"
b10011 [
b10011 n"
b110 Z
b0 X
b0 z"
b0 I#
b11 U
b11 {"
b11 J#
b0 f
b0 m"
1e
b100100011 l"
b100100011 c
b100100011 ~"
b10000 D
b110100000000110001000001110011 8
b110100000000110001000001110011 !
b110100000000110001000001110011 N
b110100000000110001000001110011 V#
1H
b101 *"
b101 s"
b100 )"
b1000000 '
b1000000 /
b1000000 N#
b1000000 %"
b1100000101 2"
b1100000101 Y"
15"
1+#
b1 3"
b1 (#
b101 A"
b101 u"
b101 ?"
b101 t"
b0 ="
b0 y"
b1000 <"
b100 ;"
b100 \"
b1100001001 q
b1100000101 4"
0/"
b10010001100000000001100010011 G"
b10010001100000000001100010011 }"
b1100 I"
b1000 H"
b10000 C
b1100 "
b1100 :
b1100 U#
b1100 R"
1(
#50000
b11 *
0(
#55000
b100101011 p
b0 2#
b0 u
b0 T"
b0 y
b0 3#
b10 o"
1a
0i
1Y
0_"
b0 x
b0 ^"
b100100011 s
b100100011 X"
b11 W"
b0 /#
1-#
b0 $"
b0 "#
b0 5#
b0 #"
b0 !#
b1000000 |
b1000000 `"
b10100 D
b110100000000000010001111110011 8
b110100000000000010001111110011 !
b110100000000000010001111110011 N
b110100000000000010001111110011 V#
b1110011 [
b1110011 n"
b0 Z
b110 X
b110 z"
b110 I#
b0 U
b0 {"
b0 J#
b1 f
b1 m"
0e
b1101000000 l"
b1101000000 c
b1101000000 ~"
0~
b100100011 o
0.
b0 {
1""
b100100010 4
b100100011 t
b100100011 V"
b11 L"
b1000000 %
b1000000 2
b1000000 P#
b1000000 K"
b0 m
b0 R#
b0 k
b0 x"
b0 l
b0 w"
b1000000 B
b1000000 S"
b1000000 H#
b1000000 j"
b10100 C
b10000 "
b10000 :
b10000 U#
b10000 R"
b110100000000110001000001110011 G"
b110100000000110001000001110011 }"
b10000 I"
b1100 H"
b100100011 2"
b100100011 Y"
05"
0+#
b0 3"
b0 (#
b11 A"
b11 u"
b0 ?"
b0 t"
b110 ="
b110 y"
b1100 <"
b1000 ;"
b1000 \"
b100101011 q
b100100011 4"
1/"
b1 &"
b0 *"
b0 s"
b1000 )"
b1000000 ,"
b0 '
b0 /
b0 N#
b0 %"
b101 I
b101 P"
b101 v"
b101 G#
b100 O"
b1000000 M"
1(
#60000
b100 *
0(
#65000
06
b100100011 x
b100100011 ^"
07
b100100011 u
b100100011 T"
b100100011 y
b100100011 3#
b1101001100 p
1_"
b100100011 5#
b100100011 #"
b100100011 !#
0r
b100100011 s
b100100011 X"
b0 W"
1a
1Y
b11 o"
0A
b0 B
b0 S"
b0 H#
b1000 L"
b0 %
b0 2
b0 P#
b0 K"
b100100011 m
bx00000000 K
b11 J
b1001000 R#
1~
b0 o
0-
1.
b1 {
1""
b10 l
b10 w"
b10001100010 4
b0 t
b0 V"
b111 Z
b0 X
b0 z"
b0 I#
b10 f
b10 m"
b11000 D
b110000000100000010010001110011 8
b110000000100000010010001110011 !
b110000000100000010010001110011 N
b110000000100000010010001110011 V#
b0 I
b0 P"
b0 v"
b0 G#
b1000 O"
b0 M"
b0 &"
b110 *"
b110 s"
b1100 )"
b0 ,"
b100100011 '
b100100011 /
b100100011 N#
b100100011 %"
b1101000000 2"
b1101000000 Y"
15"
1+#
b1 3"
b1 (#
b0 A"
b0 u"
b110 ?"
b110 t"
b0 ="
b0 y"
b10000 <"
b1100 ;"
b1100 \"
b1101001100 q
b1101000000 4"
0/"
b110100000000000010001111110011 G"
b110100000000000010001111110011 }"
b10100 I"
b10000 H"
b11000 C
b10100 "
b10100 :
b10100 U#
b10100 R"
1(
#70000
b101 *
0(
#75000
0_"
1r
b0 s
b0 X"
0.
b1101010000 p
b0 u
b0 T"
b0 y
b1101000000 4
b0 3#
b100100011 o
1a
1Y
b0 5#
b0 #"
b0 !#
b100100011 z
b100100011 k"
b11100 D
b101000010011 8
b101000010011 !
b101000010011 N
b101000010011 V#
b1000 Z
b1 U
b1 {"
b1 J#
b1100000001 l"
b1100000001 c
b1100000001 ~"
b10 {
0##
0""
b11 L"
b0 m
b0 K
b0 J
b0 R#
b0 l
b0 w"
b100100011 B
b100100011 S"
b100100011 H#
b100100011 f"
b11100 C
b11000 "
b11000 :
b11000 U#
b11000 R"
b110000000100000010010001110011 G"
b110000000100000010010001110011 }"
b11000 I"
b10100 H"
b10 3"
b10 (#
b0 ?"
b0 t"
b111 ="
b111 y"
b10100 <"
b1101010000 q
b10000 ;"
b10000 \"
b1 &"
b0 *"
b0 s"
b10000 )"
b0 '
b0 /
b0 N#
b0 %"
b110 I
b110 P"
b110 v"
b110 G#
b1100 O"
b100100011 M"
1(
#80000
b110 *
0(
#85000
b1000000000000000001000100000000 x
b1000000000000000001000100000000 ^"
b1100010101 p
b1000000000000000001000100000000 o
b0 o"
1i
0a
1Y
0@
b0 B
b0 S"
b0 H#
b1111 L"
b100100011 m
bx00000000 K
b11 J
b1001000 R#
b1000000000000000001000100000000 z
b1000000000000000001000100000000 k"
b1100000000 4
b10011 [
b10011 n"
b10100 Z
b0 U
b0 {"
b0 J#
b0 f
b0 m"
b0 l"
b0 c
b0 ~"
b100000 D
b101010010011 8
b101010010011 !
b101010010011 N
b101010010011 V#
b0 I
b0 P"
b0 v"
b0 G#
b10000 O"
b0 M"
b10 &"
b111 *"
b111 s"
b10100 )"
b100100011 '
b100100011 /
b100100011 N#
b100100011 %"
b1100000001 2"
b1100000001 Y"
b1 A"
b1 u"
b1000 ="
b1000 y"
b11000 <"
b10100 ;"
b10100 \"
b1100010101 q
b1100000001 4"
b101000010011 G"
b101000010011 }"
b11100 I"
b11000 H"
b100000 C
b11100 "
b11100 :
b11100 U#
b11100 R"
1(
#90000
b111 *
0(
#95000
b0 x
b0 ^"
b11000 p
1%#
b100100 D
b1110011 8
b1110011 !
b1110011 N
b1110011 V#
b10101 Z
0~
b0 z
b0 k"
b0 o
b0 {
1##
1""
b0 4
b1000000000000000001000100000000 m
b0 K
b0 J
b1000000 R#
b100100011 B
b100100011 S"
b100100011 H#
b100100 C
b100000 "
b100000 :
b100000 U#
b100000 R"
b101010010011 G"
b101010010011 }"
b100000 I"
b11100 H"
b0 2"
b0 Y"
05"
0+#
b0 3"
b0 (#
b0 A"
b0 u"
b10100 ="
b10100 y"
b11100 <"
b11000 ;"
b11000 \"
b11000 q
b0 4"
1/"
b1000 *"
b1000 s"
b11000 )"
b1000000000000000001000100000000 '
b1000000000000000001000100000000 /
b1000000000000000001000100000000 N#
b1000000000000000001000100000000 %"
b111 I
b111 P"
b111 v"
b111 G#
b10100 O"
b100100011 M"
1(
#100000
b1000 *
0(
#105000
b11100 p
1Q
0i
0Y
b1000000000000000001000100000000 B
b1000000000000000001000100000000 S"
b1000000000000000001000100000000 H#
b1 L"
b0 m
b0 R#
b1110011 [
b1110011 n"
b0 Z
b101000 D
b11100000000101010010011 8
b11100000000101010010011 !
b11100000000101010010011 N
b11100000000101010010011 V#
b1000 I
b1000 P"
b1000 v"
b1000 G#
b11000 O"
b1000000000000000001000100000000 M"
b0 &"
b10100 *"
b10100 s"
b11100 )"
b0 '
b0 /
b0 N#
b0 %"
b10101 ="
b10101 y"
b100000 <"
b11100 q
b11100 ;"
b11100 \"
b1110011 G"
b1110011 }"
b100100 I"
b100000 H"
b101000 C
b100100 "
b100100 :
b100100 U#
b100100 R"
1(
#110000
b1001 *
0(
#115000
16
b100100011 S
17
b1000000 p
b100100011 T
b100100011 K#
1i
1Y
0Q
b1000000 D
b1101111 8
b1101111 !
b1101111 N
b1101111 V#
b10011 [
b10011 n"
b10101 Z
b111 U
b111 {"
b111 J#
b111 l"
b111 c
b111 ~"
b1011 n
b1011 ["
b0 B
b0 S"
b0 H#
b101100 C
b101000 "
b101000 :
b101000 U#
b101000 R"
b11100000000101010010011 G"
b11100000000101010010011 }"
b101000 I"
b100100 H"
1D"
b0 ="
b0 y"
b100100 <"
b100000 q
b100000 ;"
b100000 \"
0/"
0>"
b10101 *"
b10101 s"
b100000 )"
b10100 I
b10100 P"
b10100 v"
b10100 G#
b11100 O"
b0 M"
1(
#120000
b1010 *
0(
#125000
06
b1000100 D
b0 p
07
b0 S
b0 T
b0 K#
1i
1Y
b10 n
b10 ["
b0 Z
b0 U
b0 {"
b0 J#
b0 l"
b0 c
b0 ~"
b10101000000000101000010011 8
b10101000000000101000010011 !
b10101000000000101000010011 N
b10101000000000101000010011 V#
0~
b10101 I
b10101 P"
b10101 v"
b10101 G#
b100000 O"
b0 *"
b0 s"
b0 )"
0+"
0D"
b0 <"
b0 q
b0 ;"
b0 \"
b10011 G"
b10011 }"
b0 I"
b0 H"
b1000100 C
b1000000 "
b1000000 :
b1000000 U#
b1000000 R"
b1011 b"
b100000 }
b100000 Z"
b100000 c"
1(
#130000
b1011 *
0(
#135000
1i
1Y
b1001000 D
b110100001000000010010011110011 8
b110100001000000010010011110011 !
b110100001000000010010011110011 N
b110100001000000010010011110011 V#
b10100 Z
b1010 U
b1010 {"
b1010 J#
1e
b101010 l"
b101010 c
b101010 ~"
b1001000 C
b1000100 "
b1000100 :
b1000100 U#
b1000100 R"
b10101000000000101000010011 G"
b10101000000000101000010011 }"
b1000100 I"
b1000000 H"
1/"
1>"
b0 I
b0 P"
b0 v"
b0 G#
b0 O"
0H
1(
#140000
b1100 *
0(
#145000
b101010 o
b1101010 p
0r
b101010 s
b101010 X"
b1010 W"
b11 o"
1a
0i
1Y
0~
b101010 t
b101010 V"
b101010 4
b1110011 [
b1110011 n"
b1001 Z
b10 U
b10 {"
b10 J#
b10 f
b10 m"
0e
b1101000010 l"
b1101000010 c
b1101000010 ~"
b1001100 D
b110100000100000010010101110011 8
b110100000100000010010101110011 !
b110100000100000010010101110011 N
b110100000100000010010101110011 V#
1+"
b101010 2"
b101010 Y"
b1010 A"
b1010 u"
b10100 ="
b10100 y"
b1000100 <"
b1000000 ;"
b1000000 \"
b1101010 q
b101010 4"
b110100001000000010010011110011 G"
b110100001000000010010011110011 }"
b1001000 I"
b1000100 H"
b1001100 C
b1001000 "
b1001000 :
b1001000 U#
b1001000 R"
1(
#150000
b1101 *
0(
#155000
06
b1011 x
b1011 ^"
07
b1110000110 p
1a
1Y
1r
b0 s
b0 X"
b0 W"
b100 L"
b1010000 D
b10001010000010100010011 8
b10001010000010100010011 !
b10001010000010100010011 N
b10001010000010100010011 V#
b1010 Z
b1 U
b1 {"
b1 J#
b1101000001 l"
b1101000001 c
b1101000001 ~"
b1011 z
b1011 k"
1~
b1011 o
0-
b10 {
0##
0""
b1101000010 4
b0 t
b0 V"
b101010 m
b10 J
b1010 R#
b1010000 C
b1001100 "
b1001100 :
b1001100 U#
b1001100 R"
b110100000100000010010101110011 G"
b110100000100000010010101110011 }"
b1001100 I"
b1001000 H"
b1101000010 2"
b1101000010 Y"
15"
1+#
b10 3"
b10 (#
b10 A"
b10 u"
b1001 ="
b1001 y"
b1001000 <"
b1000100 ;"
b1000100 \"
b1110000110 q
b1101000010 4"
0/"
b10100 *"
b10100 s"
b1000100 )"
b101010 '
b101010 /
b101010 N#
b101010 %"
1H
1(
#160000
b1110 *
0(
#165000
b100000 x
b100000 ^"
b1110001001 p
b100000 o
b0 o"
1i
0a
1Y
b101010 B
b101010 S"
b101010 H#
b1111 L"
b1011 m
bx00000000 K
b11 J
b10 R#
b100000 z
b100000 k"
b1101000000 4
b10011 [
b10011 n"
b1010 X
b1010 z"
b1010 I#
b100 U
b100 {"
b100 J#
b0 f
b0 m"
b100 l"
b100 c
b100 ~"
b1010100 D
b110100000101010001000001110011 8
b110100000101010001000001110011 !
b110100000101010001000001110011 N
b110100000101010001000001110011 V#
b10100 I
b10100 P"
b10100 v"
b10100 G#
b1000100 O"
b101010 M"
b10 &"
b1001 *"
b1001 s"
b1001000 )"
b1011 '
b1011 /
b1011 N#
b1011 %"
b1101000001 2"
b1101000001 Y"
b1 A"
b1 u"
b1010 ="
b1010 y"
b1001100 <"
b1001000 ;"
b1001000 \"
b1110001001 q
b1101000001 4"
b10001010000010100010011 G"
b10001010000010100010011 }"
b1010000 I"
b1001100 H"
b1010100 C
b1010000 "
b1010000 :
b1010000 U#
b1010000 R"
1(
#170000
b1111 *
0(
#175000
b0 x
b0 ^"
b1010000 p
b100000 u
b100000 T"
b100000 y
b100000 3#
b10 o"
1a
0i
1Y
1%#
0r
b100100 s
b100100 X"
b100 W"
b100000 5#
b100000 #"
b100000 !#
b1011000 D
b110000001000000000000001110011 8
b110000001000000000000001110011 !
b110000001000000000000001110011 N
b110000001000000000000001110011 V#
b1110011 [
b1110011 n"
b0 Z
b1 U
b1 {"
b1 J#
b1 f
b1 m"
b1101000001 l"
b1101000001 c
b1101000001 ~"
0~
b0 z
b0 k"
b100100 o
b0 {
1##
0""
b100100 4
b100 t
b100 V"
b100000 m
b0 K
b0 J
b1000 R#
b10 l
b10 w"
b1011 B
b1011 S"
b1011 H#
b1011000 C
b1010100 "
b1010100 :
b1010100 U#
b1010100 R"
b110100000101010001000001110011 G"
b110100000101010001000001110011 }"
b1010100 I"
b1010000 H"
b100 2"
b100 Y"
05"
0+#
b0 3"
b0 (#
b100 A"
b100 u"
b1010 ?"
b1010 t"
b1010000 <"
b1001100 ;"
b1001100 \"
b1010000 q
b100 4"
1/"
b1010 *"
b1010 s"
b1001100 )"
b100000 '
b100000 /
b100000 N#
b100000 %"
b1001 I
b1001 P"
b1001 v"
b1001 G#
b1001000 O"
b1011 M"
1(
#180000
b10000 *
0(
