waveform/tb_core_pipe_full.vcd
$date
	Thu Jun 11 04:51:18 2026
$end
$version
	Icarus Verilog
$end
$timescale
	1ps
$end
$scope module tb_core_pipe_full $end
$var wire 32 ! imem_rdata [31:0] $end
$var wire 32 " imem_addr [31:0] $end
$var wire 4 # dmem_wstrb [3:0] $end
$var wire 1 $ dmem_we $end
$var wire 32 % dmem_wdata [31:0] $end
$var wire 32 & dmem_rdata [31:0] $end
$var wire 32 ' dmem_addr [31:0] $end
$var reg 1 ( clk $end
$var reg 1 ) rst_n $end
$var integer 32 * c [31:0] $end
$var integer 32 + errors [31:0] $end
$scope module dut $end
$var wire 1 ( clk $end
$var wire 1 , csr_illegal $end
$var wire 1 - csr_wr $end
$var wire 32 . dmem_addr [31:0] $end
$var wire 32 / dmem_wdata [31:0] $end
$var wire 1 $ dmem_we $end
$var wire 1 0 ex_branch_taken $end
$var wire 32 1 ex_jalr_target [31:0] $end
$var wire 1 2 ex_mret $end
$var wire 1 3 ex_redirect $end
$var wire 1 4 ex_trap $end
$var wire 32 5 if_instr [31:0] $end
$var wire 32 6 imem_addr [31:0] $end
$var wire 1 7 mul_stall $end
$var wire 1 ) rst_n $end
$var wire 1 8 stall_front $end
$var wire 1 9 wb2id_rs1 $end
$var wire 1 : wb2id_rs2 $end
$var wire 32 ; wb_data [31:0] $end
$var wire 32 < pc_plus4 [31:0] $end
$var wire 32 = next_pc [31:0] $end
$var wire 32 > mul_result [31:0] $end
$var wire 1 ? mul_done $end
$var wire 1 @ mul_busy $end
$var wire 1 A memwb_reg_write $end
$var wire 5 B memwb_rd [4:0] $end
$var wire 2 C mem_off [1:0] $end
$var wire 16 D mem_ld_half [15:0] $end
$var wire 8 E mem_ld_byte [7:0] $end
$var wire 1 F load_use_stall $end
$var wire 32 G imem_rdata [31:0] $end
$var wire 2 H id_wb_sel [1:0] $end
$var wire 1 I id_sys_mret $end
$var wire 1 J id_sys_ecall $end
$var wire 1 K id_sys_ebreak $end
$var wire 32 L id_rs2_fwd [31:0] $end
$var wire 32 M id_rs2_data [31:0] $end
$var wire 5 N id_rs2 [4:0] $end
$var wire 32 O id_rs1_fwd [31:0] $end
$var wire 32 P id_rs1_data [31:0] $end
$var wire 5 Q id_rs1 [4:0] $end
$var wire 1 R id_reg_write $end
$var wire 5 S id_rd [4:0] $end
$var wire 7 T id_opcode [6:0] $end
$var wire 1 U id_mem_write $end
$var wire 1 V id_mem_read $end
$var wire 1 W id_jump $end
$var wire 1 X id_jalr $end
$var wire 1 Y id_is_muldiv $end
$var wire 1 Z id_is_csr $end
$var wire 3 [ id_imm_sel [2:0] $end
$var wire 32 \ id_imm [31:0] $end
$var wire 1 ] id_funct7b5 $end
$var wire 1 ^ id_funct7b0 $end
$var wire 3 _ id_funct3 [2:0] $end
$var wire 1 ` id_branch $end
$var wire 4 a id_alu_op [3:0] $end
$var wire 1 b id_alu_b_src $end
$var wire 1 c id_alu_a_src $end
$var wire 2 d forward_b [1:0] $end
$var wire 2 e forward_a [1:0] $end
$var wire 32 f exmem_fwd_val [31:0] $end
$var wire 32 g ex_trap_cause [31:0] $end
$var wire 32 h ex_result [31:0] $end
$var wire 32 i ex_redirect_pc [31:0] $end
$var wire 32 j ex_pc_target [31:0] $end
$var wire 1 k ex_alu_zero $end
$var wire 32 l ex_alu_result [31:0] $end
$var wire 32 m ex_alu_b [31:0] $end
$var wire 32 n ex_alu_a [31:0] $end
$var wire 4 o dmem_wstrb [3:0] $end
$var wire 32 p dmem_rdata [31:0] $end
$var wire 32 q csr_wval [31:0] $end
$var wire 32 r csr_src [31:0] $end
$var wire 32 s csr_rdata [31:0] $end
$var wire 2 t csr_op [1:0] $end
$var wire 32 u csr_mtvec [31:0] $end
$var wire 32 v csr_mepc [31:0] $end
$var wire 1 w csr_addr_valid $end
$var parameter 32 x RESET_PC $end
$var reg 1 y ex_branch_cond $end
$var reg 32 z ex_rs1_fwd [31:0] $end
$var reg 32 { ex_rs2_fwd [31:0] $end
$var reg 32 | exmem_alu_result [31:0] $end
$var reg 3 } exmem_funct3 [2:0] $end
$var reg 1 ~ exmem_mem_read $end
$var reg 1 !" exmem_mem_write $end
$var reg 32 "" exmem_pc4 [31:0] $end
$var reg 5 #" exmem_rd [4:0] $end
$var reg 1 $" exmem_reg_write $end
$var reg 32 %" exmem_rs2_data [31:0] $end
$var reg 2 &" exmem_wb_sel [1:0] $end
$var reg 1 '" idex_alu_a_src $end
$var reg 1 (" idex_alu_b_src $end
$var reg 4 )" idex_alu_op [3:0] $end
$var reg 1 *" idex_branch $end
$var reg 12 +" idex_csr_addr [11:0] $end
$var reg 3 ," idex_funct3 [2:0] $end
$var reg 32 -" idex_imm [31:0] $end
$var reg 1 ." idex_is_csr $end
$var reg 1 /" idex_is_muldiv $end
$var reg 1 0" idex_jalr $end
$var reg 1 1" idex_jump $end
$var reg 1 2" idex_mem_read $end
$var reg 1 3" idex_mem_write $end
$var reg 32 4" idex_pc [31:0] $end
$var reg 32 5" idex_pc4 [31:0] $end
$var reg 5 6" idex_rd [4:0] $end
$var reg 1 7" idex_reg_write $end
$var reg 5 8" idex_rs1 [4:0] $end
$var reg 32 9" idex_rs1_data [31:0] $end
$var reg 5 :" idex_rs2 [4:0] $end
$var reg 32 ;" idex_rs2_data [31:0] $end
$var reg 1 <" idex_sys_ebreak $end
$var reg 1 =" idex_sys_ecall $end
$var reg 1 >" idex_sys_mret $end
$var reg 2 ?" idex_wb_sel [1:0] $end
$var reg 32 @" ifid_instr [31:0] $end
$var reg 32 A" ifid_pc [31:0] $end
$var reg 32 B" ifid_pc4 [31:0] $end
$var reg 32 C" mem_load_data [31:0] $end
$var reg 32 D" mem_store_data [31:0] $end
$var reg 4 E" mem_store_strb [3:0] $end
$var reg 32 F" memwb_alu_result [31:0] $end
$var reg 32 G" memwb_load_data [31:0] $end
$var reg 32 H" memwb_pc4 [31:0] $end
$var reg 5 I" memwb_rd_r [4:0] $end
$var reg 1 A memwb_reg_write_r $end
$var reg 2 J" memwb_wb_sel [1:0] $end
$var reg 32 K" pc [31:0] $end
$var reg 32 L" wb_mux [31:0] $end
$scope module u_alu $end
$var wire 32 M" a [31:0] $end
$var wire 4 N" alu_op [3:0] $end
$var wire 32 O" b [31:0] $end
$var wire 1 k zero $end
$var wire 5 P" shamt [4:0] $end
$var reg 32 Q" result [31:0] $end
$upscope $end
$scope module u_csr $end
$var wire 12 R" addr [11:0] $end
$var wire 1 ( clk $end
$var wire 32 S" mepc_o [31:0] $end
$var wire 1 2 mret_en $end
$var wire 1 ." rd_en $end
$var wire 1 ) rst_n $end
$var wire 32 T" trap_cause [31:0] $end
$var wire 1 4 trap_en $end
$var wire 32 U" trap_epc [31:0] $end
$var wire 32 V" trap_val [31:0] $end
$var wire 32 W" wdata [31:0] $end
$var wire 1 X" wr_en $end
$var wire 32 Y" mtvec_o [31:0] $end
$var wire 32 Z" mstatus [31:0] $end
$var reg 1 w addr_valid $end
$var reg 32 [" mcause [31:0] $end
$var reg 32 \" mepc [31:0] $end
$var reg 32 ]" mie [31:0] $end
$var reg 32 ^" mip [31:0] $end
$var reg 32 _" mscratch [31:0] $end
$var reg 1 `" mstatus_mie $end
$var reg 1 a" mstatus_mpie $end
$var reg 32 b" mtval [31:0] $end
$var reg 32 c" mtvec [31:0] $end
$var reg 32 d" rdata [31:0] $end
$upscope $end
$scope module u_ctrl $end
$var wire 12 e" funct12 [11:0] $end
$var wire 3 f" funct3 [2:0] $end
$var wire 1 ^ funct7b0 $end
$var wire 1 ] funct7b5 $end
$var wire 7 g" opcode [6:0] $end
$var reg 1 c alu_a_src $end
$var reg 4 h" alu_arith [3:0] $end
$var reg 1 b alu_b_src $end
$var reg 4 i" alu_op [3:0] $end
$var reg 1 ` branch $end
$var reg 3 j" imm_sel [2:0] $end
$var reg 1 Z is_csr $end
$var reg 1 Y is_muldiv $end
$var reg 1 X jalr $end
$var reg 1 W jump $end
$var reg 1 V mem_read $end
$var reg 1 U mem_write $end
$var reg 1 R reg_write $end
$var reg 1 K sys_ebreak $end
$var reg 1 J sys_ecall $end
$var reg 1 I sys_mret $end
$var reg 2 k" wb_sel [1:0] $end
$upscope $end
$scope module u_fwd $end
$var wire 5 l" exmem_rd [4:0] $end
$var wire 1 $" exmem_reg_write $end
$var wire 5 m" idex_rs1 [4:0] $end
$var wire 5 n" idex_rs2 [4:0] $end
$var wire 5 o" memwb_rd [4:0] $end
$var wire 1 A memwb_reg_write $end
$var reg 2 p" forward_a [1:0] $end
$var reg 2 q" forward_b [1:0] $end
$upscope $end
$scope module u_hazard $end
$var wire 1 2" idex_mem_read $end
$var wire 5 r" idex_rd [4:0] $end
$var wire 5 s" ifid_rs1 [4:0] $end
$var wire 5 t" ifid_rs2 [4:0] $end
$var wire 1 F stall $end
$upscope $end
$scope module u_imm $end
$var wire 3 u" imm_sel [2:0] $end
$var wire 32 v" instr [31:0] $end
$var reg 32 w" imm [31:0] $end
$upscope $end
$scope module u_muldiv $end
$var wire 32 x" a [31:0] $end
$var wire 32 y" b [31:0] $end
$var wire 1 ( clk $end
$var wire 1 z" ge $end
$var wire 1 {" is_mul $end
$var wire 1 |" na $end
$var wire 1 }" nb $end
$var wire 3 ~" op [2:0] $end
$var wire 1 !# overflow $end
$var wire 1 ) rst_n $end
$var wire 1 "# signed_div $end
$var wire 1 /" start $end
$var wire 32 ## rem_hi [31:0] $end
$var wire 64 $# p_uu [63:0] $end
$var wire 64 %# p_su [63:0] $end
$var wire 64 &# p_ss [63:0] $end
$var wire 1 ? done $end
$var wire 1 '# div_zero $end
$var wire 33 (# diff [32:0] $end
$var wire 1 @ busy $end
$var wire 64 )# bu [63:0] $end
$var wire 64 *# bs [63:0] $end
$var wire 64 +# au [63:0] $end
$var wire 64 ,# as [63:0] $end
$var wire 64 -# acc_sh [63:0] $end
$var wire 64 .# acc_nx [63:0] $end
$var wire 32 /# abs_b [31:0] $end
$var wire 32 0# abs_a [31:0] $end
$var parameter 2 1# CALC $end
$var parameter 2 2# FIN $end
$var parameter 2 3# IDLE $end
$var reg 64 4# acc [63:0] $end
$var reg 6 5# cnt [5:0] $end
$var reg 32 6# divisor_q [31:0] $end
$var reg 32 7# mul_res [31:0] $end
$var reg 1 8# neg_q $end
$var reg 1 9# neg_r $end
$var reg 3 :# op_q [2:0] $end
$var reg 32 ;# result [31:0] $end
$var reg 2 <# state [1:0] $end
$upscope $end
$scope module u_rf $end
$var wire 1 ( clk $end
$var wire 5 =# rd_addr [4:0] $end
$var wire 32 ># rd_data [31:0] $end
$var wire 5 ?# rs1_addr [4:0] $end
$var wire 5 @# rs2_addr [4:0] $end
$var wire 1 A we $end
$var wire 32 A# rs2_data [31:0] $end
$var wire 32 B# rs1_data [31:0] $end
$var integer 32 C# i [31:0] $end
$upscope $end
$upscope $end
$scope module u_dmem $end
$var wire 32 D# addr [31:0] $end
$var wire 1 ( clk $end
$var wire 32 E# rdata [31:0] $end
$var wire 32 F# wdata [31:0] $end
$var wire 1 $ we $end
$var wire 4 G# wstrb [3:0] $end
$var wire 8 H# widx [7:0] $end
$var parameter 32 I# WORDS $end
$var integer 32 J# k [31:0] $end
$upscope $end
$scope module u_imem $end
$var wire 32 K# addr [31:0] $end
$var wire 32 L# rdata [31:0] $end
$var parameter 32 M# WORDS $end
$var integer 32 N# k [31:0] $end
$upscope $end
$scope task chk $end
$var reg 32 O# exp [31:0] $end
$var reg 32 P# got [31:0] $end
$var integer 32 Q# id [31:0] $end
$upscope $end
$upscope $end
$enddefinitions $end
$comment Show the parameter values. $end
$dumpall
b100000000 M#
b100000000 I#
b0 3#
b10 2#
b1 1#
b0 x
$end
#0
$dumpvars
bx Q#
bx P#
bx O#
b100000000 N#
b10010011 L#
b0 K#
b100000000 J#
b0 H#
b0 G#
b0 F#
b0 E#
b0 D#
b100000 C#
b0 B#
b0 A#
b0 @#
b0 ?#
b0 >#
b0 =#
b0 <#
b0 ;#
b0 :#
09#
08#
b0 7#
b0 6#
b0 5#
b0 4#
b0 0#
b0 /#
b1 .#
b0 -#
b0 ,#
b0 +#
b0 *#
b0 )#
b0 (#
1'#
b0 &#
b0 %#
b0 $#
b0 ##
0"#
0!#
b0 ~"
0}"
0|"
1{"
1z"
b0 y"
b0 x"
b0 w"
b10011 v"
b0 u"
b0 t"
b0 s"
b0 r"
b0 q"
b0 p"
b0 o"
b0 n"
b0 m"
b0 l"
b0 k"
b0 j"
b0 i"
b0 h"
b10011 g"
b0 f"
b0 e"
b0 d"
b0 c"
b0 b"
0a"
0`"
b0 _"
b0 ^"
b0 ]"
b0 \"
b0 ["
b11000000000000 Z"
b0 Y"
0X"
b0 W"
b0 V"
b0 U"
b10 T"
b0 S"
b0 R"
b0 Q"
b0 P"
b0 O"
b0 N"
b0 M"
b0 L"
b0 K"
b0 J"
b0 I"
b0 H"
b0 G"
b0 F"
b1 E"
b0 D"
b0 C"
b0 B"
b0 A"
b10011 @"
b0 ?"
0>"
0="
0<"
b0 ;"
b0 :"
b0 9"
b0 8"
07"
b0 6"
b0 5"
b0 4"
03"
02"
01"
00"
0/"
0."
b0 -"
b0 ,"
b0 +"
0*"
b0 )"
0("
0'"
b0 &"
b0 %"
0$"
b0 #"
b0 ""
0!"
0~
b0 }
b0 |
b0 {
b0 z
1y
0w
b0 v
b0 u
b0 t
b0 s
b0 r
b0 q
b0 p
b0 o
b0 n
b0 m
b0 l
1k
b0 j
b0 i
b0 h
b10 g
b0 f
b0 e
b0 d
0c
1b
b0 a
0`
b0 _
0^
0]
b0 \
b0 [
0Z
0Y
0X
0W
0V
0U
b10011 T
b0 S
1R
b0 Q
b0 P
b0 O
b0 N
b0 M
b0 L
0K
0J
0I
b0 H
b10010011 G
0F
b0 E
b0 D
b0 C
b0 B
0A
0@
0?
b0 >
b100 =
b100 <
b0 ;
0:
09
08
07
b0 6
b10010011 5
04
03
02
b0 1
00
b0 /
b0 .
0-
0,
b0 +
bx *
0)
0(
b0 '
b0 &
b0 %
0$
b0 #
b0 "
b10010011 !
$end
#5000
1(
#10000
0(
#15000
1(
#20000
b0 *
1)
0(
#25000
b1 S
b1000 =
b100000000000100010011 5
b100000000000100010011 !
b100000000000100010011 G
b100000000000100010011 L#
1("
17"
b10010011 @"
b10010011 v"
b100 B"
b1000 <
b100 "
b100 6
b100 K#
b100 K"
1(
#30000
b1 *
0(
#35000
1b
1R
b1100 =
b101100000000000110010011 5
b101100000000000110010011 !
b101100000000000110010011 G
b101100000000000110010011 L#
b10 S
b1 N
b1 t"
b1 @#
b1 e"
b1 \
b1 w"
b1100 <
b1000 "
b1000 6
b1000 K#
b1000 K"
b100000000000100010011 @"
b100000000000100010011 v"
b1000 B"
b100 A"
b1 6"
b1 r"
b100 5"
1$"
1(
#40000
b10 *
0(
#45000
b1 h
b101 i
0k
b1 l
b1 Q"
b1 P"
1b
1R
0w
b10 d
b10 q"
b1 m
b1 O"
b11 S
b1011 N
b1011 t"
b1011 @#
b1011 e"
b1011 \
b1011 w"
b10000 =
b1000001000000010110011 5
b1000001000000010110011 !
b1000001000000010110011 G
b1000001000000010110011 L#
1A
b1 #"
b1 l"
b100 ""
b1 +"
b1 R"
b1 :"
b1 n"
b10 6"
b10 r"
b1000 5"
b100 4"
b100 U"
b101 j
b1 -"
b101100000000000110010011 @"
b101100000000000110010011 v"
b1100 B"
b1000 A"
b10000 <
b1100 "
b1100 6
b1100 K#
b1100 K"
1(
#50000
b11 *
0(
#55000
b1011 h
b10011 i
0b
1R
b1011 l
b1011 Q"
b1011 P"
b10 E"
19
b10100 =
b100010000000100010011 5
b100010000000100010011 !
b100010000000100010011 G
b100010000000100010011 L#
b110011 T
b110011 g"
b1 S
b1 Q
b1 s"
b1 ?#
b10 N
b10 t"
b10 @#
b10 e"
b10 \
b10 w"
0w
b1011 m
b1011 O"
b1010 1
b1 f
b1 C
b0 d
b0 q"
b10100 <
b10000 "
b10000 6
b10000 K#
b10000 K"
b1000001000000010110011 @"
b1000001000000010110011 v"
b10000 B"
b1100 A"
b1011 +"
b1011 R"
b1011 :"
b1011 n"
b11 6"
b11 r"
b1100 5"
b1000 4"
b1000 U"
b10011 j
b1011 -"
b10 #"
b10 l"
b1000 ""
b1 '
b1 .
b1 D#
b1 |
b1 B
b1 I"
b1 o"
b1 =#
b100 H"
1(
#60000
b100 *
0(
#65000
b1 h
b1 /#
0y
b1110 i
b1 O
b1000 E"
b1 *#
b1 )#
0'#
b1 {
b1 y"
0k
b1 l
b1 Q"
b1 P"
1b
1R
b1 ;
b1 L"
b1 >#
b1011 f
bx00000000 D
b11 C
b10 H#
0w
b1 d
b1 q"
b10 1
b1 m
b1 O"
b10011 T
b10011 g"
b10 S
b10 Q
b10 s"
b10 ?#
b1 N
b1 t"
b1 @#
b1 e"
b1 \
b1 w"
b11000 =
b11111110001100010100110011100011 5
b11111110001100010100110011100011 !
b11111110001100010100110011100011 G
b11111110001100010100110011100011 L#
b10 B
b10 I"
b10 o"
b10 =#
b1000 H"
b1 F"
b11 #"
b11 l"
b1100 ""
b1011 '
b1011 .
b1011 D#
b1011 |
b10 +"
b10 R"
b10 :"
b10 n"
b1 8"
b1 m"
b1 6"
b1 r"
b10000 5"
b1100 4"
b1100 U"
b1110 j
b10 -"
0("
b100010000000100010011 @"
b100010000000100010011 v"
b10100 B"
b10000 A"
b11000 <
b10100 "
b10100 6
b10100 K#
b10100 K"
1(
#70000
b101 *
0(
#75000
b10 h
b1011 L
b10001 i
b10 l
b10 Q"
1:
b101 h"
b10 [
b10 j"
b10 u"
1`
0b
0R
b1 n
b1 M"
b1 r
b1 7#
b1 0#
1y
b11100 =
b100000010000000100011 5
b100000010000000100011 !
b100000010000000100011 G
b100000010000000100011 L#
b1100011 T
b1100011 g"
b11001 S
b11 N
b11 t"
b11 @#
b100 _
b100 f"
1]
1^
b111111100011 e"
b11111111111111111111111111111000 \
b11111111111111111111111111111000 w"
0w
b1 &#
b1 %#
b1 ,#
b1 $#
b1 +#
b1 z
b1 x"
b10 E"
b100000000 %
b100000000 /
b100000000 F#
b100000000 D"
b1 f
b0 D
b1 C
b0 H#
09
b10 d
b10 q"
b1011 ;
b1011 L"
b1011 >#
b1 P
b1 B#
b11100 <
b11000 "
b11000 6
b11000 K#
b11000 K"
b11111110001100010100110011100011 @"
b11111110001100010100110011100011 v"
b11000 B"
b10100 A"
b1 +"
b1 R"
b1 :"
b1 n"
b10 8"
b10 m"
b10 6"
b10 r"
b10100 5"
b10000 4"
b10000 U"
b10001 j
b1 -"
b1 9"
1("
b1 #"
b1 l"
b10000 ""
b1 %"
b1 '
b1 .
b1 D#
b1 |
b11 B
b11 I"
b11 o"
b11 =#
b1100 H"
b1011 F"
1(
#80000
b110 *
0(
#85000
b1101 h
13
b1011 P"
b1101 l
b1101 Q"
0{"
b1011 m
b1011 O"
b1011 /#
b10 n
b10 M"
b10110 7#
b10 0#
b1100 i
b0 O
b1 L
b100 E"
b10000000000000000 %
b10000000000000000 /
b10000000000000000 F#
b10000000000000000 D"
b10 r
b1011 *#
b1011 )#
b1011 {
b1011 y"
b10110 &#
b10110 %#
b10 ,#
b10110 $#
b10 +#
b10 z
b10 x"
b0 P
b0 B#
b11 h"
1U
1b
0`
b1 [
b1 j"
b1 u"
b1 ;
b1 L"
b1 >#
b10 f
b10 C
0w
1"#
1y
b0 d
b0 q"
b10 e
b10 p"
b11111111111111111111111111111010 1
10
b100011 T
b100011 g"
b0 S
b0 Q
b0 s"
b0 ?#
b1 N
b1 t"
b1 @#
b10 _
b10 f"
0]
0^
b1 e"
b0 \
b0 w"
b1100 =
b10001000000011 5
b10001000000011 !
b10001000000011 G
b10001000000011 L#
b0 M
b0 A#
b1 B
b1 I"
b1 o"
b1 =#
b10000 H"
b1 F"
b10 #"
b10 l"
b10100 ""
b10 '
b10 .
b10 D#
b10 |
b111111100011 +"
b111111100011 R"
b100 ,"
b100 ~"
b11 :"
b11 n"
b11001 6"
b11001 r"
b11000 5"
b10100 4"
b10100 U"
b1100 j
b11111111111111111111111111111000 -"
b1011 ;"
0("
1*"
07"
b100000010000000100011 @"
b100000010000000100011 v"
b11100 B"
b11000 A"
b100000 <
b11100 "
b11100 6
b11100 K#
b11100 K"
1(
#90000
b111 *
0(
#95000
b0 h
03
b10000 =
b0 L
1{"
b0 i
b0 P"
1k
b0 l
b0 Q"
b0 h"
1R
0U
b0 [
b0 j"
b0 u"
1b
b0 m
b0 O"
b0 /#
b0 n
b0 M"
b0 0#
b1000001000000010110011 5
b1000001000000010110011 !
b1000001000000010110011 G
b1000001000000010110011 L#
b10011 T
b10011 g"
b0 N
b0 t"
b0 @#
b0 _
b0 f"
b0 e"
0w
b0 7#
0"#
b0 r
b0 1
b0 *#
b0 )#
1'#
b0 {
b0 y"
b0 &#
b0 %#
b0 ,#
b0 $#
b0 +#
b0 z
b0 x"
00
b0 E"
b1011 %
b1011 /
b1011 F#
b1011 D"
b1101 f
b1 C
b11 H#
0:
b0 e
b0 p"
b10 ;
b10 L"
b10 >#
b0 M
b0 A#
b10000 <
b1100 "
b1100 6
b1100 K#
b1100 K"
b10011 @"
b10011 v"
b0 B"
b0 A"
b0 +"
b0 R"
b0 ,"
b0 ~"
b0 :"
b0 n"
b0 8"
b0 m"
b0 6"
b0 r"
b0 5"
b0 4"
b0 U"
b0 j
b0 -"
b0 ;"
b0 9"
0*"
b100 }
b11001 #"
b11001 l"
b11000 ""
b1011 %"
b1101 '
b1101 .
b1101 D#
b1101 |
0$"
b10 B
b10 I"
b10 o"
b10 =#
b10100 H"
b10 F"
1(
#100000
b1000 *
0(
#105000
b1 O
b10 L
b1 P
b1 B#
b10 M
b10 A#
0b
1R
b1101 ;
b1101 L"
b1101 >#
b1 E"
b0 %
b0 /
b0 F#
b0 D"
b0 f
b0 C
b0 H#
b110011 T
b110011 g"
b1 S
b1 Q
b1 s"
b1 ?#
b10 N
b10 t"
b10 @#
b10 e"
b10 \
b10 w"
b10100 =
b100010000000100010011 5
b100010000000100010011 !
b100010000000100010011 G
b100010000000100010011 L#
b11001 B
b11001 I"
b11001 o"
b11001 =#
b11000 H"
b1101 F"
0A
b0 }
b0 #"
b0 l"
b0 ""
b0 %"
b0 '
b0 .
b0 D#
b0 |
1("
17"
b1000001000000010110011 @"
b1000001000000010110011 v"
b10000 B"
b1100 A"
b10100 <
b10000 "
b10000 6
b10000 K#
b10000 K"
1(
#110000
b1001 *
0(
#115000
b11 h
b10 O
b1 L
b1110 i
b10 P"
0k
b11 l
b11 Q"
b10 P
b10 B#
b1 M
b1 A#
1b
1R
b10 m
b10 O"
b10 7#
b10 /#
b1 n
b1 M"
b1 r
b1 0#
0y
b11000 =
b11111110001100010100110011100011 5
b11111110001100010100110011100011 !
b11111110001100010100110011100011 G
b11111110001100010100110011100011 L#
b10011 T
b10011 g"
b10 S
b10 Q
b10 s"
b10 ?#
b1 N
b1 t"
b1 @#
b1 e"
b1 \
b1 w"
0w
b10 1
b10 &#
b10 *#
b10 $#
b10 %#
b10 )#
0'#
b10 {
b10 y"
b1 ,#
b1 +#
b1 z
b1 x"
b0 ;
b0 L"
b0 >#
b11000 <
b10100 "
b10100 6
b10100 K#
b10100 K"
b100010000000100010011 @"
b100010000000100010011 v"
b10100 B"
b10000 A"
b10 +"
b10 R"
b10 :"
b10 n"
b1 8"
b1 m"
b1 6"
b1 r"
b10000 5"
b1100 4"
b1100 U"
b1110 j
b10 -"
b10 ;"
b1 9"
0("
1$"
b0 B
b0 I"
b0 o"
b0 =#
b0 H"
b0 F"
1(
#120000
b1010 *
0(
#125000
b11 h
b110 7#
b10001 i
b1011 L
b11 /#
b10 n
b10 M"
b10 r
b10 0#
b11 l
b11 Q"
b1 P"
b1011 M
b1011 A#
b101 h"
b10 [
b10 j"
b10 u"
1`
0b
0R
b1000 E"
b10000000000000000000000000 %
b10000000000000000000000000 /
b10000000000000000000000000 F#
b10000000000000000000000000 D"
b11 f
bx00000000 D
b11 C
0w
b10 d
b10 q"
b11 *#
b11 )#
b11 {
b11 y"
b110 &#
b110 %#
b10 ,#
b110 $#
b10 +#
b10 z
b10 x"
b1 m
b1 O"
b1100011 T
b1100011 g"
b11001 S
b11 N
b11 t"
b11 @#
b100 _
b100 f"
1]
1^
b111111100011 e"
b11111111111111111111111111111000 \
b11111111111111111111111111111000 w"
b11100 =
b100000010000000100011 5
b100000010000000100011 !
b100000010000000100011 G
b100000010000000100011 L#
1A
b1 #"
b1 l"
b10000 ""
b10 %"
b11 '
b11 .
b11 D#
b11 |
b1 +"
b1 R"
b1 :"
b1 n"
b10 8"
b10 m"
b10 6"
b10 r"
b10100 5"
b10000 4"
b10000 U"
b10001 j
b1 -"
b1 ;"
b10 9"
1("
b11111110001100010100110011100011 @"
b11111110001100010100110011100011 v"
b11000 B"
b10100 A"
b11100 <
b11000 "
b11000 6
b11000 K#
b11000 K"
1(
#130000
b1011 *
0(
#135000
13
b1110 h
b0 O
0{"
b1100 i
b11 L
b0 P
b0 B#
b1 M
b1 A#
b11 h"
1U
1b
0`
b1 [
b1 j"
b1 u"
10
b1011 /#
b11 n
b11 M"
b11 0#
b1110 l
b1110 Q"
b1011 P"
1:
b1100 =
b10001000000011 5
b10001000000011 !
b10001000000011 G
b10001000000011 L#
b100011 T
b100011 g"
b0 S
b0 Q
b0 s"
b0 ?#
b1 N
b1 t"
b1 @#
b10 _
b10 f"
0]
0^
b1 e"
b0 \
b0 w"
0w
b100001 7#
1"#
1y
b11111111111111111111111111111010 1
b1011 *#
b1011 )#
b1011 {
b1011 y"
b100001 &#
b100001 %#
b11 ,#
b100001 $#
b11 +#
b11 z
b11 x"
b1011 m
b1011 O"
b11000000000000000000000000 %
b11000000000000000000000000 /
b11000000000000000000000000 F#
b11000000000000000000000000 D"
b0 d
b0 q"
b10 e
b10 p"
b11 ;
b11 L"
b11 >#
b100000 <
b11100 "
b11100 6
b11100 K#
b11100 K"
b100000010000000100011 @"
b100000010000000100011 v"
b11100 B"
b11000 A"
b111111100011 +"
b111111100011 R"
b100 ,"
b100 ~"
b11 :"
b11 n"
b11001 6"
b11001 r"
b11000 5"
b10100 4"
b10100 U"
b1100 j
b11111111111111111111111111111000 -"
b1011 ;"
0("
1*"
07"
b10 #"
b10 l"
b10100 ""
b11 %"
b1 B
b1 I"
b1 o"
b1 =#
b10000 H"
b11 F"
1(
#140000
b1100 *
0(
#145000
b0 h
03
1k
b10000 =
1{"
b0 n
b0 M"
b0 0#
b0 i
b0 l
b0 Q"
b0 P"
b0 L
b0 ,#
b0 +#
b0 z
b0 x"
b0 m
b0 O"
b0 /#
b0 h"
1R
0U
b0 [
b0 j"
b0 u"
1b
0:
b0 E"
b1011 %
b1011 /
b1011 F#
b1011 D"
b1110 f
b0 D
b10 C
b11 H#
0w
b0 7#
0"#
1y
b0 r
b0 e
b0 p"
b0 1
b0 &#
b0 *#
b0 $#
b0 %#
b0 )#
1'#
b0 {
b0 y"
00
b10011 T
b10011 g"
b0 N
b0 t"
b0 @#
b0 _
b0 f"
b0 e"
b1000001000000010110011 5
b1000001000000010110011 !
b1000001000000010110011 G
b1000001000000010110011 L#
b0 M
b0 A#
b10 B
b10 I"
b10 o"
b10 =#
b10100 H"
b100 }
b11001 #"
b11001 l"
b11000 ""
b1011 %"
b1110 '
b1110 .
b1110 D#
b1110 |
0$"
b0 +"
b0 R"
b0 ,"
b0 ~"
b0 :"
b0 n"
b0 8"
b0 m"
b0 6"
b0 r"
b0 5"
b0 4"
b0 U"
b0 j
b0 -"
b0 ;"
b0 9"
0*"
b10011 @"
b10011 v"
b0 B"
b0 A"
b10000 <
b1100 "
b1100 6
b1100 K#
b1100 K"
1(
#150000
b1101 *
0(
#155000
b11 O
b11 L
b11 P
b11 B#
b11 M
b11 A#
0b
1R
b10100 =
b100010000000100010011 5
b100010000000100010011 !
b100010000000100010011 G
b100010000000100010011 L#
b110011 T
b110011 g"
b1 S
b1 Q
b1 s"
b1 ?#
b10 N
b10 t"
b10 @#
b10 e"
b10 \
b10 w"
b1 E"
b0 %
b0 /
b0 F#
b0 D"
b0 f
b0 C
b0 H#
b1110 ;
b1110 L"
b1110 >#
b10100 <
b10000 "
b10000 6
b10000 K#
b10000 K"
b1000001000000010110011 @"
b1000001000000010110011 v"
b10000 B"
b1100 A"
1("
17"
b0 }
b0 #"
b0 l"
b0 ""
b0 %"
b0 '
b0 .
b0 D#
b0 |
b11001 B
b11001 I"
b11001 o"
b11001 =#
b11000 H"
b1110 F"
0A
1(
#160000
b1110 *
0(
#165000
b110 h
b1110 i
b11 P"
0k
b110 l
b110 Q"
b11 m
b11 O"
b1001 7#
b11 /#
b11 n
b11 M"
b11 r
b11 0#
1b
1R
b0 ;
b0 L"
b0 >#
0w
b100 1
b1001 &#
b11 *#
b1001 $#
b1001 %#
b11 )#
0'#
b11 {
b11 y"
b11 ,#
b11 +#
b11 z
b11 x"
b10011 T
b10011 g"
b10 S
b10 Q
b10 s"
b10 ?#
b1 N
b1 t"
b1 @#
b1 e"
b1 \
b1 w"
b11000 =
b11111110001100010100110011100011 5
b11111110001100010100110011100011 !
b11111110001100010100110011100011 G
b11111110001100010100110011100011 L#
b0 B
b0 I"
b0 o"
b0 =#
b0 H"
b0 F"
1$"
b10 +"
b10 R"
b10 :"
b10 n"
b1 8"
b1 m"
b1 6"
b1 r"
b10000 5"
b1100 4"
b1100 U"
b1110 j
b10 -"
b11 ;"
b11 9"
0("
b100010000000100010011 @"
b100010000000100010011 v"
b10100 B"
b10000 A"
b11000 <
b10100 "
b10100 6
b10100 K#
b10100 K"
1(
#170000
b1111 *
0(
