waveform/tb_compliance.vcd
$date
	Tue Jun 23 14:22:00 2026
$end
$version
	Icarus Verilog
$end
$timescale
	1ps
$end
$scope module tb_compliance $end
$var wire 32 ! dmem_rdata [31:0] $end
$var wire 32 " imem_rdata [31:0] $end
$var wire 32 # imem_addr [31:0] $end
$var wire 32 $ iidx [31:0] $end
$var wire 4 % dmem_wstrb [3:0] $end
$var wire 1 & dmem_we $end
$var wire 32 ' dmem_wdata [31:0] $end
$var wire 32 ( dmem_addr [31:0] $end
$var wire 32 ) didx [31:0] $end
$var parameter 32 * WORDS $end
$var reg 1 + clk $end
$var reg 1 , rst_n $end
$var integer 32 - cyc [31:0] $end
$var integer 32 . k [31:0] $end
$scope module dut $end
$var wire 1 / bus_stall $end
$var wire 1 + clk $end
$var wire 1 0 csr_illegal $end
$var wire 1 1 csr_wr $end
$var wire 32 2 dmem_addr [31:0] $end
$var wire 32 3 dmem_rdata [31:0] $end
$var wire 1 4 dmem_ready $end
$var wire 1 5 dmem_valid $end
$var wire 32 6 dmem_wdata [31:0] $end
$var wire 1 & dmem_we $end
$var wire 1 7 ex_branch_taken $end
$var wire 32 8 ex_jalr_target [31:0] $end
$var wire 1 9 ex_mret $end
$var wire 1 : ex_redirect $end
$var wire 1 ; ex_trap $end
$var wire 32 < if_instr [31:0] $end
$var wire 1 = if_stall $end
$var wire 32 > imem_addr [31:0] $end
$var wire 32 ? imem_rdata [31:0] $end
$var wire 1 @ imem_ready $end
$var wire 1 A imem_valid $end
$var wire 1 B ls_stall $end
$var wire 1 C mul_stall $end
$var wire 1 , rst_n $end
$var wire 1 D stall_front $end
$var wire 1 E wb2id_rs1 $end
$var wire 1 F wb2id_rs2 $end
$var wire 32 G wb_data [31:0] $end
$var wire 32 H pc_plus4 [31:0] $end
$var wire 32 I next_pc [31:0] $end
$var wire 32 J mul_result [31:0] $end
$var wire 1 K mul_done $end
$var wire 1 L mul_busy $end
$var wire 1 M memwb_reg_write $end
$var wire 5 N memwb_rd [4:0] $end
$var wire 2 O mem_off [1:0] $end
$var wire 16 P mem_ld_half [15:0] $end
$var wire 8 Q mem_ld_byte [7:0] $end
$var wire 1 R load_use_stall $end
$var wire 2 S id_wb_sel [1:0] $end
$var wire 1 T id_sys_mret $end
$var wire 1 U id_sys_ecall $end
$var wire 1 V id_sys_ebreak $end
$var wire 32 W id_rs2_fwd [31:0] $end
$var wire 32 X id_rs2_data [31:0] $end
$var wire 5 Y id_rs2 [4:0] $end
$var wire 32 Z id_rs1_fwd [31:0] $end
$var wire 32 [ id_rs1_data [31:0] $end
$var wire 5 \ id_rs1 [4:0] $end
$var wire 1 ] id_reg_write $end
$var wire 5 ^ id_rd [4:0] $end
$var wire 7 _ id_opcode [6:0] $end
$var wire 1 ` id_mem_write $end
$var wire 1 a id_mem_read $end
$var wire 1 b id_jump $end
$var wire 1 c id_jalr $end
$var wire 1 d id_is_muldiv $end
$var wire 1 e id_is_csr $end
$var wire 3 f id_imm_sel [2:0] $end
$var wire 32 g id_imm [31:0] $end
$var wire 1 h id_funct7b5 $end
$var wire 1 i id_funct7b0 $end
$var wire 3 j id_funct3 [2:0] $end
$var wire 1 k id_branch $end
$var wire 4 l id_alu_op [3:0] $end
$var wire 1 m id_alu_b_src $end
$var wire 1 n id_alu_a_src $end
$var wire 2 o forward_b [1:0] $end
$var wire 2 p forward_a [1:0] $end
$var wire 32 q exmem_fwd_val [31:0] $end
$var wire 32 r ex_trap_cause [31:0] $end
$var wire 32 s ex_result [31:0] $end
$var wire 32 t ex_redirect_pc [31:0] $end
$var wire 32 u ex_pc_target [31:0] $end
$var wire 1 v ex_alu_zero $end
$var wire 32 w ex_alu_result [31:0] $end
$var wire 32 x ex_alu_b [31:0] $end
$var wire 32 y ex_alu_a [31:0] $end
$var wire 4 z dmem_wstrb [3:0] $end
$var wire 32 { csr_wval [31:0] $end
$var wire 32 | csr_src [31:0] $end
$var wire 32 } csr_rdata [31:0] $end
$var wire 2 ~ csr_op [1:0] $end
$var wire 32 !" csr_mtvec [31:0] $end
$var wire 32 "" csr_mepc [31:0] $end
$var wire 1 #" csr_addr_valid $end
$var parameter 32 $" RESET_PC $end
$var reg 1 %" ex_branch_cond $end
$var reg 32 &" ex_rs1_fwd [31:0] $end
$var reg 32 '" ex_rs2_fwd [31:0] $end
$var reg 32 (" exmem_alu_result [31:0] $end
$var reg 3 )" exmem_funct3 [2:0] $end
$var reg 1 *" exmem_mem_read $end
$var reg 1 +" exmem_mem_write $end
$var reg 32 ," exmem_pc4 [31:0] $end
$var reg 5 -" exmem_rd [4:0] $end
$var reg 1 ." exmem_reg_write $end
$var reg 32 /" exmem_rs2_data [31:0] $end
$var reg 2 0" exmem_wb_sel [1:0] $end
$var reg 1 1" idex_alu_a_src $end
$var reg 1 2" idex_alu_b_src $end
$var reg 4 3" idex_alu_op [3:0] $end
$var reg 1 4" idex_branch $end
$var reg 12 5" idex_csr_addr [11:0] $end
$var reg 3 6" idex_funct3 [2:0] $end
$var reg 32 7" idex_imm [31:0] $end
$var reg 1 8" idex_is_csr $end
$var reg 1 9" idex_is_muldiv $end
$var reg 1 :" idex_jalr $end
$var reg 1 ;" idex_jump $end
$var reg 1 <" idex_mem_read $end
$var reg 1 =" idex_mem_write $end
$var reg 32 >" idex_pc [31:0] $end
$var reg 32 ?" idex_pc4 [31:0] $end
$var reg 5 @" idex_rd [4:0] $end
$var reg 1 A" idex_reg_write $end
$var reg 5 B" idex_rs1 [4:0] $end
$var reg 32 C" idex_rs1_data [31:0] $end
$var reg 5 D" idex_rs2 [4:0] $end
$var reg 32 E" idex_rs2_data [31:0] $end
$var reg 1 F" idex_sys_ebreak $end
$var reg 1 G" idex_sys_ecall $end
$var reg 1 H" idex_sys_mret $end
$var reg 2 I" idex_wb_sel [1:0] $end
$var reg 32 J" ifid_instr [31:0] $end
$var reg 32 K" ifid_pc [31:0] $end
$var reg 32 L" ifid_pc4 [31:0] $end
$var reg 32 M" mem_load_data [31:0] $end
$var reg 32 N" mem_store_data [31:0] $end
$var reg 4 O" mem_store_strb [3:0] $end
$var reg 32 P" memwb_alu_result [31:0] $end
$var reg 32 Q" memwb_load_data [31:0] $end
$var reg 32 R" memwb_pc4 [31:0] $end
$var reg 5 S" memwb_rd_r [4:0] $end
$var reg 1 M memwb_reg_write_r $end
$var reg 2 T" memwb_wb_sel [1:0] $end
$var reg 32 U" pc [31:0] $end
$var reg 32 V" wb_mux [31:0] $end
$scope module u_alu $end
$var wire 32 W" a [31:0] $end
$var wire 4 X" alu_op [3:0] $end
$var wire 32 Y" b [31:0] $end
$var wire 1 v zero $end
$var wire 5 Z" shamt [4:0] $end
$var reg 32 [" result [31:0] $end
$upscope $end
$scope module u_csr $end
$var wire 12 \" addr [11:0] $end
$var wire 1 + clk $end
$var wire 32 ]" mepc_o [31:0] $end
$var wire 1 9 mret_en $end
$var wire 1 8" rd_en $end
$var wire 1 , rst_n $end
$var wire 32 ^" trap_cause [31:0] $end
$var wire 1 ; trap_en $end
$var wire 32 _" trap_epc [31:0] $end
$var wire 32 `" trap_val [31:0] $end
$var wire 32 a" wdata [31:0] $end
$var wire 1 b" wr_en $end
$var wire 32 c" mtvec_o [31:0] $end
$var wire 32 d" mstatus [31:0] $end
$var reg 1 #" addr_valid $end
$var reg 32 e" mcause [31:0] $end
$var reg 32 f" mepc [31:0] $end
$var reg 32 g" mie [31:0] $end
$var reg 32 h" mip [31:0] $end
$var reg 32 i" mscratch [31:0] $end
$var reg 1 j" mstatus_mie $end
$var reg 1 k" mstatus_mpie $end
$var reg 32 l" mtval [31:0] $end
$var reg 32 m" mtvec [31:0] $end
$var reg 32 n" rdata [31:0] $end
$upscope $end
$scope module u_ctrl $end
$var wire 12 o" funct12 [11:0] $end
$var wire 3 p" funct3 [2:0] $end
$var wire 1 i funct7b0 $end
$var wire 1 h funct7b5 $end
$var wire 7 q" opcode [6:0] $end
$var reg 1 n alu_a_src $end
$var reg 4 r" alu_arith [3:0] $end
$var reg 1 m alu_b_src $end
$var reg 4 s" alu_op [3:0] $end
$var reg 1 k branch $end
$var reg 3 t" imm_sel [2:0] $end
$var reg 1 e is_csr $end
$var reg 1 d is_muldiv $end
$var reg 1 c jalr $end
$var reg 1 b jump $end
$var reg 1 a mem_read $end
$var reg 1 ` mem_write $end
$var reg 1 ] reg_write $end
$var reg 1 V sys_ebreak $end
$var reg 1 U sys_ecall $end
$var reg 1 T sys_mret $end
$var reg 2 u" wb_sel [1:0] $end
$upscope $end
$scope module u_fwd $end
$var wire 5 v" exmem_rd [4:0] $end
$var wire 1 ." exmem_reg_write $end
$var wire 5 w" idex_rs1 [4:0] $end
$var wire 5 x" idex_rs2 [4:0] $end
$var wire 5 y" memwb_rd [4:0] $end
$var wire 1 M memwb_reg_write $end
$var reg 2 z" forward_a [1:0] $end
$var reg 2 {" forward_b [1:0] $end
$upscope $end
$scope module u_hazard $end
$var wire 1 <" idex_mem_read $end
$var wire 5 |" idex_rd [4:0] $end
$var wire 5 }" ifid_rs1 [4:0] $end
$var wire 5 ~" ifid_rs2 [4:0] $end
$var wire 1 R stall $end
$upscope $end
$scope module u_imm $end
$var wire 3 !# imm_sel [2:0] $end
$var wire 32 "# instr [31:0] $end
$var reg 32 ## imm [31:0] $end
$upscope $end
$scope module u_muldiv $end
$var wire 32 $# a [31:0] $end
$var wire 32 %# b [31:0] $end
$var wire 1 &# b_s $end
$var wire 1 L busy $end
$var wire 1 + clk $end
$var wire 1 '# ge $end
$var wire 1 (# is_mul $end
$var wire 1 )# na $end
$var wire 1 *# nb $end
$var wire 3 +# op [2:0] $end
$var wire 1 ,# overflow $end
$var wire 1 , rst_n $end
$var wire 1 -# signed_div $end
$var wire 1 / stall $end
$var wire 1 9" start $end
$var wire 1 .# take_high $end
$var wire 32 /# rem_hi [31:0] $end
$var wire 1 K done $end
$var wire 1 0# div_zero $end
$var wire 33 1# diff [32:0] $end
$var wire 33 2# b_ext [32:0] $end
$var wire 64 3# acc_sh [63:0] $end
$var wire 64 4# acc_nx [63:0] $end
$var wire 32 5# abs_b [31:0] $end
$var wire 32 6# abs_a [31:0] $end
$var wire 1 7# a_s $end
$var wire 33 8# a_ext [32:0] $end
$var parameter 3 9# CALC $end
$var parameter 3 :# FIN $end
$var parameter 3 ;# IDLE $end
$var parameter 3 <# MUL1 $end
$var parameter 3 =# MUL2 $end
$var reg 64 ># acc [63:0] $end
$var reg 33 ?# areg [32:0] $end
$var reg 33 @# breg [32:0] $end
$var reg 6 A# cnt [5:0] $end
$var reg 32 B# divisor_q [31:0] $end
$var reg 1 C# neg_q $end
$var reg 1 D# neg_r $end
$var reg 3 E# op_q [2:0] $end
$var reg 66 F# preg [65:0] $end
$var reg 32 G# result [31:0] $end
$var reg 3 H# state [2:0] $end
$var reg 1 I# take_high_q $end
$upscope $end
$scope module u_rf $end
$var wire 1 + clk $end
$var wire 5 J# rd_addr [4:0] $end
$var wire 32 K# rd_data [31:0] $end
$var wire 5 L# rs1_addr [4:0] $end
$var wire 5 M# rs2_addr [4:0] $end
$var wire 1 M we $end
$var wire 32 N# rs2_data [31:0] $end
$var wire 32 O# rs1_data [31:0] $end
$var integer 32 P# i [31:0] $end
$upscope $end
$upscope $end
$scope task dump_signature $end
$var integer 32 Q# a [31:0] $end
$var integer 32 R# fd [31:0] $end
$upscope $end
$upscope $end
$enddefinitions $end
$comment Show the parameter values. $end
$dumpall
b10 =#
b1 <#
b0 ;#
b100 :#
b11 9#
b0 $"
b10000000000000000 *
$end
#0
$dumpvars
bx R#
bx Q#
b100000 P#
b0 O#
b0 N#
b0 M#
b0 L#
b0 K#
b0 J#
0I#
b0 H#
b0 G#
b0 F#
b0 E#
0D#
0C#
b0 B#
b0 A#
b0 @#
b0 ?#
b0 >#
b0 8#
17#
b0 6#
b0 5#
b1 4#
b0 3#
b0 2#
b0 1#
10#
b0 /#
0.#
0-#
0,#
b0 +#
0*#
0)#
1(#
1'#
1&#
b0 %#
b0 $#
b0 ##
b10011 "#
b0 !#
b0 ~"
b0 }"
b0 |"
b0 {"
b0 z"
b0 y"
b0 x"
b0 w"
b0 v"
b0 u"
b0 t"
b0 s"
b0 r"
b10011 q"
b0 p"
b0 o"
b0 n"
b0 m"
b0 l"
0k"
0j"
b0 i"
b0 h"
b0 g"
b0 f"
b0 e"
b11000000000000 d"
b0 c"
0b"
b0 a"
b0 `"
b0 _"
b10 ^"
b0 ]"
b0 \"
b0 ["
b0 Z"
b0 Y"
b0 X"
b0 W"
b0 V"
b0 U"
b0 T"
b0 S"
b0 R"
b0 Q"
b0 P"
b1 O"
b0 N"
b11111111111111111111111110010011 M"
b0 L"
b0 K"
b10011 J"
b0 I"
0H"
0G"
0F"
b0 E"
b0 D"
b0 C"
b0 B"
0A"
b0 @"
b0 ?"
b0 >"
0="
0<"
0;"
0:"
09"
08"
b0 7"
b0 6"
b0 5"
04"
b0 3"
02"
01"
b0 0"
b0 /"
0."
b0 -"
b0 ,"
0+"
0*"
b0 )"
b0 ("
b0 '"
b0 &"
1%"
0#"
b0 ""
b0 !"
b0 ~
b0 }
b0 |
b0 {
b0 z
b0 y
b0 x
b0 w
1v
b0 u
b0 t
b0 s
b10 r
b0 q
b0 p
b0 o
0n
1m
b0 l
0k
b0 j
0i
0h
b0 g
b0 f
0e
0d
0c
0b
0a
0`
b10011 _
b0 ^
1]
b0 \
b0 [
b0 Z
b0 Y
b0 X
b0 W
0V
0U
0T
b0 S
0R
b10010011 Q
b10010011 P
b0 O
b0 N
0M
0L
0K
b0 J
b100 I
b100 H
b0 G
0F
0E
0D
0C
0B
1A
z@
b10100000000000010010011 ?
b0 >
x=
b10100000000000010010011 <
0;
0:
09
b0 8
07
b0 6
05
z4
b10100000000000010010011 3
b0 2
01
00
x/
b10000000000000000 .
b0 -
0,
0+
b0 )
b0 (
b0 '
0&
b0 %
b0 $
b0 #
b10100000000000010010011 "
b10100000000000010010011 !
$end
#5000
1+
#10000
0+
#15000
1+
#20000
1,
0+
#25000
1m
1]
b10010100000000000100010011 <
b10010100000000000100010011 "
b10010100000000000100010011 ?
b1 ^
b101 Y
b101 ~"
b101 M#
b101 o"
b101 g
b101 ##
b1000 I
b1 $
b11111111111111111111111110010011 Q"
12"
1A"
b10100000000000010010011 J"
b10100000000000010010011 "#
b100 L"
b1000 H
b100 #
b100 >
b100 U"
b1 -
1+
#30000
0+
#35000
b101 s
b101 t
b1000001000000110110011 <
b1000001000000110110011 "
b1000001000000110110011 ?
1m
1]
0v
b101 w
b101 ["
b101 Z"
b1100 I
b10 $
b10 ^
1i
b100101 o"
b100101 g
b100101 ##
0#"
b101 x
b101 Y"
b100 8
b1100 H
b1000 #
b1000 >
b1000 U"
b10010100000000000100010011 J"
b10010100000000000100010011 "#
b1000 L"
b100 K"
b101 5"
b101 \"
b101 D"
b101 x"
b1 @"
b1 |"
b100 ?"
b101 u
b101 7"
1."
b10 -
1+
#40000
0+
#45000
b100101 s
b101001 t
b1 M"
b10 O"
b10010100000000000100010011 !
b10010100000000000100010011 3
b100101 w
b100101 ["
0m
1]
b10001000001000001000110011 <
b10001000001000001000110011 "
b10001000001000001000110011 ?
b101 q
b1 Q
b101000000000001 P
b1 O
b1 )
0#"
b100101 x
b100101 Y"
b100100 8
b110011 _
b110011 q"
b11 ^
b1 \
b1 }"
b1 L#
b10 Y
b10 ~"
b10 M#
0i
b10 o"
b10 g
b10 ##
b10000 I
b11 $
1M
b1 -"
b1 v"
b100 ,"
b101 (
b101 2
b101 ("
b100101 5"
b100101 \"
b10 @"
b10 |"
b1000 ?"
b100 >"
b100 _"
b101001 u
b100101 7"
b1000001000000110110011 J"
b1000001000000110110011 "#
b1100 L"
b1000 K"
b10000 H
b1100 #
b1100 >
b1100 U"
b11 -
1+
#50000
0+
#55000
b101010 s
b1010 t
b11111111111111111111111110100000 M"
b101 Z
b100101 5#
b101 y
b101 W"
b101 |
b101 6#
0%"
b100000000000000000010100010011 <
b100000000000000000010100010011 "
b100000000000000000010100010011 ?
1d
1]
0v
b101010 w
b101010 ["
b101 Z"
b10100000 Q
b1100010110100000 P
b110001011010000000100011 !
b110001011010000000100011 3
1E
b100101 2#
00#
b100101 '"
b100101 %#
b101 8#
b101 &"
b101 $#
b10100 I
b100 $
b100 ^
1i
b100010 o"
b100010 g
b100010 ##
0#"
b110 8
b100101 x
b100101 Y"
b100101 q
b1001 )
b10 o
b10 {"
b1 p
b1 z"
b101 G
b101 V"
b101 K#
b10100 H
b10000 #
b10000 >
b10000 U"
b10001000001000001000110011 J"
b10001000001000001000110011 "#
b10000 L"
b1100 K"
b10 5"
b10 \"
b10 D"
b10 x"
b1 B"
b1 w"
b11 @"
b11 |"
b1100 ?"
b1000 >"
b1000 _"
b1010 u
b10 7"
02"
b10 -"
b10 v"
b1000 ,"
b100101 (
b100101 2
b100101 ("
b1 N
b1 S"
b1 y"
b1 J#
b100 R"
b1 Q"
b101 P"
b100 -
1+
#60000
0+
#65000
b101110 t
b0 Z
b0 M"
b1101111 !
b1101111 3
b0 s
1D
1m
0d
1]
b1101010010000000100011 <
b1101010010000000100011 "
b1101010010000000100011 ?
0E
b100101 G
b100101 V"
b100101 K#
b1 o
b1 {"
b0 p
b0 z"
b100 O"
b1001010000000000000000 '
b1001010000000000000000 6
b1001010000000000000000 N"
b101010 q
b0 Q
b0 P
b10 O
b1010 )
0#"
b100110 8
1C
b10011 _
b10011 q"
b1010 ^
b0 \
b0 }"
b0 L#
b0 Y
b0 ~"
b0 M#
0i
b1000000000 o"
b1000000000 g
b1000000000 ##
b11000 I
b101 $
b0 [
b0 O#
b10 N
b10 S"
b10 y"
b10 J#
b1000 R"
b11111111111111111111111110100000 Q"
b100101 P"
b11 -"
b11 v"
b1100 ,"
b100101 /"
b101010 (
b101010 2
b101010 ("
b100010 5"
b100010 \"
b100 @"
b100 |"
b10000 ?"
b1100 >"
b1100 _"
b101110 u
b100010 7"
b101 C"
19"
b100000000000000000010100010011 J"
b100000000000000000010100010011 "#
b10100 L"
b10000 K"
b11000 H
b10100 #
b10100 >
b10100 U"
b101 -
1+
#70000
0+
#75000
b101 w
b101 ["
b0 Z"
b0 x
b0 Y"
b0 5#
1L
b11111111111111111111111110010011 M"
b10100000000000010010011 !
b10100000000000010010011 3
b0 2#
10#
b0 '"
b0 %#
b1 O"
b0 '
b0 6
b0 N"
b0 q
b10010011 Q
b10010011 P
b0 O
b0 )
b0 o
b0 {"
b101010 G
b101010 V"
b101010 K#
b1 H#
b100101 @#
b101 ?#
b0 -"
b0 v"
b0 ,"
b0 /"
b0 (
b0 2
b0 ("
0."
b11 N
b11 S"
b11 y"
b11 J#
b1100 R"
b0 Q"
b101010 P"
b110 -
1+
#80000
0+
#85000
b0 G
b0 V"
b0 K#
b0 N
b0 S"
b0 y"
b0 J#
b0 R"
b11111111111111111111111110010011 Q"
b0 P"
0M
b10 H#
b10111001 F#
b111 -
1+
#90000
0+
#95000
0D
0L
0C
b10111001 s
1K
b100 H#
b10111001 J
b10111001 G#
b1000 -
1+
#100000
0+
#105000
b1000010000 t
b101010 W
b0 M"
b10 O"
b10011 !
b10011 3
b0 y
b0 W"
b0 |
b0 6#
1%"
b1000000000 w
b1000000000 ["
b1000000000 s
b101010 X
b101010 N#
b11 r"
1`
b1 f
b1 t"
b1 !#
1m
0]
b10001010010001000100011 <
b10001010010001000100011 "
b10001010010001000100011 ?
b10111001 q
b0 Q
b0 P
b1 O
b101110 )
0#"
b1000000000 8
b0 8#
b0 &"
b0 $#
b1000000000 x
b1000000000 Y"
b100011 _
b100011 q"
b0 ^
b1010 \
b1010 }"
b1010 L#
b11 Y
b11 ~"
b11 M#
b10 j
b10 p"
b11 o"
b0 g
b0 ##
b11100 I
b110 $
b100 -"
b100 v"
b10000 ,"
b10111001 (
b10111001 2
b10111001 ("
1."
b1000000000 5"
b1000000000 \"
b0 D"
b0 x"
b0 B"
b0 w"
b1010 @"
b1010 |"
b10100 ?"
b10000 >"
b10000 _"
b1000010000 u
b1000000000 7"
b0 C"
12"
09"
b1101010010000000100011 J"
b1101010010000000100011 "#
b11000 L"
b10100 K"
b11100 H
b11000 #
b11000 >
b11000 U"
0K
b0 H#
b1001 -
1+
#110000
0+
#115000
b1000000000 {
b1000000000 a"
b10100 t
b10111001 W
b110000000000000000010110010011 <
b110000000000000000010110010011 "
b110000000000000000010110010011 ?
b0 X
b0 N#
1`
b1 f
b1 t"
b1 !#
1m
b101010 5#
b1000000000 y
b1000000000 W"
b1000000000 |
b1000000000 6#
b10011 M"
b1 O"
1F
b100000 I
b111 $
b100 ^
b100 Y
b100 ~"
b100 M#
b100 o"
b100 g
b100 ##
0#"
b10 ~
0&#
0%"
b0 x
b0 Y"
b101010 2#
00#
b101010 '"
b101010 %#
b1000000000 8#
b1000000000 &"
b1000000000 $#
b1000000000 q
b10011 Q
b10011 P
b0 O
b10000000 )
b10111001 G
b10111001 V"
b10111001 K#
b10 p
b10 z"
b100000 H
b11100 #
b11100 >
b11100 U"
b10001010010001000100011 J"
b10001010010001000100011 "#
b11100 L"
b11000 K"
b11 5"
b11 \"
1.#
b10 6"
b10 +#
b11 D"
b11 x"
b1010 B"
b1010 w"
b0 @"
b0 |"
b11000 ?"
b10100 >"
b10100 _"
b10100 u
b0 7"
b101010 E"
1="
0A"
b1010 -"
b1010 v"
b10100 ,"
b1000000000 (
b1000000000 2
b1000000000 ("
b100 N
b100 S"
b100 y"
b100 J#
b10000 R"
b0 Q"
b10111001 P"
1M
b1010 -
1+
#120000
0+
#125000
b1000000100 s
b11100 t
b0 W
xB
b1000000100 w
b1000000100 ["
b100 Z"
b10111001 5#
b0 r"
1]
0`
b0 f
b0 t"
b0 !#
1m
b100000000011000010011 <
b100000000011000010011 "
b100000000011000010011 ?
0F
b1000000000 G
b1000000000 V"
b1000000000 K#
b1111 O"
b101010 '
b101010 6
b101010 N"
b1111 %
b1111 z
15
0#"
b1 p
b1 z"
b100 x
b100 Y"
b1000000100 8
b10111001 2#
b10111001 '"
b10111001 %#
b10011 _
b10011 q"
b1011 ^
b0 \
b0 }"
b0 L#
b0 Y
b0 ~"
b0 M#
b0 j
b0 p"
b1100000000 o"
b1100000000 g
b1100000000 ##
b100100 I
b1000 $
b0 X
b0 N#
b1010 N
b1010 S"
b1010 y"
b1010 J#
b10100 R"
b10011 Q"
b1000000000 P"
b10 )"
b0 -"
b0 v"
b11000 ,"
b101010 /"
1&
1+"
0."
b100 5"
b100 \"
b100 D"
b100 x"
b100 @"
b100 |"
b11100 ?"
b11000 >"
b11000 _"
b11100 u
b100 7"
b10111001 E"
b110000000000000000010110010011 J"
b110000000000000000010110010011 "#
b100000 L"
b11100 K"
b100100 H
b100000 #
b100000 >
b100000 U"
b1011 -
1+
#130000
0+
#135000
b1100000000 s
b101 W
b11000000000000 {
b11000000000000 a"
b1100011100 t
b110001011010000000100011 <
b110001011010000000100011 "
b110001011010000000100011 ?
b101 X
b101 N#
1m
1]
1(#
b1100000000 w
b1100000000 ["
b0 Z"
b0 5#
b0 y
b0 W"
b0 |
b0 6#
b101000 I
b1001 $
b1100 ^
b1 Y
b1 ~"
b1 M#
b1 o"
b1 g
b1 ##
b11000000000000 }
b11000000000000 n"
1#"
b0 ~
1&#
1%"
b1100000000 x
b1100000000 Y"
b1100000000 8
b0 2#
10#
b0 '"
b0 %#
b0 8#
b0 &"
b0 $#
b10111001 '
b10111001 6
b10111001 N"
b1000000100 q
b10000001 )
b0 p
b0 z"
b10011 M"
b101000 H
b100100 #
b100100 >
b100100 U"
b100000000011000010011 J"
b100000000011000010011 "#
b100100 L"
b100000 K"
b1100000000 5"
b1100000000 \"
0.#
b0 6"
b0 +#
b0 D"
b0 x"
b0 B"
b0 w"
b1011 @"
b1011 |"
b100000 ?"
b11100 >"
b11100 _"
b1100011100 u
b1100000000 7"
b0 E"
0="
1A"
b100 -"
b100 v"
b11100 ,"
b10111001 /"
b1000000100 (
b1000000100 2
b1000000100 ("
b0 N
b0 S"
b0 y"
b0 J#
b11000 R"
0M
b1100 -
b10011 Q
b10011 P
b10011 !
b10011 3
1+
#140000
0+
#145000
b0 {
b0 a"
b1 s
b100001 t
b0 W
0B
b1 w
b1 ["
b1 Z"
b101 5#
0%"
b0 X
b0 N#
b11 r"
1`
b1 f
b1 t"
b1 !#
1m
0]
b1101111 <
b1101111 "
b1101111 ?
b1000000100 G
b1000000100 V"
b1000000100 K#
b1 O"
b0 '
b0 6
b0 N"
b1100000000 q
b11000000 )
b0 %
b0 z
05
0#"
b0 }
b0 n"
b1 x
b1 Y"
b0 8
b101 2#
00#
b101 '"
b101 %#
b100011 _
b100011 q"
b0 ^
b1011 \
b1011 }"
b1011 L#
b1100 Y
b1100 ~"
b1100 M#
b10 j
b10 p"
b1100 o"
b0 g
b0 ##
b101100 I
b1010 $
b10011 M"
b100 N
b100 S"
b100 y"
b100 J#
b11100 R"
b1000000100 P"
b0 )"
b1011 -"
b1011 v"
b100000 ,"
b0 /"
b1100000000 (
b1100000000 2
b1100000000 ("
0&
0+"
1."
b1 5"
b1 \"
b1 D"
b1 x"
b1100 @"
b1100 |"
b100100 ?"
b100000 >"
b100000 _"
b100001 u
b1 7"
b101 E"
b110001011010000000100011 J"
b110001011010000000100011 "#
b101000 L"
b100100 K"
b101100 H
b101000 #
b101000 >
b101000 U"
b10011 Q
b10011 P
b10011 !
b10011 3
b1101 -
1+
#150000
0+
#155000
b1100000000 {
b1100000000 a"
b1100000000 s
b100100 t
b10011 <
b10011 "
b10011 ?
b0 r"
b10 S
b10 u"
1b
1]
0`
b100 f
b100 t"
b100 !#
0m
b1100000000 w
b1100000000 ["
b0 Z"
b1 5#
b1100000000 y
b1100000000 W"
b1100000000 |
b1100000000 6#
b0 M"
b10100000000000010010011 !
b10100000000000010010011 3
b0 Z
b110000 I
b1011 $
b1101111 _
b1101111 q"
b0 \
b0 }"
b0 L#
b0 Y
b0 ~"
b0 M#
b0 j
b0 p"
b0 o"
0#"
b10 ~
0&#
b0 x
b0 Y"
b1100000000 8
b1 2#
b1 '"
b1 %#
b1100000000 8#
b1100000000 &"
b1100000000 $#
b10 O"
b10100000000 '
b10100000000 6
b10100000000 N"
b1 q
b0 Q
b101000000000000 P
b1 O
b0 )
0E
b1100000000 G
b1100000000 V"
b1100000000 K#
b10 o
b10 {"
b1 p
b1 z"
b110000 H
b101100 #
b101100 >
b101100 U"
b1101111 J"
b1101111 "#
b101100 L"
b101000 K"
b1100 5"
b1100 \"
1.#
b10 6"
b10 +#
b1100 D"
b1100 x"
b1011 B"
b1011 w"
b0 @"
b0 |"
b101000 ?"
b100100 >"
b100100 _"
b100100 u
b0 7"
b0 E"
1="
0A"
b1100 -"
b1100 v"
b100100 ,"
b101 /"
b1 (
b1 2
b1 ("
b1011 N
b1011 S"
b1011 y"
b1011 J#
b100000 R"
b1100000000 P"
1M
b1110 -
1+
#160000
0+
#165000
1v
b0 s
1:
b0 {
b0 a"
b0 5#
b0 y
b0 W"
b0 |
b0 8
b0 6#
1%"
b101000 t
b10011 !
b10011 3
xB
1(#
b0 2#
10#
b0 '"
b0 %#
b0 8#
b0 &"
b0 $#
b0 w
b0 ["
b0 Z"
1m
0b
b0 S
b0 u"
b0 f
b0 t"
b0 !#
1]
b1 G
b1 V"
b1 K#
b10011 M"
b1111 O"
b1 '
b1 6
b1 N"
b1100000000 q
b10011 Q
b10011 P
b0 O
b11000000 )
b1111 %
b1111 z
15
0#"
b0 ~
1&#
b0 o
b0 {"
b0 p
b0 z"
b0 x
b0 Y"
b10011 _
b10011 q"
b101000 I
b1100 $
b1100 N
b1100 S"
b1100 y"
b1100 J#
b100100 R"
b0 Q"
b1 P"
b10 )"
b0 -"
b0 v"
b101000 ,"
b1 /"
b1100000000 (
b1100000000 2
b1100000000 ("
1&
1+"
0."
b0 5"
b0 \"
0.#
b0 6"
b0 +#
b0 D"
b0 x"
b0 B"
b0 w"
b101100 ?"
b101000 u
b101000 >"
b101000 _"
b10 I"
02"
1;"
0="
1A"
b10011 J"
b10011 "#
b110000 L"
b101100 K"
b110100 H
b110000 #
b110000 >
b110000 U"
b1111 -
1+
#170000
0+
#175000
b101100 I
0:
b0 t
b1101111 <
b1101111 "
b1101111 ?
0B
b1010 $
b1 O"
b0 '
b0 6
b0 N"
b0 )
b101100 q
b0 %
b0 z
05
b1100000000 G
b1100000000 V"
b1100000000 K#
b11111111111111111111111110010011 M"
b101100 H
b101000 #
b101000 >
b101000 U"
b0 L"
b0 K"
b0 ?"
b0 u
b0 >"
b0 _"
b0 I"
0;"
0A"
b0 )"
b101100 ,"
b0 /"
b0 (
b0 2
b0 ("
b10 0"
0&
0+"
1."
b0 N
b0 S"
b0 y"
b0 J#
b101000 R"
b10011 Q"
b1100000000 P"
0M
b10000 -
b10010011 Q
b10010011 P
b10100000000000010010011 !
b10100000000000010010011 3
b1000001000 Q#
b10000000000000000000000000000011 R#
1+
