waveform/tb_soc.vcd
$date
	Tue Jun 23 14:22:00 2026
$end
$version
	Icarus Verilog
$end
$timescale
	1ps
$end
$scope module tb_soc $end
$var wire 2 ! bresp [1:0] $end
$var wire 2 " rresp [1:0] $end
$var wire 1 # wready $end
$var wire 1 $ rvalid $end
$var wire 32 % rdata [31:0] $end
$var wire 1 & bvalid $end
$var wire 1 ' awready $end
$var wire 1 ( arready $end
$var parameter 32 ) ADDR_WIDTH $end
$var reg 12 * araddr [11:0] $end
$var reg 1 + arvalid $end
$var reg 12 , awaddr [11:0] $end
$var reg 1 - awvalid $end
$var reg 1 . bready $end
$var reg 1 / clk $end
$var reg 1 0 cpu_resetn $end
$var reg 32 1 rd [31:0] $end
$var reg 1 2 rready $end
$var reg 1 3 rst_n $end
$var reg 32 4 wdata [31:0] $end
$var reg 4 5 wstrb [3:0] $end
$var reg 1 6 wvalid $end
$var integer 32 7 errors [31:0] $end
$var integer 32 8 i [31:0] $end
$scope module dut $end
$var wire 1 / clk $end
$var wire 1 9 core_rst_n $end
$var wire 1 0 cpu_resetn $end
$var wire 1 3 rst_n $end
$var wire 12 : s_axi_araddr [11:0] $end
$var wire 3 ; s_axi_arprot [2:0] $end
$var wire 1 + s_axi_arvalid $end
$var wire 12 < s_axi_awaddr [11:0] $end
$var wire 3 = s_axi_awprot [2:0] $end
$var wire 1 - s_axi_awvalid $end
$var wire 1 . s_axi_bready $end
$var wire 2 > s_axi_bresp [1:0] $end
$var wire 1 2 s_axi_rready $end
$var wire 2 ? s_axi_rresp [1:0] $end
$var wire 32 @ s_axi_wdata [31:0] $end
$var wire 4 A s_axi_wstrb [3:0] $end
$var wire 1 6 s_axi_wvalid $end
$var wire 1 # s_axi_wready $end
$var wire 1 $ s_axi_rvalid $end
$var wire 32 B s_axi_rdata [31:0] $end
$var wire 1 & s_axi_bvalid $end
$var wire 1 ' s_axi_awready $end
$var wire 1 ( s_axi_arready $end
$var wire 32 C imem_rdata [31:0] $end
$var wire 32 D imem_addr [31:0] $end
$var wire 4 E dmem_wstrb [3:0] $end
$var wire 1 F dmem_we $end
$var wire 32 G dmem_wdata [31:0] $end
$var wire 32 H dmem_rdata [31:0] $end
$var wire 32 I dmem_addr [31:0] $end
$var parameter 32 J ADDR_WIDTH $end
$scope module u_core $end
$var wire 1 K bus_stall $end
$var wire 1 / clk $end
$var wire 1 L csr_illegal $end
$var wire 1 M csr_wr $end
$var wire 32 N dmem_addr [31:0] $end
$var wire 1 O dmem_ready $end
$var wire 1 P dmem_valid $end
$var wire 32 Q dmem_wdata [31:0] $end
$var wire 1 F dmem_we $end
$var wire 1 R ex_branch_taken $end
$var wire 32 S ex_jalr_target [31:0] $end
$var wire 1 T ex_mret $end
$var wire 1 U ex_redirect $end
$var wire 1 V ex_trap $end
$var wire 32 W if_instr [31:0] $end
$var wire 1 X if_stall $end
$var wire 32 Y imem_addr [31:0] $end
$var wire 1 Z imem_ready $end
$var wire 1 [ imem_valid $end
$var wire 1 \ ls_stall $end
$var wire 1 ] mul_stall $end
$var wire 1 9 rst_n $end
$var wire 1 ^ stall_front $end
$var wire 1 _ wb2id_rs1 $end
$var wire 1 ` wb2id_rs2 $end
$var wire 32 a wb_data [31:0] $end
$var wire 32 b pc_plus4 [31:0] $end
$var wire 32 c next_pc [31:0] $end
$var wire 32 d mul_result [31:0] $end
$var wire 1 e mul_done $end
$var wire 1 f mul_busy $end
$var wire 1 g memwb_reg_write $end
$var wire 5 h memwb_rd [4:0] $end
$var wire 2 i mem_off [1:0] $end
$var wire 16 j mem_ld_half [15:0] $end
$var wire 8 k mem_ld_byte [7:0] $end
$var wire 1 l load_use_stall $end
$var wire 32 m imem_rdata [31:0] $end
$var wire 2 n id_wb_sel [1:0] $end
$var wire 1 o id_sys_mret $end
$var wire 1 p id_sys_ecall $end
$var wire 1 q id_sys_ebreak $end
$var wire 32 r id_rs2_fwd [31:0] $end
$var wire 32 s id_rs2_data [31:0] $end
$var wire 5 t id_rs2 [4:0] $end
$var wire 32 u id_rs1_fwd [31:0] $end
$var wire 32 v id_rs1_data [31:0] $end
$var wire 5 w id_rs1 [4:0] $end
$var wire 1 x id_reg_write $end
$var wire 5 y id_rd [4:0] $end
$var wire 7 z id_opcode [6:0] $end
$var wire 1 { id_mem_write $end
$var wire 1 | id_mem_read $end
$var wire 1 } id_jump $end
$var wire 1 ~ id_jalr $end
$var wire 1 !" id_is_muldiv $end
$var wire 1 "" id_is_csr $end
$var wire 3 #" id_imm_sel [2:0] $end
$var wire 32 $" id_imm [31:0] $end
$var wire 1 %" id_funct7b5 $end
$var wire 1 &" id_funct7b0 $end
$var wire 3 '" id_funct3 [2:0] $end
$var wire 1 (" id_branch $end
$var wire 4 )" id_alu_op [3:0] $end
$var wire 1 *" id_alu_b_src $end
$var wire 1 +" id_alu_a_src $end
$var wire 2 ," forward_b [1:0] $end
$var wire 2 -" forward_a [1:0] $end
$var wire 32 ." exmem_fwd_val [31:0] $end
$var wire 32 /" ex_trap_cause [31:0] $end
$var wire 32 0" ex_result [31:0] $end
$var wire 32 1" ex_redirect_pc [31:0] $end
$var wire 32 2" ex_pc_target [31:0] $end
$var wire 1 3" ex_alu_zero $end
$var wire 32 4" ex_alu_result [31:0] $end
$var wire 32 5" ex_alu_b [31:0] $end
$var wire 32 6" ex_alu_a [31:0] $end
$var wire 4 7" dmem_wstrb [3:0] $end
$var wire 32 8" dmem_rdata [31:0] $end
$var wire 32 9" csr_wval [31:0] $end
$var wire 32 :" csr_src [31:0] $end
$var wire 32 ;" csr_rdata [31:0] $end
$var wire 2 <" csr_op [1:0] $end
$var wire 32 =" csr_mtvec [31:0] $end
$var wire 32 >" csr_mepc [31:0] $end
$var wire 1 ?" csr_addr_valid $end
$var parameter 32 @" RESET_PC $end
$var reg 1 A" ex_branch_cond $end
$var reg 32 B" ex_rs1_fwd [31:0] $end
$var reg 32 C" ex_rs2_fwd [31:0] $end
$var reg 32 D" exmem_alu_result [31:0] $end
$var reg 3 E" exmem_funct3 [2:0] $end
$var reg 1 F" exmem_mem_read $end
$var reg 1 G" exmem_mem_write $end
$var reg 32 H" exmem_pc4 [31:0] $end
$var reg 5 I" exmem_rd [4:0] $end
$var reg 1 J" exmem_reg_write $end
$var reg 32 K" exmem_rs2_data [31:0] $end
$var reg 2 L" exmem_wb_sel [1:0] $end
$var reg 1 M" idex_alu_a_src $end
$var reg 1 N" idex_alu_b_src $end
$var reg 4 O" idex_alu_op [3:0] $end
$var reg 1 P" idex_branch $end
$var reg 12 Q" idex_csr_addr [11:0] $end
$var reg 3 R" idex_funct3 [2:0] $end
$var reg 32 S" idex_imm [31:0] $end
$var reg 1 T" idex_is_csr $end
$var reg 1 U" idex_is_muldiv $end
$var reg 1 V" idex_jalr $end
$var reg 1 W" idex_jump $end
$var reg 1 X" idex_mem_read $end
$var reg 1 Y" idex_mem_write $end
$var reg 32 Z" idex_pc [31:0] $end
$var reg 32 [" idex_pc4 [31:0] $end
$var reg 5 \" idex_rd [4:0] $end
$var reg 1 ]" idex_reg_write $end
$var reg 5 ^" idex_rs1 [4:0] $end
$var reg 32 _" idex_rs1_data [31:0] $end
$var reg 5 `" idex_rs2 [4:0] $end
$var reg 32 a" idex_rs2_data [31:0] $end
$var reg 1 b" idex_sys_ebreak $end
$var reg 1 c" idex_sys_ecall $end
$var reg 1 d" idex_sys_mret $end
$var reg 2 e" idex_wb_sel [1:0] $end
$var reg 32 f" ifid_instr [31:0] $end
$var reg 32 g" ifid_pc [31:0] $end
$var reg 32 h" ifid_pc4 [31:0] $end
$var reg 32 i" mem_load_data [31:0] $end
$var reg 32 j" mem_store_data [31:0] $end
$var reg 4 k" mem_store_strb [3:0] $end
$var reg 32 l" memwb_alu_result [31:0] $end
$var reg 32 m" memwb_load_data [31:0] $end
$var reg 32 n" memwb_pc4 [31:0] $end
$var reg 5 o" memwb_rd_r [4:0] $end
$var reg 1 g memwb_reg_write_r $end
$var reg 2 p" memwb_wb_sel [1:0] $end
$var reg 32 q" pc [31:0] $end
$var reg 32 r" wb_mux [31:0] $end
$scope module u_alu $end
$var wire 32 s" a [31:0] $end
$var wire 4 t" alu_op [3:0] $end
$var wire 32 u" b [31:0] $end
$var wire 1 3" zero $end
$var wire 5 v" shamt [4:0] $end
$var reg 32 w" result [31:0] $end
$upscope $end
$scope module u_csr $end
$var wire 12 x" addr [11:0] $end
$var wire 1 / clk $end
$var wire 32 y" mepc_o [31:0] $end
$var wire 1 T mret_en $end
$var wire 1 T" rd_en $end
$var wire 1 9 rst_n $end
$var wire 32 z" trap_cause [31:0] $end
$var wire 1 V trap_en $end
$var wire 32 {" trap_epc [31:0] $end
$var wire 32 |" trap_val [31:0] $end
$var wire 32 }" wdata [31:0] $end
$var wire 1 ~" wr_en $end
$var wire 32 !# mtvec_o [31:0] $end
$var wire 32 "# mstatus [31:0] $end
$var reg 1 ?" addr_valid $end
$var reg 32 ## mcause [31:0] $end
$var reg 32 $# mepc [31:0] $end
$var reg 32 %# mie [31:0] $end
$var reg 32 &# mip [31:0] $end
$var reg 32 '# mscratch [31:0] $end
$var reg 1 (# mstatus_mie $end
$var reg 1 )# mstatus_mpie $end
$var reg 32 *# mtval [31:0] $end
$var reg 32 +# mtvec [31:0] $end
$var reg 32 ,# rdata [31:0] $end
$upscope $end
$scope module u_ctrl $end
$var wire 12 -# funct12 [11:0] $end
$var wire 3 .# funct3 [2:0] $end
$var wire 1 &" funct7b0 $end
$var wire 1 %" funct7b5 $end
$var wire 7 /# opcode [6:0] $end
$var reg 1 +" alu_a_src $end
$var reg 4 0# alu_arith [3:0] $end
$var reg 1 *" alu_b_src $end
$var reg 4 1# alu_op [3:0] $end
$var reg 1 (" branch $end
$var reg 3 2# imm_sel [2:0] $end
$var reg 1 "" is_csr $end
$var reg 1 !" is_muldiv $end
$var reg 1 ~ jalr $end
$var reg 1 } jump $end
$var reg 1 | mem_read $end
$var reg 1 { mem_write $end
$var reg 1 x reg_write $end
$var reg 1 q sys_ebreak $end
$var reg 1 p sys_ecall $end
$var reg 1 o sys_mret $end
$var reg 2 3# wb_sel [1:0] $end
$upscope $end
$scope module u_fwd $end
$var wire 5 4# exmem_rd [4:0] $end
$var wire 1 J" exmem_reg_write $end
$var wire 5 5# idex_rs1 [4:0] $end
$var wire 5 6# idex_rs2 [4:0] $end
$var wire 5 7# memwb_rd [4:0] $end
$var wire 1 g memwb_reg_write $end
$var reg 2 8# forward_a [1:0] $end
$var reg 2 9# forward_b [1:0] $end
$upscope $end
$scope module u_hazard $end
$var wire 1 X" idex_mem_read $end
$var wire 5 :# idex_rd [4:0] $end
$var wire 5 ;# ifid_rs1 [4:0] $end
$var wire 5 <# ifid_rs2 [4:0] $end
$var wire 1 l stall $end
$upscope $end
$scope module u_imm $end
$var wire 3 =# imm_sel [2:0] $end
$var wire 32 ># instr [31:0] $end
$var reg 32 ?# imm [31:0] $end
$upscope $end
$scope module u_muldiv $end
$var wire 32 @# a [31:0] $end
$var wire 32 A# b [31:0] $end
$var wire 1 B# b_s $end
$var wire 1 f busy $end
$var wire 1 / clk $end
$var wire 1 C# ge $end
$var wire 1 D# is_mul $end
$var wire 1 E# na $end
$var wire 1 F# nb $end
$var wire 3 G# op [2:0] $end
$var wire 1 H# overflow $end
$var wire 1 9 rst_n $end
$var wire 1 I# signed_div $end
$var wire 1 K stall $end
$var wire 1 U" start $end
$var wire 1 J# take_high $end
$var wire 32 K# rem_hi [31:0] $end
$var wire 1 e done $end
$var wire 1 L# div_zero $end
$var wire 33 M# diff [32:0] $end
$var wire 33 N# b_ext [32:0] $end
$var wire 64 O# acc_sh [63:0] $end
$var wire 64 P# acc_nx [63:0] $end
$var wire 32 Q# abs_b [31:0] $end
$var wire 32 R# abs_a [31:0] $end
$var wire 1 S# a_s $end
$var wire 33 T# a_ext [32:0] $end
$var parameter 3 U# CALC $end
$var parameter 3 V# FIN $end
$var parameter 3 W# IDLE $end
$var parameter 3 X# MUL1 $end
$var parameter 3 Y# MUL2 $end
$var reg 64 Z# acc [63:0] $end
$var reg 33 [# areg [32:0] $end
$var reg 33 \# breg [32:0] $end
$var reg 6 ]# cnt [5:0] $end
$var reg 32 ^# divisor_q [31:0] $end
$var reg 1 _# neg_q $end
$var reg 1 `# neg_r $end
$var reg 3 a# op_q [2:0] $end
$var reg 66 b# preg [65:0] $end
$var reg 32 c# result [31:0] $end
$var reg 3 d# state [2:0] $end
$var reg 1 e# take_high_q $end
$upscope $end
$scope module u_rf $end
$var wire 1 / clk $end
$var wire 5 f# rd_addr [4:0] $end
$var wire 32 g# rd_data [31:0] $end
$var wire 5 h# rs1_addr [4:0] $end
$var wire 5 i# rs2_addr [4:0] $end
$var wire 1 g we $end
$var wire 32 j# rs2_data [31:0] $end
$var wire 32 k# rs1_data [31:0] $end
$var integer 32 l# i [31:0] $end
$upscope $end
$upscope $end
$scope module u_mem $end
$var wire 1 / clk $end
$var wire 32 m# dmem_addr [31:0] $end
$var wire 32 n# dmem_rdata [31:0] $end
$var wire 32 o# dmem_wdata [31:0] $end
$var wire 1 F dmem_we $end
$var wire 4 p# dmem_wstrb [3:0] $end
$var wire 32 q# imem_addr [31:0] $end
$var wire 32 r# imem_rdata [31:0] $end
$var wire 1 s# rd_accept $end
$var wire 1 3 rst_n $end
$var wire 12 t# s_axi_araddr [11:0] $end
$var wire 3 u# s_axi_arprot [2:0] $end
$var wire 1 ( s_axi_arready $end
$var wire 1 + s_axi_arvalid $end
$var wire 12 v# s_axi_awaddr [11:0] $end
$var wire 3 w# s_axi_awprot [2:0] $end
$var wire 1 ' s_axi_awready $end
$var wire 1 - s_axi_awvalid $end
$var wire 1 . s_axi_bready $end
$var wire 2 x# s_axi_bresp [1:0] $end
$var wire 1 & s_axi_bvalid $end
$var wire 32 y# s_axi_rdata [31:0] $end
$var wire 1 2 s_axi_rready $end
$var wire 2 z# s_axi_rresp [1:0] $end
$var wire 1 $ s_axi_rvalid $end
$var wire 32 {# s_axi_wdata [31:0] $end
$var wire 1 # s_axi_wready $end
$var wire 4 |# s_axi_wstrb [3:0] $end
$var wire 1 6 s_axi_wvalid $end
$var wire 1 }# wr_accept $end
$var wire 10 ~# imem_idx [9:0] $end
$var wire 10 !$ dmem_idx [9:0] $end
$var wire 10 "$ axi_waddr_idx [9:0] $end
$var parameter 32 #$ ADDR_WIDTH $end
$var parameter 32 $$ IDX_HI $end
$var parameter 32 %$ WORDS $end
$var reg 1 &$ arready_r $end
$var reg 1 '$ awready_r $end
$var reg 1 ($ bvalid_r $end
$var reg 32 )$ rdata_r [31:0] $end
$var reg 1 *$ rvalid_r $end
$var reg 1 +$ wready_r $end
$upscope $end
$upscope $end
$scope task axi_read $end
$var reg 12 ,$ addr [11:0] $end
$var reg 32 -$ data [31:0] $end
$upscope $end
$scope task axi_write $end
$var reg 12 .$ addr [11:0] $end
$var reg 32 /$ data [31:0] $end
$var reg 4 0$ strb [3:0] $end
$upscope $end
$upscope $end
$enddefinitions $end
$comment Show the parameter values. $end
$dumpall
b10000000000 %$
b1011 $$
b1100 #$
b10 Y#
b1 X#
b0 W#
b100 V#
b11 U#
b0 @"
b1100 J
b1100 )
$end
#0
$dumpvars
bx 0$
bx /$
bx .$
bx -$
bx ,$
0+$
0*$
b0 )$
0($
0'$
0&$
b0 "$
b0 !$
b0 ~#
0}#
b0 |#
b0 {#
b0 z#
b0 y#
b0 x#
b0 w#
b0 v#
b0 u#
b0 t#
0s#
bx r#
b0 q#
b0 p#
b0 o#
bx n#
b0 m#
b100000 l#
b0 k#
b0 j#
b0 i#
b0 h#
b0 g#
b0 f#
0e#
b0 d#
b0 c#
b0 b#
b0 a#
0`#
0_#
b0 ^#
b0 ]#
b0 \#
b0 [#
b0 Z#
b0 T#
1S#
b0 R#
b0 Q#
b1 P#
b0 O#
b0 N#
b0 M#
1L#
b0 K#
0J#
0I#
0H#
b0 G#
0F#
0E#
1D#
1C#
1B#
b0 A#
b0 @#
b0 ?#
b10011 >#
b0 =#
b0 <#
b0 ;#
b0 :#
b0 9#
b0 8#
b0 7#
b0 6#
b0 5#
b0 4#
b0 3#
b0 2#
b0 1#
b0 0#
b10011 /#
b0 .#
b0 -#
b0 ,#
b0 +#
b0 *#
0)#
0(#
b0 '#
b0 &#
b0 %#
b0 $#
b0 ##
b11000000000000 "#
b0 !#
0~"
b0 }"
b0 |"
b0 {"
b10 z"
b0 y"
b0 x"
b0 w"
b0 v"
b0 u"
b0 t"
b0 s"
b0 r"
b0 q"
b0 p"
b0 o"
b0 n"
b0 m"
b0 l"
b1 k"
b0 j"
bx i"
b0 h"
b0 g"
b10011 f"
b0 e"
0d"
0c"
0b"
b0 a"
b0 `"
b0 _"
b0 ^"
0]"
b0 \"
b0 ["
b0 Z"
0Y"
0X"
0W"
0V"
0U"
0T"
b0 S"
b0 R"
b0 Q"
0P"
b0 O"
0N"
0M"
b0 L"
b0 K"
0J"
b0 I"
b0 H"
0G"
0F"
b0 E"
b0 D"
b0 C"
b0 B"
1A"
0?"
b0 >"
b0 ="
b0 <"
b0 ;"
b0 :"
b0 9"
bx 8"
b0 7"
b0 6"
b0 5"
b0 4"
13"
b0 2"
b0 1"
b0 0"
b10 /"
b0 ."
b0 -"
b0 ,"
0+"
1*"
b0 )"
0("
b0 '"
0&"
0%"
b0 $"
b0 #"
0""
0!"
0~
0}
0|
0{
b10011 z
b0 y
1x
b0 w
b0 v
b0 u
b0 t
b0 s
b0 r
0q
0p
0o
b0 n
bx m
0l
bx k
bx j
b0 i
b0 h
0g
0f
0e
b0 d
b100 c
b100 b
b0 a
0`
0_
0^
0]
0\
1[
zZ
b0 Y
xX
bx W
0V
0U
0T
b0 S
0R
b0 Q
0P
zO
b0 N
0M
0L
xK
b0 I
bx H
b0 G
0F
b0 E
b0 D
bx C
b0 B
b0 A
b0 @
b0 ?
b0 >
b0 =
b0 <
b0 ;
b0 :
09
b100000000 8
b0 7
06
b0 5
b0 4
03
02
bx 1
00
0/
0.
0-
b0 ,
0+
b0 *
0(
0'
0&
b0 %
0$
0#
b0 "
b0 !
$end
#5000
1/
#10000
0/
#15000
1/
#20000
13
0/
#25000
1/
#30000
b1111 0$
b100000000000100010011 /$
b0 .$
b0 8
0/
#35000
1/
#40000
1}#
16
1-
b1111 5
b1111 A
b1111 |#
b100000000000100010011 4
b100000000000100010011 @
b100000000000100010011 {#
0/
#45000
0}#
b10011 i"
1&
1($
1#
1+$
1'
1'$
b100000000000100010011 W
b100000000000100010011 C
b100000000000100010011 m
b100000000000100010011 r#
b100010011 j
b10011 k
b100000000000100010011 H
b100000000000100010011 8"
b100000000000100010011 n#
1/
#50000
0/
#55000
0#
0+$
0'
0'$
1/
#60000
1.
06
0-
0/
#65000
0&
0($
1/
#70000
b101100000000000110010011 /$
b100 .$
b1 8
0.
0/
#75000
1/
#80000
1}#
b1 "$
16
1-
b101100000000000110010011 4
b101100000000000110010011 @
b101100000000000110010011 {#
b100 ,
b100 <
b100 v#
0/
#85000
0}#
1&
1($
1#
1+$
1'
1'$
1/
#90000
0/
#95000
0#
0+$
0'
0'$
1/
#100000
1.
06
0-
0/
#105000
0&
0($
1/
#110000
b10010011 /$
b1000 .$
b10 8
0.
0/
#115000
1/
#120000
1}#
b10 "$
16
1-
b10010011 4
b10010011 @
b10010011 {#
b1000 ,
b1000 <
b1000 v#
0/
#125000
0}#
1&
1($
1#
1+$
1'
1'$
1/
#130000
0/
#135000
0#
0+$
0'
0'$
1/
#140000
1.
06
0-
0/
#145000
0&
0($
1/
#150000
b1000001000000010110011 /$
b1100 .$
b11 8
0.
0/
#155000
1/
#160000
1}#
b11 "$
16
1-
b1000001000000010110011 4
b1000001000000010110011 @
b1000001000000010110011 {#
b1100 ,
b1100 <
b1100 v#
0/
#165000
0}#
1&
1($
1#
1+$
1'
1'$
1/
#170000
0/
#175000
0#
0+$
0'
0'$
1/
#180000
1.
06
0-
0/
#185000
0&
0($
1/
#190000
b100010000000100010011 /$
b10000 .$
b100 8
0.
0/
#195000
1/
#200000
1}#
b100 "$
16
1-
b100010000000100010011 4
b100010000000100010011 @
b100010000000100010011 {#
b10000 ,
b10000 <
b10000 v#
0/
#205000
0}#
1&
1($
1#
1+$
1'
1'$
1/
#210000
0/
#215000
0#
0+$
0'
0'$
1/
#220000
1.
06
0-
0/
#225000
0&
0($
1/
#230000
b11111110001100010100110011100011 /$
b10100 .$
b101 8
0.
0/
#235000
1/
#240000
1}#
b101 "$
16
1-
b11111110001100010100110011100011 4
b11111110001100010100110011100011 @
b11111110001100010100110011100011 {#
b10100 ,
b10100 <
b10100 v#
0/
#245000
0}#
1&
1($
1#
1+$
1'
1'$
1/
#250000
0/
#255000
0#
0+$
0'
0'$
1/
#260000
1.
06
0-
0/
#265000
0&
0($
1/
#270000
b10000000000000000001010010011 /$
b11000 .$
b110 8
0.
0/
#275000
1/
#280000
1}#
b110 "$
16
1-
b10000000000000000001010010011 4
b10000000000000000001010010011 @
b10000000000000000001010010011 {#
b11000 ,
b11000 <
b11000 v#
0/
#285000
0}#
1&
1($
1#
1+$
1'
1'$
1/
#290000
0/
#295000
0#
0+$
0'
0'$
1/
#300000
1.
06
0-
0/
#305000
0&
0($
1/
#310000
b100101010000000100011 /$
b11100 .$
b111 8
0.
0/
#315000
1/
#320000
1}#
b111 "$
16
1-
b100101010000000100011 4
b100101010000000100011 @
b100101010000000100011 {#
b11100 ,
b11100 <
b11100 v#
0/
#325000
0}#
1&
1($
1#
1+$
1'
1'$
1/
#330000
0/
#335000
0#
0+$
0'
0'$
1/
#340000
1.
06
0-
0/
#345000
0&
0($
1/
#350000
b1101111 /$
b100000 .$
b1000 8
0.
0/
#355000
1/
#360000
1}#
b1000 "$
16
1-
b1101111 4
b1101111 @
b1101111 {#
b100000 ,
b100000 <
b100000 v#
0/
#365000
0}#
1&
1($
1#
1+$
1'
1'$
1/
#370000
0/
#375000
0#
0+$
0'
0'$
1/
#380000
1.
06
0-
0/
#385000
0&
0($
1/
#390000
b1001 8
0.
0/
#395000
1/
#400000
19
b0 8
10
0/
#405000
1*"
1x
b10 y
b1 t
b1 <#
b1 i#
b1 -#
b1 $"
b1 ?#
b1000 c
b101100000000000110010011 W
b101100000000000110010011 C
b101100000000000110010011 m
b101100000000000110010011 r#
b1 ~#
b10011 m"
1N"
1]"
b100000000000100010011 f"
b100000000000100010011 >#
b100 h"
b1000 b
b100 D
b100 Y
b100 q#
b100 q"
1/
#410000
b1 8
0/
#415000
b1 0"
b1 1"
1*"
1x
03"
b1 4"
b1 w"
b1 v"
b1100 c
b10010011 W
b10010011 C
b10010011 m
b10010011 r#
b10 ~#
b11 y
b1011 t
b1011 <#
b1011 i#
b1011 -#
b1011 $"
b1011 ?#
0?"
b1 5"
b1 u"
b1100 b
b1000 D
b1000 Y
b1000 q#
b1000 q"
b101100000000000110010011 f"
b101100000000000110010011 >#
b1000 h"
b100 g"
b1 Q"
b1 x"
b1 `"
b1 6#
b10 \"
b10 :#
b100 ["
b1 2"
b1 S"
1J"
1/
#420000
b10 8
0/
#425000
b1011 0"
b1111 1"
b1 i"
b10 k"
b1011 4"
b1011 w"
b1011 v"
1*"
1x
b1 ."
b1 k
b1000000000001 j
b1 i
0?"
b1011 5"
b1011 u"
b1010 S
b1 y
b0 t
b0 <#
b0 i#
b0 -#
b0 $"
b0 ?#
b10000 c
b1000001000000010110011 W
b1000001000000010110011 C
b1000001000000010110011 m
b1000001000000010110011 r#
b11 ~#
1g
b10 I"
b10 4#
b100 H"
b1 I
b1 N
b1 m#
b1 D"
b1011 Q"
b1011 x"
b1011 `"
b1011 6#
b11 \"
b11 :#
b1000 ["
b100 Z"
b100 {"
b1111 2"
b1011 S"
b10010011 f"
b10010011 >#
b1100 h"
b1000 g"
b10000 b
b1100 D
b1100 Y
b1100 q#
b1100 q"
1/
#430000
b11 8
0/
#435000
b0 0"
b1000 1"
b1 r
0*"
1x
13"
b0 4"
b0 w"
b0 v"
b1000 k"
b0 i"
1`
b10100 c
b100010000000100010011 W
b100010000000100010011 C
b100010000000100010011 m
b100010000000100010011 r#
b100 ~#
b110011 z
b110011 /#
b1 w
b1 ;#
b1 h#
b10 t
b10 <#
b10 i#
b10 -#
b10 $"
b10 ?#
0?"
b0 5"
b0 u"
b0 S
b1011 ."
b11 i
bx00000000 j
b0 k
b10010011 H
b10010011 8"
b10010011 n#
b10 !$
b1 a
b1 r"
b1 g#
b10100 b
b10000 D
b10000 Y
b10000 q#
b10000 q"
b1000001000000010110011 f"
b1000001000000010110011 >#
b10000 h"
b1100 g"
b0 Q"
b0 x"
b0 `"
b0 6#
b1 \"
b1 :#
b1100 ["
b1000 Z"
b1000 {"
b1000 2"
b0 S"
b11 I"
b11 4#
b1000 H"
b1011 I
b1011 N
b1011 m#
b1011 D"
b10 h
b10 o"
b10 7#
b10 f#
b100 n"
b1 m"
b1 l"
1/
#440000
b100 8
0/
#445000
b1 0"
b1110 1"
03"
b1 4"
b1 w"
b1 v"
b1 u
b0 r
b1 k"
b10011 i"
b1 5"
b1 u"
b1 Q#
0A"
b1 v
b1 k#
1*"
1x
0`
b1011 a
b1011 r"
b1011 g#
b0 ."
b10011 k
b100010011 j
b0 i
b100000000000100010011 H
b100000000000100010011 8"
b100000000000100010011 n#
b0 !$
0?"
b10 -"
b10 8#
b10 S
b1 N#
0L#
b1 C"
b1 A#
b10011 z
b10011 /#
b10 y
b10 w
b10 ;#
b10 h#
b1 t
b1 <#
b1 i#
b1 -#
b1 $"
b1 ?#
b11000 c
b11111110001100010100110011100011 W
b11111110001100010100110011100011 C
b11111110001100010100110011100011 m
b11111110001100010100110011100011 r#
b101 ~#
b0 s
b0 j#
b11 h
b11 o"
b11 7#
b11 f#
b1000 n"
b0 m"
b1011 l"
b1 I"
b1 4#
b1100 H"
b0 I
b0 N
b0 m#
b0 D"
b10 Q"
b10 x"
b10 `"
b10 6#
b1 ^"
b1 5#
b10000 ["
b1100 Z"
b1100 {"
b1110 2"
b10 S"
b1 a"
0N"
b100010000000100010011 f"
b100010000000100010011 >#
b10100 h"
b10000 g"
b11000 b
b10100 D
b10100 Y
b10100 q#
b10100 q"
1/
#450000
b101 8
0/
#455000
b10 0"
b1011 r
b10001 1"
b10 4"
b10 w"
b1011 s
b1011 j#
b101 0#
b10 #"
b10 2#
b10 =#
1("
0*"
0x
b1 6"
b1 s"
b1 :"
b1 R#
1A"
b1 i"
b11100 c
b10000000000000000001010010011 W
b10000000000000000001010010011 C
b10000000000000000001010010011 m
b10000000000000000001010010011 r#
b110 ~#
b1100011 z
b1100011 /#
b11001 y
b11 t
b11 <#
b11 i#
b100 '"
b100 .#
1%"
1&"
b111111100011 -#
b11111111111111111111111111111000 $"
b11111111111111111111111111111000 ?#
0?"
b1 T#
b1 B"
b1 @#
b10 k"
b100000000 G
b100000000 Q
b100000000 o#
b100000000 j"
b1 ."
b1 k
b1000000000001 j
b1 i
0`
b10 ,"
b10 9#
b0 -"
b0 8#
b0 a
b0 r"
b0 g#
b11100 b
b11000 D
b11000 Y
b11000 q#
b11000 q"
b11111110001100010100110011100011 f"
b11111110001100010100110011100011 >#
b11000 h"
b10100 g"
b1 Q"
b1 x"
b1 `"
b1 6#
b10 ^"
b10 5#
b10 \"
b10 :#
b10100 ["
b10000 Z"
b10000 {"
b10001 2"
b1 S"
b0 a"
b1 _"
1N"
b10000 H"
b1 K"
b1 I
b1 N
b1 m#
b1 D"
b1 h
b1 o"
b1 7#
b1 f#
b1100 n"
b10011 m"
b0 l"
1/
#460000
b110 8
0/
#465000
b1101 0"
1U
b1011 v"
b1101 4"
b1101 w"
0D#
b1011 5"
b1011 u"
b1011 Q#
b10 6"
b10 s"
b10 R#
b1100 1"
b0 u
b0 r
b10000 i"
b100 k"
b10000000000000000 G
b10000000000000000 Q
b10000000000000000 o#
b10000000000000000 j"
b10 :"
b1011 N#
b1011 C"
b1011 A#
b10 T#
b10 B"
b10 @#
b0 v
b0 k#
b0 s
b0 j#
b0 0#
1*"
1x
0("
b0 #"
b0 2#
b0 =#
b1 a
b1 r"
b1 g#
b10 ."
b10000 k
b10000 j
b10 i
0?"
1I#
0B#
1A"
b0 ,"
b0 9#
b10 -"
b10 8#
b11111111111111111111111111111010 S
1R
b10011 z
b10011 /#
b101 y
b0 w
b0 ;#
b0 h#
b0 t
b0 <#
b0 i#
b0 '"
b0 .#
0%"
0&"
b100000000 -#
b100000000 $"
b100000000 ?#
b1100 c
b100101010000000100011 W
b100101010000000100011 C
b100101010000000100011 m
b100101010000000100011 r#
b111 ~#
b10000 n"
b1 m"
b1 l"
b10 I"
b10 4#
b10100 H"
b10 I
b10 N
b10 m#
b10 D"
b111111100011 Q"
b111111100011 x"
1J#
b100 R"
b100 G#
b11 `"
b11 6#
b11001 \"
b11001 :#
b11000 ["
b10100 Z"
b10100 {"
b1100 2"
b11111111111111111111111111111000 S"
b1011 a"
0N"
1P"
0]"
b10000000000000000001010010011 f"
b10000000000000000001010010011 >#
b11100 h"
b11000 g"
b100000 b
b11100 D
b11100 Y
b11100 q#
b11100 q"
1/
#470000
b111 8
0/
