waveform/tb_soc.vcd
$date
	Thu Jun 11 04:51:18 2026
$end
$version
	Icarus Verilog
$end
$timescale
	1ps
$end
$scope module tb_soc $end
$var wire 2 ! bresp [1:0] $end
$var wire 2 " rresp [1:0] $end
$var wire 1 # wready $end
$var wire 1 $ rvalid $end
$var wire 32 % rdata [31:0] $end
$var wire 1 & bvalid $end
$var wire 1 ' awready $end
$var wire 1 ( arready $end
$var parameter 32 ) ADDR_WIDTH $end
$var reg 12 * araddr [11:0] $end
$var reg 1 + arvalid $end
$var reg 12 , awaddr [11:0] $end
$var reg 1 - awvalid $end
$var reg 1 . bready $end
$var reg 1 / clk $end
$var reg 1 0 cpu_resetn $end
$var reg 32 1 rd [31:0] $end
$var reg 1 2 rready $end
$var reg 1 3 rst_n $end
$var reg 32 4 wdata [31:0] $end
$var reg 4 5 wstrb [3:0] $end
$var reg 1 6 wvalid $end
$var integer 32 7 errors [31:0] $end
$var integer 32 8 i [31:0] $end
$scope module dut $end
$var wire 1 / clk $end
$var wire 1 9 core_rst_n $end
$var wire 1 0 cpu_resetn $end
$var wire 1 3 rst_n $end
$var wire 12 : s_axi_araddr [11:0] $end
$var wire 3 ; s_axi_arprot [2:0] $end
$var wire 1 + s_axi_arvalid $end
$var wire 12 < s_axi_awaddr [11:0] $end
$var wire 3 = s_axi_awprot [2:0] $end
$var wire 1 - s_axi_awvalid $end
$var wire 1 . s_axi_bready $end
$var wire 2 > s_axi_bresp [1:0] $end
$var wire 1 2 s_axi_rready $end
$var wire 2 ? s_axi_rresp [1:0] $end
$var wire 32 @ s_axi_wdata [31:0] $end
$var wire 4 A s_axi_wstrb [3:0] $end
$var wire 1 6 s_axi_wvalid $end
$var wire 1 # s_axi_wready $end
$var wire 1 $ s_axi_rvalid $end
$var wire 32 B s_axi_rdata [31:0] $end
$var wire 1 & s_axi_bvalid $end
$var wire 1 ' s_axi_awready $end
$var wire 1 ( s_axi_arready $end
$var wire 32 C imem_rdata [31:0] $end
$var wire 32 D imem_addr [31:0] $end
$var wire 4 E dmem_wstrb [3:0] $end
$var wire 1 F dmem_we $end
$var wire 32 G dmem_wdata [31:0] $end
$var wire 32 H dmem_rdata [31:0] $end
$var wire 32 I dmem_addr [31:0] $end
$var parameter 32 J ADDR_WIDTH $end
$scope module u_core $end
$var wire 1 / clk $end
$var wire 1 K csr_illegal $end
$var wire 1 L csr_wr $end
$var wire 32 M dmem_addr [31:0] $end
$var wire 32 N dmem_wdata [31:0] $end
$var wire 1 F dmem_we $end
$var wire 1 O ex_branch_taken $end
$var wire 32 P ex_jalr_target [31:0] $end
$var wire 1 Q ex_mret $end
$var wire 1 R ex_redirect $end
$var wire 1 S ex_trap $end
$var wire 32 T if_instr [31:0] $end
$var wire 32 U imem_addr [31:0] $end
$var wire 1 V mul_stall $end
$var wire 1 9 rst_n $end
$var wire 1 W stall_front $end
$var wire 1 X wb2id_rs1 $end
$var wire 1 Y wb2id_rs2 $end
$var wire 32 Z wb_data [31:0] $end
$var wire 32 [ pc_plus4 [31:0] $end
$var wire 32 \ next_pc [31:0] $end
$var wire 32 ] mul_result [31:0] $end
$var wire 1 ^ mul_done $end
$var wire 1 _ mul_busy $end
$var wire 1 ` memwb_reg_write $end
$var wire 5 a memwb_rd [4:0] $end
$var wire 2 b mem_off [1:0] $end
$var wire 16 c mem_ld_half [15:0] $end
$var wire 8 d mem_ld_byte [7:0] $end
$var wire 1 e load_use_stall $end
$var wire 32 f imem_rdata [31:0] $end
$var wire 2 g id_wb_sel [1:0] $end
$var wire 1 h id_sys_mret $end
$var wire 1 i id_sys_ecall $end
$var wire 1 j id_sys_ebreak $end
$var wire 32 k id_rs2_fwd [31:0] $end
$var wire 32 l id_rs2_data [31:0] $end
$var wire 5 m id_rs2 [4:0] $end
$var wire 32 n id_rs1_fwd [31:0] $end
$var wire 32 o id_rs1_data [31:0] $end
$var wire 5 p id_rs1 [4:0] $end
$var wire 1 q id_reg_write $end
$var wire 5 r id_rd [4:0] $end
$var wire 7 s id_opcode [6:0] $end
$var wire 1 t id_mem_write $end
$var wire 1 u id_mem_read $end
$var wire 1 v id_jump $end
$var wire 1 w id_jalr $end
$var wire 1 x id_is_muldiv $end
$var wire 1 y id_is_csr $end
$var wire 3 z id_imm_sel [2:0] $end
$var wire 32 { id_imm [31:0] $end
$var wire 1 | id_funct7b5 $end
$var wire 1 } id_funct7b0 $end
$var wire 3 ~ id_funct3 [2:0] $end
$var wire 1 !" id_branch $end
$var wire 4 "" id_alu_op [3:0] $end
$var wire 1 #" id_alu_b_src $end
$var wire 1 $" id_alu_a_src $end
$var wire 2 %" forward_b [1:0] $end
$var wire 2 &" forward_a [1:0] $end
$var wire 32 '" exmem_fwd_val [31:0] $end
$var wire 32 (" ex_trap_cause [31:0] $end
$var wire 32 )" ex_result [31:0] $end
$var wire 32 *" ex_redirect_pc [31:0] $end
$var wire 32 +" ex_pc_target [31:0] $end
$var wire 1 ," ex_alu_zero $end
$var wire 32 -" ex_alu_result [31:0] $end
$var wire 32 ." ex_alu_b [31:0] $end
$var wire 32 /" ex_alu_a [31:0] $end
$var wire 4 0" dmem_wstrb [3:0] $end
$var wire 32 1" dmem_rdata [31:0] $end
$var wire 32 2" csr_wval [31:0] $end
$var wire 32 3" csr_src [31:0] $end
$var wire 32 4" csr_rdata [31:0] $end
$var wire 2 5" csr_op [1:0] $end
$var wire 32 6" csr_mtvec [31:0] $end
$var wire 32 7" csr_mepc [31:0] $end
$var wire 1 8" csr_addr_valid $end
$var parameter 32 9" RESET_PC $end
$var reg 1 :" ex_branch_cond $end
$var reg 32 ;" ex_rs1_fwd [31:0] $end
$var reg 32 <" ex_rs2_fwd [31:0] $end
$var reg 32 =" exmem_alu_result [31:0] $end
$var reg 3 >" exmem_funct3 [2:0] $end
$var reg 1 ?" exmem_mem_read $end
$var reg 1 @" exmem_mem_write $end
$var reg 32 A" exmem_pc4 [31:0] $end
$var reg 5 B" exmem_rd [4:0] $end
$var reg 1 C" exmem_reg_write $end
$var reg 32 D" exmem_rs2_data [31:0] $end
$var reg 2 E" exmem_wb_sel [1:0] $end
$var reg 1 F" idex_alu_a_src $end
$var reg 1 G" idex_alu_b_src $end
$var reg 4 H" idex_alu_op [3:0] $end
$var reg 1 I" idex_branch $end
$var reg 12 J" idex_csr_addr [11:0] $end
$var reg 3 K" idex_funct3 [2:0] $end
$var reg 32 L" idex_imm [31:0] $end
$var reg 1 M" idex_is_csr $end
$var reg 1 N" idex_is_muldiv $end
$var reg 1 O" idex_jalr $end
$var reg 1 P" idex_jump $end
$var reg 1 Q" idex_mem_read $end
$var reg 1 R" idex_mem_write $end
$var reg 32 S" idex_pc [31:0] $end
$var reg 32 T" idex_pc4 [31:0] $end
$var reg 5 U" idex_rd [4:0] $end
$var reg 1 V" idex_reg_write $end
$var reg 5 W" idex_rs1 [4:0] $end
$var reg 32 X" idex_rs1_data [31:0] $end
$var reg 5 Y" idex_rs2 [4:0] $end
$var reg 32 Z" idex_rs2_data [31:0] $end
$var reg 1 [" idex_sys_ebreak $end
$var reg 1 \" idex_sys_ecall $end
$var reg 1 ]" idex_sys_mret $end
$var reg 2 ^" idex_wb_sel [1:0] $end
$var reg 32 _" ifid_instr [31:0] $end
$var reg 32 `" ifid_pc [31:0] $end
$var reg 32 a" ifid_pc4 [31:0] $end
$var reg 32 b" mem_load_data [31:0] $end
$var reg 32 c" mem_store_data [31:0] $end
$var reg 4 d" mem_store_strb [3:0] $end
$var reg 32 e" memwb_alu_result [31:0] $end
$var reg 32 f" memwb_load_data [31:0] $end
$var reg 32 g" memwb_pc4 [31:0] $end
$var reg 5 h" memwb_rd_r [4:0] $end
$var reg 1 ` memwb_reg_write_r $end
$var reg 2 i" memwb_wb_sel [1:0] $end
$var reg 32 j" pc [31:0] $end
$var reg 32 k" wb_mux [31:0] $end
$scope module u_alu $end
$var wire 32 l" a [31:0] $end
$var wire 4 m" alu_op [3:0] $end
$var wire 32 n" b [31:0] $end
$var wire 1 ," zero $end
$var wire 5 o" shamt [4:0] $end
$var reg 32 p" result [31:0] $end
$upscope $end
$scope module u_csr $end
$var wire 12 q" addr [11:0] $end
$var wire 1 / clk $end
$var wire 32 r" mepc_o [31:0] $end
$var wire 1 Q mret_en $end
$var wire 1 M" rd_en $end
$var wire 1 9 rst_n $end
$var wire 32 s" trap_cause [31:0] $end
$var wire 1 S trap_en $end
$var wire 32 t" trap_epc [31:0] $end
$var wire 32 u" trap_val [31:0] $end
$var wire 32 v" wdata [31:0] $end
$var wire 1 w" wr_en $end
$var wire 32 x" mtvec_o [31:0] $end
$var wire 32 y" mstatus [31:0] $end
$var reg 1 8" addr_valid $end
$var reg 32 z" mcause [31:0] $end
$var reg 32 {" mepc [31:0] $end
$var reg 32 |" mie [31:0] $end
$var reg 32 }" mip [31:0] $end
$var reg 32 ~" mscratch [31:0] $end
$var reg 1 !# mstatus_mie $end
$var reg 1 "# mstatus_mpie $end
$var reg 32 ## mtval [31:0] $end
$var reg 32 $# mtvec [31:0] $end
$var reg 32 %# rdata [31:0] $end
$upscope $end
$scope module u_ctrl $end
$var wire 12 &# funct12 [11:0] $end
$var wire 3 '# funct3 [2:0] $end
$var wire 1 } funct7b0 $end
$var wire 1 | funct7b5 $end
$var wire 7 (# opcode [6:0] $end
$var reg 1 $" alu_a_src $end
$var reg 4 )# alu_arith [3:0] $end
$var reg 1 #" alu_b_src $end
$var reg 4 *# alu_op [3:0] $end
$var reg 1 !" branch $end
$var reg 3 +# imm_sel [2:0] $end
$var reg 1 y is_csr $end
$var reg 1 x is_muldiv $end
$var reg 1 w jalr $end
$var reg 1 v jump $end
$var reg 1 u mem_read $end
$var reg 1 t mem_write $end
$var reg 1 q reg_write $end
$var reg 1 j sys_ebreak $end
$var reg 1 i sys_ecall $end
$var reg 1 h sys_mret $end
$var reg 2 ,# wb_sel [1:0] $end
$upscope $end
$scope module u_fwd $end
$var wire 5 -# exmem_rd [4:0] $end
$var wire 1 C" exmem_reg_write $end
$var wire 5 .# idex_rs1 [4:0] $end
$var wire 5 /# idex_rs2 [4:0] $end
$var wire 5 0# memwb_rd [4:0] $end
$var wire 1 ` memwb_reg_write $end
$var reg 2 1# forward_a [1:0] $end
$var reg 2 2# forward_b [1:0] $end
$upscope $end
$scope module u_hazard $end
$var wire 1 Q" idex_mem_read $end
$var wire 5 3# idex_rd [4:0] $end
$var wire 5 4# ifid_rs1 [4:0] $end
$var wire 5 5# ifid_rs2 [4:0] $end
$var wire 1 e stall $end
$upscope $end
$scope module u_imm $end
$var wire 3 6# imm_sel [2:0] $end
$var wire 32 7# instr [31:0] $end
$var reg 32 8# imm [31:0] $end
$upscope $end
$scope module u_muldiv $end
$var wire 32 9# a [31:0] $end
$var wire 32 :# b [31:0] $end
$var wire 1 / clk $end
$var wire 1 ;# ge $end
$var wire 1 <# is_mul $end
$var wire 1 =# na $end
$var wire 1 ># nb $end
$var wire 3 ?# op [2:0] $end
$var wire 1 @# overflow $end
$var wire 1 9 rst_n $end
$var wire 1 A# signed_div $end
$var wire 1 N" start $end
$var wire 32 B# rem_hi [31:0] $end
$var wire 64 C# p_uu [63:0] $end
$var wire 64 D# p_su [63:0] $end
$var wire 64 E# p_ss [63:0] $end
$var wire 1 ^ done $end
$var wire 1 F# div_zero $end
$var wire 33 G# diff [32:0] $end
$var wire 1 _ busy $end
$var wire 64 H# bu [63:0] $end
$var wire 64 I# bs [63:0] $end
$var wire 64 J# au [63:0] $end
$var wire 64 K# as [63:0] $end
$var wire 64 L# acc_sh [63:0] $end
$var wire 64 M# acc_nx [63:0] $end
$var wire 32 N# abs_b [31:0] $end
$var wire 32 O# abs_a [31:0] $end
$var parameter 2 P# CALC $end
$var parameter 2 Q# FIN $end
$var parameter 2 R# IDLE $end
$var reg 64 S# acc [63:0] $end
$var reg 6 T# cnt [5:0] $end
$var reg 32 U# divisor_q [31:0] $end
$var reg 32 V# mul_res [31:0] $end
$var reg 1 W# neg_q $end
$var reg 1 X# neg_r $end
$var reg 3 Y# op_q [2:0] $end
$var reg 32 Z# result [31:0] $end
$var reg 2 [# state [1:0] $end
$upscope $end
$scope module u_rf $end
$var wire 1 / clk $end
$var wire 5 \# rd_addr [4:0] $end
$var wire 32 ]# rd_data [31:0] $end
$var wire 5 ^# rs1_addr [4:0] $end
$var wire 5 _# rs2_addr [4:0] $end
$var wire 1 ` we $end
$var wire 32 `# rs2_data [31:0] $end
$var wire 32 a# rs1_data [31:0] $end
$var integer 32 b# i [31:0] $end
$upscope $end
$upscope $end
$scope module u_mem $end
$var wire 1 / clk $end
$var wire 32 c# dmem_addr [31:0] $end
$var wire 32 d# dmem_rdata [31:0] $end
$var wire 32 e# dmem_wdata [31:0] $end
$var wire 1 F dmem_we $end
$var wire 4 f# dmem_wstrb [3:0] $end
$var wire 32 g# imem_addr [31:0] $end
$var wire 32 h# imem_rdata [31:0] $end
$var wire 1 i# rd_accept $end
$var wire 1 3 rst_n $end
$var wire 12 j# s_axi_araddr [11:0] $end
$var wire 3 k# s_axi_arprot [2:0] $end
$var wire 1 ( s_axi_arready $end
$var wire 1 + s_axi_arvalid $end
$var wire 12 l# s_axi_awaddr [11:0] $end
$var wire 3 m# s_axi_awprot [2:0] $end
$var wire 1 ' s_axi_awready $end
$var wire 1 - s_axi_awvalid $end
$var wire 1 . s_axi_bready $end
$var wire 2 n# s_axi_bresp [1:0] $end
$var wire 1 & s_axi_bvalid $end
$var wire 32 o# s_axi_rdata [31:0] $end
$var wire 1 2 s_axi_rready $end
$var wire 2 p# s_axi_rresp [1:0] $end
$var wire 1 $ s_axi_rvalid $end
$var wire 32 q# s_axi_wdata [31:0] $end
$var wire 1 # s_axi_wready $end
$var wire 4 r# s_axi_wstrb [3:0] $end
$var wire 1 6 s_axi_wvalid $end
$var wire 1 s# wr_accept $end
$var wire 10 t# imem_idx [9:0] $end
$var wire 10 u# dmem_idx [9:0] $end
$var wire 10 v# axi_waddr_idx [9:0] $end
$var parameter 32 w# ADDR_WIDTH $end
$var parameter 32 x# IDX_HI $end
$var parameter 32 y# WORDS $end
$var reg 1 z# arready_r $end
$var reg 1 {# awready_r $end
$var reg 1 |# bvalid_r $end
$var reg 32 }# rdata_r [31:0] $end
$var reg 1 ~# rvalid_r $end
$var reg 1 !$ wready_r $end
$upscope $end
$upscope $end
$scope task axi_read $end
$var reg 12 "$ addr [11:0] $end
$var reg 32 #$ data [31:0] $end
$upscope $end
$scope task axi_write $end
$var reg 12 $$ addr [11:0] $end
$var reg 32 %$ data [31:0] $end
$var reg 4 &$ strb [3:0] $end
$upscope $end
$upscope $end
$enddefinitions $end
$comment Show the parameter values. $end
$dumpall
b10000000000 y#
b1011 x#
b1100 w#
b0 R#
b10 Q#
b1 P#
b0 9"
b1100 J
b1100 )
$end
#0
$dumpvars
bx &$
bx %$
bx $$
bx #$
bx "$
0!$
0~#
b0 }#
0|#
0{#
0z#
b0 v#
b0 u#
b0 t#
0s#
b0 r#
b0 q#
b0 p#
b0 o#
b0 n#
b0 m#
b0 l#
b0 k#
b0 j#
0i#
bx h#
b0 g#
b0 f#
b0 e#
bx d#
b0 c#
b100000 b#
b0 a#
b0 `#
b0 _#
b0 ^#
b0 ]#
b0 \#
b0 [#
b0 Z#
b0 Y#
0X#
0W#
b0 V#
b0 U#
b0 T#
b0 S#
b0 O#
b0 N#
b1 M#
b0 L#
b0 K#
b0 J#
b0 I#
b0 H#
b0 G#
1F#
b0 E#
b0 D#
b0 C#
b0 B#
0A#
0@#
b0 ?#
0>#
0=#
1<#
1;#
b0 :#
b0 9#
b0 8#
b10011 7#
b0 6#
b0 5#
b0 4#
b0 3#
b0 2#
b0 1#
b0 0#
b0 /#
b0 .#
b0 -#
b0 ,#
b0 +#
b0 *#
b0 )#
b10011 (#
b0 '#
b0 &#
b0 %#
b0 $#
b0 ##
0"#
0!#
b0 ~"
b0 }"
b0 |"
b0 {"
b0 z"
b11000000000000 y"
b0 x"
0w"
b0 v"
b0 u"
b0 t"
b10 s"
b0 r"
b0 q"
b0 p"
b0 o"
b0 n"
b0 m"
b0 l"
b0 k"
b0 j"
b0 i"
b0 h"
b0 g"
b0 f"
b0 e"
b1 d"
b0 c"
bx b"
b0 a"
b0 `"
b10011 _"
b0 ^"
0]"
0\"
0["
b0 Z"
b0 Y"
b0 X"
b0 W"
0V"
b0 U"
b0 T"
b0 S"
0R"
0Q"
0P"
0O"
0N"
0M"
b0 L"
b0 K"
b0 J"
0I"
b0 H"
0G"
0F"
b0 E"
b0 D"
0C"
b0 B"
b0 A"
0@"
0?"
b0 >"
b0 ="
b0 <"
b0 ;"
1:"
08"
b0 7"
b0 6"
b0 5"
b0 4"
b0 3"
b0 2"
bx 1"
b0 0"
b0 /"
b0 ."
b0 -"
1,"
b0 +"
b0 *"
b0 )"
b10 ("
b0 '"
b0 &"
b0 %"
0$"
1#"
b0 ""
0!"
b0 ~
0}
0|
b0 {
b0 z
0y
0x
0w
0v
0u
0t
b10011 s
b0 r
1q
b0 p
b0 o
b0 n
b0 m
b0 l
b0 k
0j
0i
0h
b0 g
bx f
0e
bx d
bx c
b0 b
b0 a
0`
0_
0^
b0 ]
b100 \
b100 [
b0 Z
0Y
0X
0W
0V
b0 U
bx T
0S
0R
0Q
b0 P
0O
b0 N
b0 M
0L
0K
b0 I
bx H
b0 G
0F
b0 E
b0 D
bx C
b0 B
b0 A
b0 @
b0 ?
b0 >
b0 =
b0 <
b0 ;
b0 :
09
b100000000 8
b0 7
06
b0 5
b0 4
03
02
bx 1
00
0/
0.
0-
b0 ,
0+
b0 *
0(
0'
0&
b0 %
0$
0#
b0 "
b0 !
$end
#5000
1/
#10000
0/
#15000
1/
#20000
13
0/
#25000
1/
#30000
b1111 &$
b100000000000100010011 %$
b0 $$
b0 8
0/
#35000
1/
#40000
1s#
16
1-
b1111 5
b1111 A
b1111 r#
b100000000000100010011 4
b100000000000100010011 @
b100000000000100010011 q#
0/
#45000
0s#
b10011 b"
1&
1|#
1#
1!$
1'
1{#
b100000000000100010011 T
b100000000000100010011 C
b100000000000100010011 f
b100000000000100010011 h#
b100010011 c
b10011 d
b100000000000100010011 H
b100000000000100010011 1"
b100000000000100010011 d#
1/
#50000
0/
#55000
0#
0!$
0'
0{#
1/
#60000
1.
06
0-
0/
#65000
0&
0|#
1/
#70000
b101100000000000110010011 %$
b100 $$
b1 8
0.
0/
#75000
1/
#80000
1s#
b1 v#
16
1-
b101100000000000110010011 4
b101100000000000110010011 @
b101100000000000110010011 q#
b100 ,
b100 <
b100 l#
0/
#85000
0s#
1&
1|#
1#
1!$
1'
1{#
1/
#90000
0/
#95000
0#
0!$
0'
0{#
1/
#100000
1.
06
0-
0/
#105000
0&
0|#
1/
#110000
b10010011 %$
b1000 $$
b10 8
0.
0/
#115000
1/
#120000
1s#
b10 v#
16
1-
b10010011 4
b10010011 @
b10010011 q#
b1000 ,
b1000 <
b1000 l#
0/
#125000
0s#
1&
1|#
1#
1!$
1'
1{#
1/
#130000
0/
#135000
0#
0!$
0'
0{#
1/
#140000
1.
06
0-
0/
#145000
0&
0|#
1/
#150000
b1000001000000010110011 %$
b1100 $$
b11 8
0.
0/
#155000
1/
#160000
1s#
b11 v#
16
1-
b1000001000000010110011 4
b1000001000000010110011 @
b1000001000000010110011 q#
b1100 ,
b1100 <
b1100 l#
0/
#165000
0s#
1&
1|#
1#
1!$
1'
1{#
1/
#170000
0/
#175000
0#
0!$
0'
0{#
1/
#180000
1.
06
0-
0/
#185000
0&
0|#
1/
#190000
b100010000000100010011 %$
b10000 $$
b100 8
0.
0/
#195000
1/
#200000
1s#
b100 v#
16
1-
b100010000000100010011 4
b100010000000100010011 @
b100010000000100010011 q#
b10000 ,
b10000 <
b10000 l#
0/
#205000
0s#
1&
1|#
1#
1!$
1'
1{#
1/
#210000
0/
#215000
0#
0!$
0'
0{#
1/
#220000
1.
06
0-
0/
#225000
0&
0|#
1/
#230000
b11111110001100010100110011100011 %$
b10100 $$
b101 8
0.
0/
#235000
1/
#240000
1s#
b101 v#
16
1-
b11111110001100010100110011100011 4
b11111110001100010100110011100011 @
b11111110001100010100110011100011 q#
b10100 ,
b10100 <
b10100 l#
0/
#245000
0s#
1&
1|#
1#
1!$
1'
1{#
1/
#250000
0/
#255000
0#
0!$
0'
0{#
1/
#260000
1.
06
0-
0/
#265000
0&
0|#
1/
#270000
b10000000000000000001010010011 %$
b11000 $$
b110 8
0.
0/
#275000
1/
#280000
1s#
b110 v#
16
1-
b10000000000000000001010010011 4
b10000000000000000001010010011 @
b10000000000000000001010010011 q#
b11000 ,
b11000 <
b11000 l#
0/
#285000
0s#
1&
1|#
1#
1!$
1'
1{#
1/
#290000
0/
#295000
0#
0!$
0'
0{#
1/
#300000
1.
06
0-
0/
#305000
0&
0|#
1/
#310000
b100101010000000100011 %$
b11100 $$
b111 8
0.
0/
#315000
1/
#320000
1s#
b111 v#
16
1-
b100101010000000100011 4
b100101010000000100011 @
b100101010000000100011 q#
b11100 ,
b11100 <
b11100 l#
0/
#325000
0s#
1&
1|#
1#
1!$
1'
1{#
1/
#330000
0/
#335000
0#
0!$
0'
0{#
1/
#340000
1.
06
0-
0/
#345000
0&
0|#
1/
#350000
b1101111 %$
b100000 $$
b1000 8
0.
0/
#355000
1/
#360000
1s#
b1000 v#
16
1-
b1101111 4
b1101111 @
b1101111 q#
b100000 ,
b100000 <
b100000 l#
0/
#365000
0s#
1&
1|#
1#
1!$
1'
1{#
1/
#370000
0/
#375000
0#
0!$
0'
0{#
1/
#380000
1.
06
0-
0/
#385000
0&
0|#
1/
#390000
b1001 8
0.
0/
#395000
1/
#400000
19
b0 8
10
0/
#405000
1#"
1q
b10 r
b1 m
b1 5#
b1 _#
b1 &#
b1 {
b1 8#
b1000 \
b101100000000000110010011 T
b101100000000000110010011 C
b101100000000000110010011 f
b101100000000000110010011 h#
b1 t#
b10011 f"
1G"
1V"
b100000000000100010011 _"
b100000000000100010011 7#
b100 a"
b1000 [
b100 D
b100 U
b100 g#
b100 j"
1/
#410000
b1 8
0/
#415000
b1 )"
b1 *"
1#"
1q
0,"
b1 -"
b1 p"
b1 o"
b1100 \
b10010011 T
b10010011 C
b10010011 f
b10010011 h#
b10 t#
b11 r
b1011 m
b1011 5#
b1011 _#
b1011 &#
b1011 {
b1011 8#
08"
b1 ."
b1 n"
b1100 [
b1000 D
b1000 U
b1000 g#
b1000 j"
b101100000000000110010011 _"
b101100000000000110010011 7#
b1000 a"
b100 `"
b1 J"
b1 q"
b1 Y"
b1 /#
b10 U"
b10 3#
b100 T"
b1 +"
b1 L"
1C"
1/
#420000
b10 8
0/
#425000
b1011 )"
b1111 *"
b1 b"
b10 d"
b1011 -"
b1011 p"
b1011 o"
1#"
1q
b1 '"
b1 d
b1000000000001 c
b1 b
08"
b1011 ."
b1011 n"
b1010 P
b1 r
b0 m
b0 5#
b0 _#
b0 &#
b0 {
b0 8#
b10000 \
b1000001000000010110011 T
b1000001000000010110011 C
b1000001000000010110011 f
b1000001000000010110011 h#
b11 t#
1`
b10 B"
b10 -#
b100 A"
b1 I
b1 M
b1 c#
b1 ="
b1011 J"
b1011 q"
b1011 Y"
b1011 /#
b11 U"
b11 3#
b1000 T"
b100 S"
b100 t"
b1111 +"
b1011 L"
b10010011 _"
b10010011 7#
b1100 a"
b1000 `"
b10000 [
b1100 D
b1100 U
b1100 g#
b1100 j"
1/
#430000
b11 8
0/
#435000
b0 )"
b1000 *"
b1 k
0#"
1q
1,"
b0 -"
b0 p"
b0 o"
b1000 d"
b0 b"
1Y
b10100 \
b100010000000100010011 T
b100010000000100010011 C
b100010000000100010011 f
b100010000000100010011 h#
b100 t#
b110011 s
b110011 (#
b1 p
b1 4#
b1 ^#
b10 m
b10 5#
b10 _#
b10 &#
b10 {
b10 8#
08"
b0 ."
b0 n"
b0 P
b1011 '"
b11 b
bx00000000 c
b0 d
b10010011 H
b10010011 1"
b10010011 d#
b10 u#
b1 Z
b1 k"
b1 ]#
b10100 [
b10000 D
b10000 U
b10000 g#
b10000 j"
b1000001000000010110011 _"
b1000001000000010110011 7#
b10000 a"
b1100 `"
b0 J"
b0 q"
b0 Y"
b0 /#
b1 U"
b1 3#
b1100 T"
b1000 S"
b1000 t"
b1000 +"
b0 L"
b11 B"
b11 -#
b1000 A"
b1011 I
b1011 M
b1011 c#
b1011 ="
b10 a
b10 h"
b10 0#
b10 \#
b100 g"
b1 f"
b1 e"
1/
#440000
b100 8
0/
#445000
b1 )"
b1110 *"
0,"
b1 -"
b1 p"
b1 o"
b1 n
b0 k
b1 d"
b10011 b"
b1 ."
b1 n"
b1 N#
0:"
b1 o
b1 a#
1#"
1q
0Y
b1011 Z
b1011 k"
b1011 ]#
b0 '"
b10011 d
b100010011 c
b0 b
b100000000000100010011 H
b100000000000100010011 1"
b100000000000100010011 d#
b0 u#
08"
b10 &"
b10 1#
b10 P
b1 I#
b1 H#
0F#
b1 <"
b1 :#
b10011 s
b10011 (#
b10 r
b10 p
b10 4#
b10 ^#
b1 m
b1 5#
b1 _#
b1 &#
b1 {
b1 8#
b11000 \
b11111110001100010100110011100011 T
b11111110001100010100110011100011 C
b11111110001100010100110011100011 f
b11111110001100010100110011100011 h#
b101 t#
b0 l
b0 `#
b11 a
b11 h"
b11 0#
b11 \#
b1000 g"
b0 f"
b1011 e"
b1 B"
b1 -#
b1100 A"
b0 I
b0 M
b0 c#
b0 ="
b10 J"
b10 q"
b10 Y"
b10 /#
b1 W"
b1 .#
b10000 T"
b1100 S"
b1100 t"
b1110 +"
b10 L"
b1 Z"
0G"
b100010000000100010011 _"
b100010000000100010011 7#
b10100 a"
b10000 `"
b11000 [
b10100 D
b10100 U
b10100 g#
b10100 j"
1/
#450000
b101 8
0/
#455000
b10 )"
b1011 k
b10001 *"
b10 -"
b10 p"
b1011 l
b1011 `#
b101 )#
b10 z
b10 +#
b10 6#
1!"
0#"
0q
b1 /"
b1 l"
b1 3"
b1 V#
b1 O#
1:"
b1 b"
b11100 \
b10000000000000000001010010011 T
b10000000000000000001010010011 C
b10000000000000000001010010011 f
b10000000000000000001010010011 h#
b110 t#
b1100011 s
b1100011 (#
b11001 r
b11 m
b11 5#
b11 _#
b100 ~
b100 '#
1|
1}
b111111100011 &#
b11111111111111111111111111111000 {
b11111111111111111111111111111000 8#
08"
b1 E#
b1 D#
b1 K#
b1 C#
b1 J#
b1 ;"
b1 9#
b10 d"
b100000000 G
b100000000 N
b100000000 e#
b100000000 c"
b1 '"
b1 d
b1000000000001 c
b1 b
0Y
b10 %"
b10 2#
b0 &"
b0 1#
b0 Z
b0 k"
b0 ]#
b11100 [
b11000 D
b11000 U
b11000 g#
b11000 j"
b11111110001100010100110011100011 _"
b11111110001100010100110011100011 7#
b11000 a"
b10100 `"
b1 J"
b1 q"
b1 Y"
b1 /#
b10 W"
b10 .#
b10 U"
b10 3#
b10100 T"
b10000 S"
b10000 t"
b10001 +"
b1 L"
b0 Z"
b1 X"
1G"
b10000 A"
b1 D"
b1 I
b1 M
b1 c#
b1 ="
b1 a
b1 h"
b1 0#
b1 \#
b1100 g"
b10011 f"
b0 e"
1/
#460000
b110 8
0/
#465000
b1101 )"
1R
b1011 o"
b1101 -"
b1101 p"
0<#
b1011 ."
b1011 n"
b1011 N#
b10 /"
b10 l"
b10110 V#
b10 O#
b1100 *"
b0 n
b0 k
b10000 b"
b100 d"
b10000000000000000 G
b10000000000000000 N
b10000000000000000 e#
b10000000000000000 c"
b10 3"
b1011 I#
b1011 H#
b1011 <"
b1011 :#
b10110 E#
b10110 D#
b10 K#
b10110 C#
b10 J#
b10 ;"
b10 9#
b0 o
b0 a#
b0 l
b0 `#
b0 )#
1#"
1q
0!"
b0 z
b0 +#
b0 6#
b1 Z
b1 k"
b1 ]#
b10 '"
b10000 d
b10000 c
b10 b
08"
1A#
1:"
b0 %"
b0 2#
b10 &"
b10 1#
b11111111111111111111111111111010 P
1O
b10011 s
b10011 (#
b101 r
b0 p
b0 4#
b0 ^#
b0 m
b0 5#
b0 _#
b0 ~
b0 '#
0|
0}
b100000000 &#
b100000000 {
b100000000 8#
b1100 \
b100101010000000100011 T
b100101010000000100011 C
b100101010000000100011 f
b100101010000000100011 h#
b111 t#
b10000 g"
b1 f"
b1 e"
b10 B"
b10 -#
b10100 A"
b10 I
b10 M
b10 c#
b10 ="
b111111100011 J"
b111111100011 q"
b100 K"
b100 ?#
b11 Y"
b11 /#
b11001 U"
b11001 3#
b11000 T"
b10100 S"
b10100 t"
b1100 +"
b11111111111111111111111111111000 L"
b1011 Z"
0G"
1I"
0V"
b10000000000000000001010010011 _"
b10000000000000000001010010011 7#
b11100 a"
b11000 `"
b100000 [
b11100 D
b11100 U
b11100 g#
b11100 j"
1/
#470000
b111 8
0/
